<svg xmlns="http://www.w3.org/2000/svg" width="703.578" height="196.19" viewBox="0 0 703.578 196.19">
  <g id="microsoft_azure-ar21" transform="translate(-4.218 -3.941)">
    <path id="Path_16468" data-name="Path 16468" d="M123.415,79.928H112.143V35.918a128.9,128.9,0,0,1,.49-13.048,24.03,24.03,0,0,1-1.968,6.279L90.018,80.337H82.157L61.477,29.661l-1.968-6.825c.49,2.9.49,7.247.49,13.536V80.439H49.182V12.269H65.4L83.6,57.7l2.946,7.737a51.19,51.19,0,0,1,2.946-8.212l18.678-45.432h15.733ZM144.551,20.96a6.368,6.368,0,0,1-4.915-1.934,5.211,5.211,0,0,1-1.968-4.345,4.675,4.675,0,0,1,1.968-4.345A8.818,8.818,0,0,1,144.552,8.4a6.368,6.368,0,0,1,4.914,1.934,5.211,5.211,0,0,1,1.968,4.345,4.674,4.674,0,0,1-1.968,4.345,6.368,6.368,0,0,1-4.914,1.934Zm5.4,58.968H138.647V31.117h11.307Zm50.618-1.921c-3.936,2.412-8.849,3.415-14.254,3.415-7.371,0-13.275-2.412-17.7-6.769s-6.825-10.146-6.825-17.4c0-8.212,2.456-14.5,7.371-19.338s11.307-7.247,19.657-7.247a30.076,30.076,0,0,1,11.789,2.409l.006,10.127A19.7,19.7,0,0,0,189.8,39.333c-4.9,0-8.849,1.445-11.8,4.834a17.88,17.88,0,0,0-4.425,12.513c0,4.834,1.478,9.178,4.423,12.081a15.712,15.712,0,0,0,11.307,4.345,17.486,17.486,0,0,0,11.307-4.345v9.25Zm39.815-36.243a10.644,10.644,0,0,0-5.907-1.445c-3.415,0-5.907,1.445-8.361,4.345S222.7,51.49,222.7,56.746V79.953H211.4V31.117H222.7V41.263a19.478,19.478,0,0,1,4.913-8.212,11.271,11.271,0,0,1,7.861-2.9,9.956,9.956,0,0,1,4.425.967Zm29.968,39.653c-7.861,0-13.764-2.412-18.2-6.769s-6.825-10.636-6.825-17.866c0-8.212,2.456-14.5,7.371-19.338s11.307-6.825,19.167-6.825,13.764,2.412,18.2,6.825,6.337,10.6,6.337,18.814a27.2,27.2,0,0,1-6.825,18.848,30.383,30.383,0,0,1-19.224,6.339Zm.49-42.532q-6.632,0-10.316,4.345c-2.456,2.9-3.936,7.247-3.936,12.513s1.478,9.178,3.936,12.081,5.907,4.345,10.316,4.345,7.861-1.445,10.316-4.345,3.415-6.769,3.415-12.513c0-5.312-.98-9.653-3.415-12.513a14.206,14.206,0,0,0-10.317-3.867Zm33.432,39.6V68.311c4.423,2.9,8.849,4.834,13.764,4.834q10.316,0,10.316-5.8a6.785,6.785,0,0,0-.98-2.9,4.889,4.889,0,0,0-2.456-1.934,24.189,24.189,0,0,0-3.415-1.445l-4.423-1.445a58.075,58.075,0,0,1-5.4-2.412,27.23,27.23,0,0,1-3.936-2.9,10.5,10.5,0,0,1-2.456-3.867,14.089,14.089,0,0,1-.978-4.834,13.2,13.2,0,0,1,1.478-6.279,9.566,9.566,0,0,1,4.425-4.345c1.968-1.445,3.936-1.934,6.393-2.9a38.541,38.541,0,0,1,7.371-.967,32.821,32.821,0,0,1,12.286,1.934v9.682a19.84,19.84,0,0,0-11.8-3.413,9.74,9.74,0,0,0-3.936.478c-.98.478-1.968.478-2.946.965a3.808,3.808,0,0,0-1.968,1.934,4.3,4.3,0,0,0-.49,2.412,6.036,6.036,0,0,0,.488,2.9,3.789,3.789,0,0,0,1.968,1.934A24.184,24.184,0,0,0,321,51.386c1.478.478,2.457.965,4.423,1.445a30.375,30.375,0,0,0,5.881,2.412c1.968.478,2.946,1.934,4.423,2.9a26.863,26.863,0,0,1,2.946,3.867,17.131,17.131,0,0,1,.98,5.312c0,2.412-.49,4.834-1.968,6.279a12.577,12.577,0,0,1-4.413,4.392,48.38,48.38,0,0,1-6.825,2.9,31.981,31.981,0,0,1-22.171-2.423Zm68.341,2.935c-7.861,0-13.764-2.412-18.2-6.769s-6.825-10.636-6.825-17.866c0-8.212,2.456-14.5,7.371-19.338S366.27,30.62,374.13,30.62s13.764,2.412,18.2,6.825,6.393,10.636,6.393,18.848A27.2,27.2,0,0,1,391.9,75.142a31.337,31.337,0,0,1-19.338,6.29Zm.49-42.532q-6.632,0-10.316,4.345c-2.456,2.9-3.936,7.247-3.936,12.513s1.478,9.178,3.936,12.081,5.907,4.345,10.316,4.345,7.861-1.445,10.316-4.345,3.415-6.769,3.415-12.513c0-5.312-.98-9.653-3.415-12.513a14.206,14.206,0,0,0-10.34-3.948ZM437.457,17.1a10.042,10.042,0,0,0-5.4-1.445c-5.4,0-8.361,2.9-8.361,9.178v6.772H435v8.7H423.693V80.451H412.432V40.3h-8.361v-8.7h8.361V23.857c0-5.312,1.478-9.178,4.9-12.081A21.151,21.151,0,0,1,436.5,8.362v8.7h.944Zm32.467,62.347q-2.946,1.445-8.849,1.445c-9.826,0-14.254-4.345-14.254-13.536V39.82h-8.361v-8.7h8.361V19.994l11.307-2.9V31.6h11.8v8.7h-11.8V64.5a10.821,10.821,0,0,0,1.478,6.279c.98,1.445,2.946,1.934,5.4,1.934a8.356,8.356,0,0,0,4.9-1.5v8.212ZM118.079,180.3H105.293L98.9,162.91H71.373l-5.907,17.4H52.692l26.049-68.149H91.492ZM95.954,153.721,86.128,126.66a30.383,30.383,0,0,1-.978-4.345,30.378,30.378,0,0,1-.978,4.345l-9.339,27.061Zm66.91-17.429-26.549,35.263h26.539v8.7H120.538v-4.265l27.539-35.8h-24.57v-8.7h39.813v4.8ZM215.884,180.3H204.577V172.58a16.483,16.483,0,0,1-15.242,8.7c-11.8,0-17.7-6.769-17.7-20.782V131.489h11.307v28.029q0,13.048,10.316,13.048a10.878,10.878,0,0,0,8.361-3.413,15.4,15.4,0,0,0,3.413-9.669V131.489h11.3Zm43.258-38.176a10.644,10.644,0,0,0-5.907-1.445c-3.415,0-5.907,1.445-8.361,4.345s-3.415,6.825-3.415,12.081v23.205H230.153V131.489H241.46v10.146a19.478,19.478,0,0,1,4.913-8.212,11.242,11.242,0,0,1,7.78-2.9,9.955,9.955,0,0,1,4.425.967Zm50.131,16.915H275.364c0,4.345,1.478,8.212,4.423,10.636,2.457,2.412,6.393,3.867,11.307,3.867a23.456,23.456,0,0,0,14.788-4.834v8.7q-6.688,4.38-17.745,4.38a23.139,23.139,0,0,1-17.2-6.825c-4.423-4.345-6.393-10.636-6.393-18.848a25.775,25.775,0,0,1,6.825-18.371,22.491,22.491,0,0,1,17.2-7.257c6.825,0,11.8,1.934,15.733,6.279s5.4,10.146,5.4,17.866ZM298.456,151.3c0-3.867-.98-7.247-2.946-9.178a9.279,9.279,0,0,0-7.861-3.415,10.878,10.878,0,0,0-8.361,3.413c-2.456,2.412-3.415,5.312-3.936,9.178Z" transform="translate(237.873 18.325)" fill="#035bda"/>
    <path id="Path_16469" data-name="Path 16469" d="M158.064,33.082,121.411,106.9,185.958,181.7l-119.772,13.6,185.852,1.945ZM150.836,3.941,66.685,74.363,4.217,179.756l53.175-5.331Z" transform="translate(0 0)" fill="#035bda" fill-rule="evenodd"/>
  </g>
</svg>
