<svg xmlns="http://www.w3.org/2000/svg" width="90.95" height="91.242" viewBox="0 0 90.95 91.242">
  <g id="Think_Deeply_Before_We_Act" data-name="Think Deeply Before We Act" transform="translate(-1295.548 -669.068)">
    <path id="Path_5307" data-name="Path 5307" d="M2619.89,1409.81a9.889,9.889,0,1,1-9.89-9.89A9.89,9.89,0,0,1,2619.89,1409.81Z" transform="translate(-1276.613 -687.341)" fill="none" stroke="#e4264f" stroke-linecap="round" stroke-linejoin="round" stroke-width="5"/>
    <path id="Path_5308" data-name="Path 5308" d="M2620.184,1401.814a18.179,18.179,0,1,1-18.18-18.179A18.179,18.179,0,0,1,2620.184,1401.814Z" transform="translate(-1268.617 -679.345)" fill="none" stroke="#e4264f" stroke-linecap="round" stroke-linejoin="round" stroke-width="5"/>
    <circle id="Ellipse_192" data-name="Ellipse 192" cx="26.469" cy="26.469" r="26.469" transform="translate(1306.918 696)" fill="none" stroke="#e4264f" stroke-linecap="round" stroke-linejoin="round" stroke-width="5"/>
    <path id="Path_5309" data-name="Path 5309" d="M2620.792,1385.26a35.34,35.34,0,1,1-35.34-35.34A35.34,35.34,0,0,1,2620.792,1385.26Z" transform="translate(-1252.063 -662.792)" fill="none" stroke="#e4264f" stroke-linecap="round" stroke-linejoin="round" stroke-width="5"/>
    <path id="Path_5310" data-name="Path 5310" d="M2619.54,1370.251l32.432-32.286v-9.744l8.435-8.871v9.889h9.744l-7.854,9.017-10.362.182" transform="translate(-1286.152 -647.782)" fill="none" stroke="#e4264f" stroke-linecap="round" stroke-linejoin="round" stroke-width="5"/>
  </g>
</svg>
