<svg xmlns="http://www.w3.org/2000/svg" width="85.373" height="83.097" viewBox="0 0 85.373 83.097">
  <g id="We_Are_at_Your_Side" data-name="We Are at Your Side" transform="translate(-762.535 -674.594)">
    <rect id="Rectangle_414" data-name="Rectangle 414" width="41.158" height="11.489" transform="translate(799.939 677.094)" fill="none" stroke="#e4264f" stroke-linecap="round" stroke-linejoin="round" stroke-width="5"/>
    <rect id="Rectangle_415" data-name="Rectangle 415" width="11.489" height="41.157" transform="translate(765.035 703.563)" fill="none" stroke="#e4264f" stroke-linecap="round" stroke-linejoin="round" stroke-width="5"/>
    <path id="Path_5311" data-name="Path 5311" d="M1619.385,1424.1v25.6a3.708,3.708,0,0,1-7.417,0v-27.632" transform="translate(-791.45 -698.213)" fill="none" stroke="#e4264f" stroke-linecap="round" stroke-linejoin="round" stroke-width="5"/>
    <path id="Path_5312" data-name="Path 5312" d="M1635.163,1410.1v28.026a4.311,4.311,0,1,1-8.623,0v-19.882" transform="translate(-798.605 -692.341)" fill="none" stroke="#e4264f" stroke-linecap="round" stroke-linejoin="round" stroke-width="5"/>
    <path id="Path_5313" data-name="Path 5313" d="M1643.708,1391.838a4.311,4.311,0,1,0,8.622,0v-12.756s-8.85-14.254-8.85-25.162" transform="translate(-806.922 -664.755)" fill="none" stroke="#e4264f" stroke-linecap="round" stroke-linejoin="round" stroke-width="5"/>
    <path id="Path_5314" data-name="Path 5314" d="M1603.651,1419.159v20.9a4.311,4.311,0,1,1-8.622,0V1416.1" transform="translate(-783.134 -695.287)" fill="none" stroke="#e4264f" stroke-linecap="round" stroke-linejoin="round" stroke-width="5"/>
    <path id="Path_5315" data-name="Path 5315" d="M1586.712,1385.012v20.9a4.311,4.311,0,1,1-8.623,0v-41.261s2.193-.385,2.483-11.874" transform="translate(-774.816 -664.195)" fill="none" stroke="#e4264f" stroke-linecap="round" stroke-linejoin="round" stroke-width="5"/>
    <path id="Path_5316" data-name="Path 5316" d="M1525.539,1382.257s13.793,1.164,27.766-10.907" transform="translate(-749.016 -673.313)" fill="none" stroke="#e4264f" stroke-linecap="round" stroke-linejoin="round" stroke-width="5"/>
    <path id="Path_5317" data-name="Path 5317" d="M1525.539,1452.849a114.152,114.152,0,0,1,15.416,3.6c7.854,2.473,11.332,0,11.332,0" transform="translate(-749.016 -713.328)" fill="none" stroke="#e4264f" stroke-linecap="round" stroke-linejoin="round" stroke-width="5"/>
  </g>
</svg>
