<svg xmlns="http://www.w3.org/2000/svg" width="417" height="48" viewBox="0 0 417 48">
  <g id="Rectangle_20" data-name="Rectangle 20" fill="#fff" stroke="#707070" stroke-width="1">
    <rect width="417" height="48" rx="9" stroke="none"/>
    <rect x="0.5" y="0.5" width="416" height="47" rx="8.5" fill="none"/>
  </g>
</svg>
