<svg id="Group_5960" data-name="Group 5960" xmlns="http://www.w3.org/2000/svg" xmlns:xlink="http://www.w3.org/1999/xlink" width="984.794" height="641.367" viewBox="0 0 984.794 641.367">
  <defs>
    <clipPath id="clip-path">
      <rect id="Rectangle_923" data-name="Rectangle 923" width="984.794" height="641.367" fill="none"/>
    </clipPath>
  </defs>
  <g id="Group_5957" data-name="Group 5957">
    <g id="Group_5956" data-name="Group 5956" clip-path="url(#clip-path)">
      <path id="Path_7824" data-name="Path 7824" d="M892.012,330.58c0,86.771-127.673,157.112-399.614,157.112S0,417.351,0,330.58,220.453,173.468,492.4,173.468,892.012,243.809,892.012,330.58" transform="translate(-0.001 153.678)" fill="#ffe1e5"/>
      <path id="Path_7825" data-name="Path 7825" d="M116.229,288.4V49.005A49.006,49.006,0,0,1,165.234,0H633.841a41.456,41.456,0,0,1,41.454,41.458V288.4a49,49,0,0,1-49,49H165.234a49,49,0,0,1-49.005-49" transform="translate(102.969 0)" fill="#76a9b7"/>
      <path id="Path_7826" data-name="Path 7826" d="M625.289,317.867h-471.2a31.011,31.011,0,0,1-31.012-31.012V38.062A31.011,31.011,0,0,1,154.094,7.05h471.2A31.012,31.012,0,0,1,656.3,38.062V286.855a31.012,31.012,0,0,1-31.014,31.012" transform="translate(109.04 6.246)" fill="#e4f3f7"/>
      <path id="Path_7827" data-name="Path 7827" d="M439.349,214.7H204.255a4.54,4.54,0,1,1,0-9.081H439.349a4.54,4.54,0,1,1,0,9.081" transform="translate(176.929 182.157)" fill="#76a9b7"/>
      <path id="Path_7828" data-name="Path 7828" d="M439.143,229.273H201.427l20.264-50.363H418.879Z" transform="translate(178.447 158.498)" fill="#527480"/>
      <rect id="Rectangle_921" data-name="Rectangle 921" width="486.156" height="233.003" transform="translate(255.654 71.442)" fill="#b4dfd5"/>
      <rect id="Rectangle_922" data-name="Rectangle 922" width="486.156" height="34.459" transform="translate(255.654 37.236)" fill="#e6e6ce"/>
      <path id="Path_7829" data-name="Path 7829" d="M153.663,32.013a6.67,6.67,0,1,0-6.671,6.67,6.67,6.67,0,0,0,6.671-6.67" transform="translate(124.315 22.452)" fill="#ec7772"/>
      <path id="Path_7830" data-name="Path 7830" d="M166.715,32.013a6.67,6.67,0,1,0-6.67,6.67,6.67,6.67,0,0,0,6.67-6.67" transform="translate(135.876 22.452)" fill="#fdd17a"/>
      <path id="Path_7831" data-name="Path 7831" d="M179.766,32.013a6.67,6.67,0,1,0-6.67,6.67,6.67,6.67,0,0,0,6.67-6.67" transform="translate(147.438 22.452)" fill="#61bda6"/>
    </g>
  </g>
  <text id="BRAND" transform="translate(377.737 203.769)" fill="#fff" font-size="65" font-family="Montserrat-Black, Montserrat" font-weight="800"><tspan x="0" y="0">BRAND</tspan></text>
  <g id="Group_5959" data-name="Group 5959">
    <g id="Group_5958" data-name="Group 5958" clip-path="url(#clip-path)">
      <rect id="Rectangle_924" data-name="Rectangle 924" width="57.583" height="169.591" transform="translate(278.302 97.415)" fill="#61bda6"/>
      <rect id="Rectangle_925" data-name="Rectangle 925" width="21.654" height="21.654" transform="translate(283.149 102.909)" fill="#b4dfd5"/>
      <rect id="Rectangle_926" data-name="Rectangle 926" width="21.654" height="21.654" transform="translate(309.384 102.909)" fill="#b4dfd5"/>
      <rect id="Rectangle_927" data-name="Rectangle 927" width="21.654" height="21.654" transform="translate(283.149 130.82)" fill="#b4dfd5"/>
      <rect id="Rectangle_928" data-name="Rectangle 928" width="21.654" height="21.654" transform="translate(309.384 130.82)" fill="#b4dfd5"/>
      <rect id="Rectangle_929" data-name="Rectangle 929" width="21.654" height="21.654" transform="translate(283.149 158.734)" fill="#b4dfd5"/>
      <rect id="Rectangle_930" data-name="Rectangle 930" width="21.654" height="21.654" transform="translate(309.384 158.734)" fill="#b4dfd5"/>
      <rect id="Rectangle_931" data-name="Rectangle 931" width="21.654" height="21.654" transform="translate(283.149 186.647)" fill="#b4dfd5"/>
      <rect id="Rectangle_932" data-name="Rectangle 932" width="21.654" height="21.654" transform="translate(309.384 186.647)" fill="#b4dfd5"/>
      <rect id="Rectangle_933" data-name="Rectangle 933" width="21.654" height="21.654" transform="translate(283.149 214.56)" fill="#b4dfd5"/>
      <rect id="Rectangle_934" data-name="Rectangle 934" width="21.654" height="21.654" transform="translate(309.384 214.56)" fill="#b4dfd5"/>
      <path id="Path_7832" data-name="Path 7832" d="M362.1,126.519v2.829h-2.829" transform="translate(318.281 112.085)" fill="none" stroke="#1c1c38" stroke-linecap="round" stroke-linejoin="round" stroke-width="1"/>
      <line id="Line_123" data-name="Line 123" x1="309.409" transform="translate(360.685 241.432)" fill="none" stroke="#1c1c38" stroke-linecap="round" stroke-linejoin="round" stroke-width="1" stroke-dasharray="2.965 3.953"/>
      <path id="Path_7833" data-name="Path 7833" d="M190.6,129.348h-2.829v-2.829" transform="translate(166.353 112.085)" fill="none" stroke="#1c1c38" stroke-linecap="round" stroke-linejoin="round" stroke-width="1"/>
      <line id="Line_124" data-name="Line 124" y1="97.588" transform="translate(354.128 133.786)" fill="none" stroke="#1c1c38" stroke-linecap="round" stroke-linejoin="round" stroke-width="1" stroke-dasharray="2.875 3.833"/>
      <path id="Path_7834" data-name="Path 7834" d="M187.775,70.352V67.523H190.6" transform="translate(166.353 59.82)" fill="none" stroke="#1c1c38" stroke-linecap="round" stroke-linejoin="round" stroke-width="1"/>
      <line id="Line_125" data-name="Line 125" x2="309.409" transform="translate(364.412 127.343)" fill="none" stroke="#1c1c38" stroke-linecap="round" stroke-linejoin="round" stroke-width="1" stroke-dasharray="2.965 3.953"/>
      <path id="Path_7835" data-name="Path 7835" d="M359.268,67.523H362.1v2.829" transform="translate(318.281 59.82)" fill="none" stroke="#1c1c38" stroke-linecap="round" stroke-linejoin="round" stroke-width="1"/>
      <line id="Line_126" data-name="Line 126" y2="97.588" transform="translate(680.378 137.4)" fill="none" stroke="#1c1c38" stroke-linecap="round" stroke-linejoin="round" stroke-width="1" stroke-dasharray="2.875 3.833"/>
      <rect id="Rectangle_935" data-name="Rectangle 935" width="17.929" height="17.929" transform="translate(345.164 118.379)" fill="#1c1c38"/>
      <rect id="Rectangle_936" data-name="Rectangle 936" width="17.929" height="17.929" transform="translate(671.414 118.379)" fill="#1c1c38"/>
      <rect id="Rectangle_937" data-name="Rectangle 937" width="17.929" height="17.929" transform="translate(345.164 232.467)" fill="#1c1c38"/>
      <rect id="Rectangle_938" data-name="Rectangle 938" width="17.929" height="17.929" transform="translate(671.414 232.467)" fill="#1c1c38"/>
      <rect id="Rectangle_939" data-name="Rectangle 939" width="324.371" height="7.915" transform="translate(356.006 97.415)" fill="#61bda6"/>
      <rect id="Rectangle_940" data-name="Rectangle 940" width="324.371" height="7.915" transform="translate(356.006 263.126)" fill="#61bda6"/>
      <path id="Path_7836" data-name="Path 7836" d="M175.339,122.477A106.433,106.433,0,0,0,189.2,126.3q12.331,2.812,24.662,5.622c2.173.5,4.443.99,6.6.443a26.567,26.567,0,0,0,9.247-4.185c2.844-2.178,3.951-13.1,5.852-16.14,1.147-1.826,3.678-2.576,3.427-1.462-.37,1.635.8,18.227.394,19.872-.883,3.555-3.8,6.344-7.112,7.9a30.91,30.91,0,0,1-10.337,2.359,191.619,191.619,0,0,1-29.645.554c-8.819-.532-17.89-.281-26.576-2.269-8.428-1.927-16.394-3.659-24.093-7.587-3.014-1.539-5.933-5.365-8.174-7.9-6.4-7.24,2.242-20.162,11.259-18.354,5.022,1.009,10.154,6.009,14.408,8.722a88.087,88.087,0,0,0,16.226,8.6" transform="translate(116.261 93.008)" fill="#e27e5a"/>
      <path id="Path_7837" data-name="Path 7837" d="M156.874,299.88c0,2.306-1.843,4.285-3.96,5.175a17.655,17.655,0,0,1-6.776.966l-52.824.6c-5.965.062-12.091.115-17.716-1.892a17.144,17.144,0,0,1,.351-7.893c1.115-4.524,3.344-9.047,4.172-13.682.939-5.226.089-10.6.326-15.9a1.558,1.558,0,0,1,.451-1.265,1.674,1.674,0,0,1,.928-.224c5.513-.189,11.025-.4,16.551-.566,1.754-.049,11.977-.023,12.379,1.318,1.479,5.06,5.2,9.171,9.247,12.553s8.556,6.229,12.379,9.873c1.678,1.592,3.27,3.37,5.375,4.309,3.395,1.53,7.3.6,11.014.7a9.85,9.85,0,0,1,6.865,2.808,4.624,4.624,0,0,1,1.241,3.119" transform="translate(66.693 234.931)" fill="#ce422c"/>
      <path id="Path_7838" data-name="Path 7838" d="M156.874,285.269c0,2.306-1.843,4.285-3.96,5.175a17.655,17.655,0,0,1-6.776.966l-52.824.6c-5.965.062-12.091.115-17.716-1.892a17.144,17.144,0,0,1,.351-7.893,5.356,5.356,0,0,1,1.9-.488c5.524-.426,12.164,1.614,17.754,2.078,5.888.488,11.915,1.141,17.828,1.141,14.146.764,28.792,1.479,42.2-2.806a4.624,4.624,0,0,1,1.241,3.119" transform="translate(66.693 249.542)" fill="#7f1d13"/>
      <path id="Path_7839" data-name="Path 7839" d="M120.318,254.614c3.757,4.932,7.768,10.919,5.95,16.847-.8,2.614-2.65,4.754-4.362,6.887-18.7,23.291-25.462,53.673-31.685,82.884-.281,1.313-.509,2.844.362,3.864A4.426,4.426,0,0,0,93,366.258l15.979,3.96a6.487,6.487,0,0,0,2.938.264c2.838-.626,3.457-4.281,4.011-7.133.788-4.06,2.612-7.834,4.417-11.557q10.781-22.221,21.56-44.443c4.849-9.993,9.886-20.243,18.092-27.732,1.965-1.794,4.173-3.515,5.179-5.982,1.088-2.672.549-5.7-.1-8.515-2.785-12.047-7.3-23.617-11.794-35.136q-14.5-37.146-29-74.292c-.736-1.884-1.541-3.862-3.142-5.1-3.159-2.431-7.719-.905-11.259.926a93.774,93.774,0,0,0-31.01,25.871c-4.1,5.3-7.076,11.37-2.861,17.192,4.438,6.127,9.379,11.994,13.773,18.256q14.863,21.18,30.544,41.773" transform="translate(65.52 132.3)" fill="#3b6472"/>
      <path id="Path_7840" data-name="Path 7840" d="M60.188,262.228c.967,3.125.057,6.5-.455,9.726-1.147,7.151-.332,14.454.487,21.66.462,4.045.943,8.157,2.472,11.94,1.105,2.712,2.748,5.2,3.8,7.942a13.214,13.214,0,0,1,.954,4.694,7.879,7.879,0,0,1-.871,3.866c-1.465,2.784-4.741,4.268-7.893,4.268a16.979,16.979,0,0,1-8.809-3c-8.67-5.467-14.193-14.716-18.354-24.077s-7.3-19.248-12.77-27.921c-1.241-1.973-2.642-3.962-2.985-6.271s.794-5.045,3.066-5.6a33.379,33.379,0,0,0,3.255-.941c7.14-2.4,12.575-6.58,19.187-10.452,6.691-3.934,12.013,4.39,15.881,9.128a15.557,15.557,0,0,1,3.036,5.039" transform="translate(13.91 218.852)" fill="#ce422c"/>
      <path id="Path_7841" data-name="Path 7841" d="M64.986,313.7c.815-.24,1.633-.594,2.457-.905a7.854,7.854,0,0,1-.873,3.864c-1.463,2.785-4.741,4.27-7.893,4.27a16.987,16.987,0,0,1-8.809-3c-8.67-5.465-14.192-14.716-18.352-24.075s-7.3-19.248-12.771-27.921c-1.241-1.973-2.64-3.964-2.984-6.271s.792-5.045,3.065-5.6c1.132-.264,2.214-.586,3.257-.941a28.386,28.386,0,0,1,1.458,5.46c2.3,9.75,6.825,18.78,11.38,27.629,4.294,8.332,8.817,16.852,15.915,22.974,3.919,3.361,9.2,5.993,14.15,4.519" transform="translate(13.91 224.243)" fill="#7f1d13"/>
      <path id="Path_7842" data-name="Path 7842" d="M151.709,145.565c1.377,2.1.447,4.9-.59,7.191-8.281,18.082-22.667,34.627-22.565,54.516a66.991,66.991,0,0,0,2.01,14.416c.2.954.422,1.882.636,2.827,5.9,25.771,11.64,52.212,8.213,78.426a19.258,19.258,0,0,1-2.065,7.363,18.38,18.38,0,0,1-5.827,5.626c-18.667,12.783-42.748,16.166-60.659,30-8.245,6.359-14.88,14.737-23.632,20.362a62.955,62.955,0,0,1-16.438-17.38c14.925-8.232,23.8-24.232,37.086-34.9,7.817-6.276,16.981-10.587,25.988-14.995,2.042-1.009,4.258-2.2,5.1-4.324a8.726,8.726,0,0,0,.2-4.419C96.757,271.478,89.3,253.781,82.3,236.176,80.639,232,79,227.8,77.446,223.554c-4.981-13.62-9.005-27.606-9.56-42.035a74.2,74.2,0,0,1,3.232-24.979,55.5,55.5,0,0,1,10.669-19.808c5-5.763,8.941-5.629,16.2-4.9a210.074,210.074,0,0,1,49.6,11.121c1.565.556,3.225,1.215,4.126,2.61" transform="translate(27.279 116.477)" fill="#547989"/>
      <path id="Path_7843" data-name="Path 7843" d="M143.7,152.654a46.516,46.516,0,0,0,12.47,6.025c9.745,2.742,20.106.515,30.014-1.556q21.185-4.43,42.563-7.855c4.347-.7,8.807-1.36,13.128-.511,3.21.63,7.157,1.854,9.275-.637.922-1.084,1.9-1.824,2.063-3.24.926-8.277,1.1-28.315,0-36.574-1.927.677-3.768,13.826-4.085,15.844s-.438,4.23-1.782,5.767c-.656.752-1.546,1.26-2.265,1.952-1.1,1.058-1.75,2.5-2.829,3.58-1.6,1.6-3.923,2.2-6.148,2.6-10.161,1.843-20.6.9-30.869-.2-10.571-1.137-21.13-2.444-31.6-4.306-5.886-1.047-11.985-2.38-16.645-6.122-5.22-4.192-7.83-10.729-11.487-16.336a6.367,6.367,0,0,0-7.4-3.444c-5.558.541-11.127,2.12-15.657,5.386-3.144,2.265-7.515,6.586-7.253,10.836.232,3.74,6.546,4.136,8.817,6.746,6.452,7.41,11.417,16.69,19.693,22.043" transform="translate(102.037 95.278)" fill="#f29d7e"/>
      <path id="Path_7844" data-name="Path 7844" d="M133.418,101.715q-5.194,6.919-10.389,13.835c-3.968,5.284-7.936,10.569-12.187,15.629A182.115,182.115,0,0,1,62.47,171.72c-1.858,1.071-3.893,2.3-4.517,4.351s.4,4.238,1.452,6.124c12.338,22.188,31.414,40.07,52.572,54.1,1.709,1.132,3.589,2.286,5.635,2.167,2.027-.115,3.751-1.452,5.311-2.753A213,213,0,0,0,163.3,190.889c4.866-7.255,9.505-15.04,16.753-19.915,2.435-1.639,5.543-3.874,4.694-6.682a6.159,6.159,0,0,0-1.237-2.012q-6.611-8.136-13.807-15.776c6.842-1.686,10.118-10.029,16.705-12.524a11.319,11.319,0,0,1,13.126,4.341,22.822,22.822,0,0,1,11.153-11.4q-4.136-7.465-8.966-14.516c-3.87-5.652-8.1-11.125-13.324-15.559-9.107-7.738-21.12-12.145-32.921-13.5-11.21-1.288-16.155,10.518-22.054,18.374" transform="translate(51.173 73.746)" fill="#e289a9"/>
      <path id="Path_7845" data-name="Path 7845" d="M126.919,85.325a68.9,68.9,0,0,1-9.12,10.052c2.959,1.4,6.024,2.891,8.066,5.452,4.664,5.852,2.548,15.344,7.7,20.77-.356-2.046,1.145-3.9,2.546-5.437l7.872-8.634c1.69-1.852,3.483-3.776,5.858-4.585,2.163-.737,4.526-.449,6.793-.151-4.585-8.771-9.273-17.688-16.24-24.721-1.8-1.816-5.988-6.067-8.634-3.389-1.194,1.209-1.3,3.813-1.927,5.345a27.95,27.95,0,0,1-2.914,5.3" transform="translate(104.36 65.399)" fill="#e27e5a"/>
      <path id="Path_7846" data-name="Path 7846" d="M161.391,58.961c2.037,3.31,6.2,11.942,6.146,14.642-.06,2.953-.732,3.389-.724,6.342.015,5.041,4.794,6.5,6.18,11.821,0,1.365-2.446,1.594-3.894,1.718a2.794,2.794,0,0,0-1.554.453c-1.356,1.092.192,3.37-.424,5-.8,2.12-4.417,1.571-5.554,3.53-.739,1.273-.011,2.882.826,4.092s1.846,2.521,1.643,3.979c-.268,1.929-2.589,3.272-2.384,5.209.115,1.1.653,2.376.151,3.355-.807,1.582-1.8,2.02-3.655,2.652-3.027,1.035-10.627-1.367-13.083-3.417-9.745-8.136-15.278-15.255-14.823-17.066.332-1.316,1.863-2.327,1.573-3.653-.332-1.522-2.489-1.518-3.819-2.329-1.216-.743-1.72-2.223-2.135-3.589q-.653-2.139-1.307-4.281a14.452,14.452,0,0,1-.917-5.4,4.344,4.344,0,0,1,7.159-3.5,14.405,14.405,0,0,1,3.061,3.212q2.965-3.279,5.614-6.823a3.664,3.664,0,0,0,.751-1.394,3.913,3.913,0,0,0-.243-1.856,43.332,43.332,0,0,1-1.486-7.361,11.932,11.932,0,0,1,.343-5.437c1.384-3.791,5.926-5.641,9.941-5.245s7.625,2.516,11.089,4.585a7.177,7.177,0,0,1,1.526.758" transform="translate(109.506 47.454)" fill="#f29d7e"/>
      <path id="Path_7847" data-name="Path 7847" d="M145.808,87.567c2.2-1.416,4.383-.166,5.6,1.513.4.545.924,1.152,1.592,1.077.547-.062.924-.56,1.233-1.016,1.767-2.606.289-4.032,2.057-6.638a18.9,18.9,0,0,1,4.532-3.644c16.907-5.56,18.806-10.418,18.787-10.782-.091-1.756-1.79-9.348-10.237-14.144-5.132-2.914-12.494-6.242-24.5-5.422-4.343.3-9.105,2.934-13.188,4.443-2.176-2.363-4.681-4.892-7.887-5.109-2.316-.157-4.515.952-6.506,2.142-4.511,2.7-8.86,6.254-10.676,11.187-3.012,8.183,1.769,17.247.734,25.9-.336,2.806-1.265,5.756-.172,8.364.926,2.21,3.127,3.649,4.23,5.778,1.416,2.736.783,6.056,1.39,9.079a11.251,11.251,0,0,0,6.19,7.864c3.338,1.554,7.683,1.624,9.824,4.62,1.7,2.376,1.241,5.607,1.863,8.458a11.128,11.128,0,0,0,4.854,6.948,17.5,17.5,0,0,1,2.572,1.675c1.728,1.58,2.092,4.108,2.629,6.386s1.648,4.8,3.906,5.418c2.133.583,4.428-.958,5.277-3s-.209-12.036-.249-13.594c-.113-4.556-6.818-18.237-7.178-22.269-.221-2.5-1.712-5.077-.671-7.355.289-.632.754-1.169,1.054-1.8.932-1.935.143-4.2-.141-6.333-.551-4.124,3.074-9.756,3.074-9.756" transform="translate(93.563 42.372)" fill="#1b4e61"/>
      <path id="Path_7848" data-name="Path 7848" d="M399.822,167.568c-9.7,29.141-11.662,60.2-13.554,90.856q-.591,9.579-1.179,19.155a31.742,31.742,0,0,0,.179,7.994,52.977,52.977,0,0,0,2.521,7.483c3.244,9.117,3.046,19.048,2.812,28.722-.46,18.9-.924,37.865-3.636,56.581q-1.2,8.277-2.984,16.458c-.328,1.507-.649,3.178.117,4.515s2.4,1.916,3.9,2.372q7.18,2.2,14.359,4.4c4.343,1.331,9.976,2.271,12.632-1.413,4.187-5.8-4.943-14.141-1.745-20.54.685-1.369,1.869-2.431,2.572-3.791A12.43,12.43,0,0,0,416.861,376q2.17-18.934,4.334-37.867c1.1-9.571,2.193-19.214,1.435-28.819-.447-5.645-1.531-11.24-1.624-16.9-.264-16.236,7.551-31.37,15.065-45.765,3.515-6.738,7.048-13.6,8.5-21.06,1.59-8.141.619-16.538-.358-24.773q-2.031-17.146-4.062-34.29c-.453-3.815-.945-7.755-2.868-11.084-4.349-7.53-15.255-9.988-23.378-9.339-10,.8-11.342,13.222-14.086,21.469" transform="translate(339.86 129.343)" fill="#b94a5b"/>
      <path id="Path_7849" data-name="Path 7849" d="M403.673,179.262c3.1,10.071,8.211,19.382,12.223,29.122,7.5,18.2,11.076,37.711,15.2,56.955,1.684,7.86,3.476,15.73,6.376,23.229,2.721,7.034,6.4,13.7,8.664,20.892,2.859,9.12,3.34,18.808,3.338,28.364a298.4,298.4,0,0,1-6.948,63.966q13.833,3.383,27.672,6.77c-2.784-10.016-.592-20.638.992-30.912,3.2-20.794,3.842-41.888,4.473-62.918a62.548,62.548,0,0,0-.47-12.592c-1.239-7.138-4.915-13.631-6.64-20.67-1.848-7.549-1.4-15.444-.939-23.2q1.14-19.134,2.276-38.269a61.616,61.616,0,0,1,1.684-12.879c1.116-4.009,3.031-7.749,4.373-11.691,3.3-9.692,3.031-20.221,2.092-30.422-.228-2.488-.545-5.111-2.048-7.106-1.827-2.429-4.969-3.387-7.9-4.2-16.455-4.579-33.645-9.281-50.891-7.736-7.515.671-12.624.785-15.123,8.117-2.633,7.73-.724,17.641,1.6,25.185" transform="translate(355.079 129.043)" fill="#e8605c"/>
      <path id="Path_7850" data-name="Path 7850" d="M438.909,304.836a5.462,5.462,0,0,1-3.674,4.219,16.168,16.168,0,0,1-5.824.717q-4.212-.017-8.428-.011c-7.3-.011-14.591-.019-21.877.471-12.939.875-26.388,3.268-38.544-1.271a4.82,4.82,0,0,1-1.5-.79,3.236,3.236,0,0,1-.9-2.885,5.09,5.09,0,0,1,1.411-2.723,6.792,6.792,0,0,1,1.281-1.079,15.534,15.534,0,0,1,4.434-1.775,113.119,113.119,0,0,1,12-2.648,7.447,7.447,0,0,0,2.1-.556,11.508,11.508,0,0,0,2.339-1.922A30.4,30.4,0,0,1,387.1,291.2c5.256-3.046,9.614-7.381,14.112-11.453,1.539-1.377,4.958-3.93,5.918-.992.394,1.216.055,2.082.983,3.174a10.421,10.421,0,0,0,3.974,2.412c5.279,2.191,10.663,4.413,16.357,4.883a54.8,54.8,0,0,0,8.779-.234c-.168,3.951-.319,7.989.847,11.761.19.619.405,1.239.575,1.858a5.672,5.672,0,0,1,.268,2.233" transform="translate(317.269 245.748)" fill="#f8f8dc"/>
      <path id="Path_7851" data-name="Path 7851" d="M438.909,293.014a5.462,5.462,0,0,1-3.674,4.219,16.169,16.169,0,0,1-5.824.717q-4.212-.017-8.428-.011c-7.3-.011-14.591-.019-21.877.471-12.939.875-26.388,3.268-38.544-1.271a4.82,4.82,0,0,1-1.5-.79,3.236,3.236,0,0,1-.9-2.885,5.09,5.09,0,0,1,1.411-2.723c.245,1.2-.47,2.414,1.326,3.44a8.718,8.718,0,0,0,4.441.749q29.983-.323,59.94-.641a31.374,31.374,0,0,0,7.927-.769,15.512,15.512,0,0,0,5.267-2.606,1.683,1.683,0,0,0,.16-.13,5.672,5.672,0,0,1,.268,2.233" transform="translate(317.269 257.57)" fill="#65bda5"/>
      <path id="Path_7852" data-name="Path 7852" d="M462.239,304.95a4.034,4.034,0,0,1-.843,2.469,5.191,5.191,0,0,1-1.507,1.067q-4.006,2.164-8,4.326a43.663,43.663,0,0,1-8.077,3.685,42.509,42.509,0,0,1-6.037,1.186,78.931,78.931,0,0,1-12.358,1.186A39.519,39.519,0,0,1,412.6,316.6a3,3,0,0,1-1.912-1.39,2.79,2.79,0,0,1,.021-1.8,15.756,15.756,0,0,1,.717-2.114,15.6,15.6,0,0,1,4.177-5.79c1.739-1.507,3.845-2.659,5.137-4.562.683-1,1.111-2.159,1.828-3.129a17.352,17.352,0,0,1,2.178-2.18,20.345,20.345,0,0,0,5.748-9.626,7.966,7.966,0,0,1,7.1-6.175,13.608,13.608,0,0,1,4.57.632,16.082,16.082,0,0,1,7.393,3.811,19.47,19.47,0,0,0,2.073,2.116c1.53,1.145,3.547,1.282,5.439,1.5a2.387,2.387,0,0,1,1.365.449,2.479,2.479,0,0,1,.611,1.271q1.185,4.806,2.391,9.614c.236.971.481,1.956.641,2.948a12.148,12.148,0,0,1,.16,2.778" transform="translate(363.706 247.889)" fill="#f8f8dc"/>
      <path id="Path_7853" data-name="Path 7853" d="M462.239,294.446a4.035,4.035,0,0,1-.843,2.469,5.19,5.19,0,0,1-1.507,1.067q-4.006,2.164-8,4.326a43.665,43.665,0,0,1-8.077,3.685,42.5,42.5,0,0,1-6.037,1.186,78.935,78.935,0,0,1-12.358,1.186,39.517,39.517,0,0,1-12.819-2.274,3,3,0,0,1-1.912-1.39,2.79,2.79,0,0,1,.021-1.8,15.748,15.748,0,0,1,.717-2.114c.33.117.641.245.951.353a28.138,28.138,0,0,0,6.985,1.667,98.494,98.494,0,0,0,17.168.694c5.714-.451,11.472-1.956,16.183-5.224,3.131-2.18,5.961-5.171,9.369-6.614a12.148,12.148,0,0,1,.16,2.778" transform="translate(363.706 258.393)" fill="#65bda5"/>
      <path id="Path_7854" data-name="Path 7854" d="M420.826,104.747c-4.072,2.15-8.245,4.117-12.224,6.433-11.525,6.706-21.813,16.479-34.91,18.974-3.842.732-7.981.758-11.483-.981-2.325-1.154-4.351-3.063-6.912-3.491-6.565-1.1-3.229,4.981-4.064,7.538-1.339,4.1-5.942,5.494-7.645,9.216-2.107,4.6,1.362,9.875,4.945,12.737a12.2,12.2,0,0,0,10.256,2.55c7.138-1.731,13.137-7.628,20.522-9.726,7.895-2.242,16.072-3.219,24.042-5.12,13.465-3.212,26.95-6.429,40.1-10.753,5.292-1.741,10.606-3.7,15.084-7.016a58.457,58.457,0,0,0,7.732-7.332l7.281-7.8a1.952,1.952,0,0,0-.223-3.415,199.731,199.731,0,0,0-16.753-13.205c-6.19-4.362-9.765-5.743-15.749-1.228a148.127,148.127,0,0,1-20,12.621" transform="translate(303.821 79.148)" fill="#f29d7e"/>
      <path id="Path_7855" data-name="Path 7855" d="M384.416,69.57c-3.723-6.674-9.075-13.066-16.449-15.078-2.137-.585-5.043-.394-5.786,1.7-.577,1.624.6,3.355,1.967,4.409s3.008,1.826,3.975,3.249a1.558,1.558,0,0,1,.313.775A1.887,1.887,0,0,1,367.573,66c-2.527,2.173-5.166,4.487-6.267,7.632-2.031,5.8,1.814,11.864,5.464,16.809,1.663,2.257,3.463,4.619,6.059,5.671,2.129.862,4.568.737,6.676,1.652a12.742,12.742,0,0,1,4.9,4.5c3.913,5.388,6.7,11.51,10.365,17.069,5.109,7.747,11.857,14.284,19.008,20.2,11.976,9.9,26.075,18.506,41.6,19.089,14.3.534,27.87-5.761,40.792-11.917a8.241,8.241,0,0,0,3.121-2.133,7.626,7.626,0,0,0,1.122-2.435c2.044-6.51,2.71-13.629.675-20.143s-7.072-12.289-13.648-14.1c-9.06-2.5-18.214,2.618-27.138,5.567a49.557,49.557,0,0,1-20.971,2.455c-9.663-1.083-18.52-5.516-26.339-11.121-7.37-5.282-16.13-11.795-20.7-19.723-2.895-5.024-5.056-10.433-7.881-15.5" transform="translate(319.587 48.021)" fill="#ffbda9"/>
      <path id="Path_7856" data-name="Path 7856" d="M402.2,104.571a77.32,77.32,0,0,1,16.934,8.362,7.162,7.162,0,0,0,3,1.386,6.887,6.887,0,0,0,3.783-1.081q11.29-5.788,22.584-11.574a8.5,8.5,0,0,1,4.157-1.284,7.474,7.474,0,0,1,3.295,1.192,32.334,32.334,0,0,1,15.742,29.288,7.3,7.3,0,0,1-.96,3.661c-1.081,1.616-3.116,2.244-4.99,2.759q-15.265,4.207-30.535,8.411c-3.195.881-6.52,1.769-9.786,1.2-3.229-.566-6.265-2.538-9.522-2.167a209.671,209.671,0,0,0-6.48,20.511,24.38,24.38,0,0,0-1.028,6.273c.015,2.157.568,4.275.739,6.427,1.25,15.608-16.934,27.312-16.849,42.969,23.574,3.779,47.7,2.863,71.312,6.4,8.77,1.314,17.739,3.37,24.883,8.628-2.38-7.027-1.424-14.7-.411-22.044,2.82-20.464,5.9-41,12.24-60.664,3.5-10.848,7.976-21.4,10.716-32.46s3.664-22.929.028-33.731S498.539,66.726,487.327,64.68c-13.678-2.5-25.222,5.907-37.694,9.7-6.61,2.012-13.141,2.965-18.916,7.021-4.871,3.421-8.86,7.91-13.062,12.083C415.327,95.8,406.009,105.9,402.2,104.571" transform="translate(347.527 56.897)" fill="#e4f3f7"/>
      <path id="Path_7857" data-name="Path 7857" d="M426.554,91.3c-.832,2.286-1.944,4.475-2.618,6.814-.3,1.045-.29,2.523.756,2.825.685.2,1.362-.289,1.92-.736,11.666-9.384,26.1-14.489,40.238-19.429-3.734-1.956-5.194-6.463-6.31-10.529a51.617,51.617,0,0,1-2.158-10.821,40.67,40.67,0,0,0-.305-4.871,22.707,22.707,0,0,0-1.439-4.46,3.531,3.531,0,0,0-1.052-1.646,2.9,2.9,0,0,0-1.646-.438c-2.818-.062-5.435,1.36-7.834,2.842a101.3,101.3,0,0,0-12,8.685c-4.051,3.408-8.1,7.683-6.886,13.262,1.367,6.276,1.567,12.368-.668,18.5" transform="translate(375.419 42.534)" fill="#f29d7e"/>
      <path id="Path_7858" data-name="Path 7858" d="M412.734,66.276c-.475,3.419-2.991,6.686-2.037,10l3.527.009q1.842,3.231,3.683,6.463c1.133,1.99,3.585,4.251,5.288,2.719-1.607,2.884.46,6.7,3.423,8.155s6.442,1.207,9.729.926a5.634,5.634,0,0,0,3.116-.9,6.081,6.081,0,0,0,1.586-2.7,38.576,38.576,0,0,1,23.719-22.427c.671-.219,1.445-.505,1.665-1.179a2.212,2.212,0,0,0-.238-1.488l-3.355-8.128c-1.345-3.257-3.361-7.023-6.874-7.265.9-3.016-1.522-6.107-4.323-7.546s-6.029-1.852-8.866-3.217c-3.512-1.69-6.169-4.7-9.094-7.276-7.836-6.9-18.263-4.654-22.435,5.241-1.36,3.227-1.094,7.14-1.122,10.565-.047,6.009,3.413,12.243,2.606,18.044" transform="translate(363.334 25.193)" fill="#ffbda9"/>
      <path id="Path_7859" data-name="Path 7859" d="M404.159,41.9c.268,4.157,3.483,8.141,7.619,8.626,5.844.683,10.525-5.081,16.336-6.012a4.027,4.027,0,0,1,2.627.29,3.971,3.971,0,0,1,1.5,1.846c1.9,4.042.983,9.128,3.466,12.837,1.109,1.658,2.818,2.889,3.715,4.668.89,1.763.89,3.874,1.8,5.628s3.549,2.9,4.8,1.373a20.343,20.343,0,0,1-.417-8.355,9.305,9.305,0,0,1,4.713-6.627c2.529-1.22,5.971-.639,7.542,1.688,1.788,2.648.779,6.45,2.457,9.169,1.043,1.686,2.946,2.655,4.157,4.223,1.156,1.494,1.612,3.438,2.782,4.92A6.484,6.484,0,0,0,474.816,78a68.774,68.774,0,0,1-.281-10.808c.417-5.269,2.037-10.359,3.04-15.547s1.352-10.731-.681-15.61A17.456,17.456,0,0,0,459.265,25.71a6.138,6.138,0,0,0-3.151-4.962,14.755,14.755,0,0,0-5.852-1.718,52.637,52.637,0,0,0-28.515,4.515C414.691,26.808,403.57,32.7,404.159,41.9" transform="translate(358.03 16.508)" fill="#1b4e61"/>
      <rect id="Rectangle_941" data-name="Rectangle 941" width="46.209" height="265.544" transform="translate(635.557 240.109)" fill="#ec7772"/>
      <path id="Path_7860" data-name="Path 7860" d="M383.211,140.134v-4.181a23.1,23.1,0,1,0-46.209,0v4.181Z" transform="translate(298.555 99.974)" fill="#b94a5b"/>
      <rect id="Rectangle_942" data-name="Rectangle 942" width="15.519" height="265.544" transform="translate(635.557 240.109)" fill="#dd5858"/>
      <rect id="Rectangle_943" data-name="Rectangle 943" width="15.167" height="265.544" transform="translate(651.076 240.109)" fill="#f98a8a"/>
      <path id="Path_7861" data-name="Path 7861" d="M383.211,268.121H337l24.157,38.818Z" transform="translate(298.554 237.532)" fill="#ce422c"/>
      <rect id="Rectangle_944" data-name="Rectangle 944" width="46.209" height="6.437" transform="translate(635.557 240.109)" fill="#fdd17a"/>
      <path id="Path_7862" data-name="Path 7862" d="M318.472,272.609a41.555,41.555,0,0,0,9.113-.317q5.013-.543,10.031-1.09a12.059,12.059,0,0,1,4.837.13,4.11,4.11,0,0,1,3.061,3.4c.117,2.176-2.018,3.732-3.943,4.756-7.966,4.238-17.079,7-25.994,5.639-4.038-.619-8.2-2.282-10.433-5.7-1.71-2.621-2.12-8.705,1.458-10.254,1.909-.828,3.476.69,5.137,1.486a21.043,21.043,0,0,0,6.733,1.95" transform="translate(269.203 238.251)" fill="#0f0f23"/>
      <path id="Path_7863" data-name="Path 7863" d="M335.769,276.439c5.877.132,11.846.255,17.524-1.262a44.5,44.5,0,0,1,7.142-1.784c2.448-.23,5.149.364,6.714,2.257,1.678,2.029,1.622,5.083.509,7.472a18.584,18.584,0,0,1-5.092,5.963c-10.887,9.358-24.245,16.6-38.588,17.279-3.913.187-7.932-.1-11.657,1.107-4.262,1.386-8.309,4.72-12.675,3.711a13.649,13.649,0,0,1-4.187-2.061,3.988,3.988,0,0,1-1.98-2.146c-.26-1.079.407-2.135,1-3.072,3.215-5.073,5.1-10.852,6.872-16.589a40.3,40.3,0,0,1,3.975-9.829,13.841,13.841,0,0,1,5.873-5.4c2.836-1.218,4.336.72,6.951,1.792,5.548,2.265,11.712,2.429,17.618,2.563" transform="translate(259.946 240.699)" fill="#1c1c38"/>
      <path id="Path_7864" data-name="Path 7864" d="M328.124,276.126c3.943,2.208,7.921,4.37,12.051,6.214,12.036,5.377,25.447,8.109,36.078,15.906q-2.407,4.976-4.813,9.956c-1.069,2.212-2.388,4.643-4.741,5.347-1.9.57-3.925-.181-5.769-.922q-19.485-7.8-38.971-15.617c-26.842-10.757-53.7-21.522-79.84-33.894-3.693-1.748-7.449-3.585-10.308-6.5s-4.7-7.166-3.691-11.125c1.448-5.69,7.73-8.46,13.258-10.44,2.967-1.064,5.243-2.459,8.241-1.729,2.936.715,5.978,2.542,8.724,3.8,5.861,2.695,11.621,5.614,17.3,8.668,11.5,6.178,22.688,12.917,33.916,19.57,6.154,3.645,12.324,7.263,18.561,10.767" transform="translate(201.848 206.519)" fill="#165260"/>
      <path id="Path_7865" data-name="Path 7865" d="M424.708,336.849c-1.9,3.012-10.644-5.328-13.711-6.461-9.128-3.374-18.308-7.932-28.026-11.925q-29.344-12.054-58.688-24.106c-5.45-2.241-11.117-4.519-17.005-4.266-6.61.281-12.624,3.712-18.341,7.048q-26.258,15.335-52.519,30.669c-8.406,4.909-16.917,9.863-26.265,12.575-6.618,1.922-13.511,2.674-20.368,3.3-6.669.613-13.554,1.094-19.912-1-7.38-2.425-13.209-8.021-18.765-13.447-1.347-1.315-2.776-2.8-2.923-4.673a7.725,7.725,0,0,1,1.026-3.8,165.571,165.571,0,0,1,12.549-22.037,36.353,36.353,0,0,1,6.329-7.589c3.142-2.667,7-4.311,10.8-5.916,13.194-5.584,24.658-14.111,38.263-18.6,21.335-7.051,45.592-8.566,65.023-19.853,6.951-4.038,14.056-9.092,22.086-8.724,5.443.249,10.41,3,15.15,5.677q26.326,14.874,52.649,29.75c10.721,6.059,21.72,12.219,33.86,14.286,8.132,1.382,20.9,7.078,31.04,10.512,9.424,3.191-7.564,31.123-12.251,38.573" transform="translate(131.269 210.877)" fill="#1a5a6b"/>
      <path id="Path_7866" data-name="Path 7866" d="M189.006,254.824a10.892,10.892,0,0,0,1.447,5.388c1.539,2.227,4.445,3.033,7.14,3.289,4.783.456,9.588-.3,14.333-1.056-1.086,3.14-3.776,5.429-6.5,7.338a37.182,37.182,0,0,1-12.547,6.037c-3.583.852-7.751.8-10.478-1.675a13.7,13.7,0,0,1-3.053-4.883c-5.247-12.121-8.349-25.554-6.193-38.584.645-3.9,1.863-7.911,4.686-10.682,2.74-2.689,11.274-4.954,11.514.922.14,3.417-.617,7.046-.779,10.476q-.257,5.488-.181,10.98.088,6.235.607,12.449" transform="translate(152.79 192.443)" fill="#f39e81"/>
      <path id="Path_7867" data-name="Path 7867" d="M206.314,239.805a15.046,15.046,0,0,1,6.868-2.878c3.283-.326,6.661,1.039,9.852.189a29.128,29.128,0,0,1,3.223-.994c1.809-.264,3.591.5,5.258,1.245a1.6,1.6,0,0,1,.913.728c.273.675-.432,1.316-1.052,1.7a96.288,96.288,0,0,1-24.76,10.791c-2.693.745-6.18-.5-6.438-3.762-.236-2.984,4.034-5.577,6.137-7.018" transform="translate(177.331 209.136)" fill="#f39e81"/>
      <path id="Path_7868" data-name="Path 7868" d="M185.724,277.459a221.066,221.066,0,0,1-13.811,20.428c-2.359,2.983-4.909,5.907-6.388,9.413-1,2.374-1.865,5.348-4.351,6.025a6.151,6.151,0,0,1-4.134-.753,26.055,26.055,0,0,1-8.479-6.42c-1.65-1.893-3.017-4.017-4.641-5.935-1.754-2.067-3.8-3.892-5.347-6.124a28.58,28.58,0,0,1-3.483-7.734,89.47,89.47,0,0,1-4.025-32.549,2.073,2.073,0,0,1,.528-1.52,2,2,0,0,1,1.233-.328,34,34,0,0,1,6.523.581,99.077,99.077,0,0,1,26.889,8.541c5.045,2.442,9.871,5.307,14.691,8.168,1.782,1.058,4.264,2.02,5.773,3.427,1.837,1.716.355,2.637-.981,4.779" transform="translate(115.964 223.21)" fill="#fdd17a"/>
      <path id="Path_7869" data-name="Path 7869" d="M132.229,284.644c.905,7.251,2.382,15.251,8.2,19.672,4.8,3.644,11.287,3.847,17.313,3.9,6.388.055,12.809.109,19.116-.9a84.259,84.259,0,0,0,17.631-5.166c17.9-7.093,34.354-17.369,51.893-25.315,11.406-5.167,23.4-9.426,33.813-16.283a1.8,1.8,0,0,0-.824-3.272l-11.257-1.147a24.257,24.257,0,0,0-14.748,2.222,113.771,113.771,0,0,0-11.634,4.968c-3.4,1.758-6.652,3.87-10.3,5.013a40.472,40.472,0,0,1-8.475,1.4q-20.854,1.892-41.813,2.239a15.569,15.569,0,0,1-6.293-.773c-4.7-1.958-6.339-7.755-6.667-12.834-.383-5.971.23-11.987-.389-17.941s-2.695-12.1-7.342-15.874c-3.945-3.21-9.313-4.291-14.376-3.823-5.875.545-12.53,1.946-16.472,6.735-3.783,4.594-1.556,6.139-1.62,12.687-.066,6.746,1.305,14.935,1.867,21.658q.956,11.437,2.378,22.831" transform="translate(112.857 195.459)" fill="#f5b7a0"/>
      <path id="Path_7870" data-name="Path 7870" d="M214.81,202.24c2.808,1.407,5.671,2.853,7.868,5.1,2.938,3,4.392,7.131,5.528,11.18a110.147,110.147,0,0,1,4.038,26.557l-8.4,1.471a2.568,2.568,0,0,0-1.586.679,2.536,2.536,0,0,0-.436,1.5,106.537,106.537,0,0,0,3.016,33.641c1.05,4.13,2.357,8.257,2.406,12.517a3.964,3.964,0,0,1-.349,1.969c-.8,1.456-2.823,1.5-4.485,1.5-8.372-.011-16.309,3.425-24.477,5.252a64.617,64.617,0,0,1-26.258.394,8.486,8.486,0,0,1-4.16-1.671c-1.558-1.394-1.946-3.644-2.229-5.716q-2.506-18.357-3.523-36.877a2.473,2.473,0,0,0-2.823-2.884c-5.424-.481-10.948-.954-16.27.2s-10.51,4.2-12.894,9.1c-.468.96-1.335,2.2-2.288,1.709-.6-.306-.692-1.1-.711-1.775l-.411-14.98a101.526,101.526,0,0,1,.194-12.99A51.415,51.415,0,0,1,141.7,206.726c3.506-3.414,7.493-6.314,10.882-9.841,2.8-2.914,5.413-6.4,9.286-7.546,2.725-.809,5.645-.309,8.438.209,8.375,1.552,16.739,3.817,25.156,5.054,7.151,1.052,12.836,4.375,19.351,7.636" transform="translate(111.853 167.361)" fill="#fdd17a"/>
      <path id="Path_7871" data-name="Path 7871" d="M188.257,157.831c.477.918.771,1.926,1.228,2.855a10.715,10.715,0,0,0,4.67,4.636,24.813,24.813,0,0,1,4.006,2.12c1.188.937,2.042,2.546,1.512,3.962-.624,1.673-2.982,2.891-2.34,4.558a3.6,3.6,0,0,0,1.052,1.241,9.335,9.335,0,0,1,2.972,6.706,5.471,5.471,0,0,0,.443,3.061,6.657,6.657,0,0,0,1.141,1.115,5.811,5.811,0,0,1-.164,8.351,10.589,10.589,0,0,1-5.3,1.933c-7.525,1.205-15.3,1.518-22.4,4.285-1.912.743-3.928,1.682-5.933,1.243-4.089-.9-5.927-6.98-10.11-6.85-1.435.045-2.725.877-4.132,1.167a7.291,7.291,0,0,1-6.257-2.069,16.625,16.625,0,0,1-3.657-5.731,18.716,18.716,0,0,1-1.91-9c.287-3.089,2.065-6.2,4.962-7.3a30.822,30.822,0,0,1,3.97-.877c5.477-1.3,9.113-6.339,12.281-10.993,2.78-4.087,6.686-9.854,11.972-10.823,4.089-.752,10.144,2.831,12,6.412" transform="translate(126.709 134.054)" fill="#f5b7a0"/>
      <path id="Path_7872" data-name="Path 7872" d="M189.8,184.737c-2.071,3.353-3.14,7.212-4.185,11.012-1.539,5.592-3.083,11.227-3.5,17.011-.111,1.554-.185,3.232-1.171,4.439-1.25,1.528-3.6,1.722-5.456,1.056a19.832,19.832,0,0,1-4.969-3.185c-7.393-5.524-16.56-7.949-25.224-11.133-.726-.268-1.582-.72-1.577-1.494,4.06-1.084,8.7-2.68,10.093-6.648a12.99,12.99,0,0,0,.322-5.318q-.515-6.62-1.03-13.241a3.825,3.825,0,0,1,.155-1.81c.454-1.056,1.722-1.465,2.855-1.654,5.954-1,11.989.756,18.014,1.137,7,.443,14.148-.966,20.994.575.754.17,3.459.734,3.5,1.786s-2.325,1.433-3.1,1.848a15.594,15.594,0,0,0-5.726,5.618" transform="translate(127.325 153.679)" fill="#f39e81"/>
      <path id="Path_7873" data-name="Path 7873" d="M190.542,146.588a9.3,9.3,0,0,1,10.4,5.778,16.791,16.791,0,0,1,.739,3.847,17.456,17.456,0,0,1-.128,6.184,6.5,6.5,0,0,1-3.781,4.626c-1.279.462-2.793.411-3.834,1.29-1.077.907-1.248,2.463-1.7,3.8a8.56,8.56,0,0,1-6.885,5.658c-.939.121-2.027.141-2.616.885a3.952,3.952,0,0,0-.549,1.8,6.619,6.619,0,0,1-4.236,4.943c-1.1.385-2.288.47-3.38.873a3.181,3.181,0,0,0-2.252,2.425c-.136,1.507,1.286,2.618,2.38,3.664s1.926,2.963.764,3.932c-.871.73-2.208.29-3.149-.345s-1.871-1.473-3.008-1.48a3.524,3.524,0,0,0-2.906,2.286,7.631,7.631,0,0,0,.732,7.606,11.342,11.342,0,0,1,1.509,2.139c.805,1.9-.232,4.428,1.145,5.967.581.647,1.514.986,1.886,1.773.439.926-.1,2.058.2,3.038a5.56,5.56,0,0,0,1.418,1.863,5.823,5.823,0,0,1-1.333,8.47,8.068,8.068,0,0,0-1.56.971,13.915,13.915,0,0,0-1.064,1.441c-1.684,2.1-4.941,3.615-7.555,2.972-3.189,3.783-9.865,1.8-13.024-2.012a6.563,6.563,0,0,0-1.6-1.665,6.326,6.326,0,0,0-1.463-.5,9.343,9.343,0,0,1-6.046-11.468c-4.685-1.607-7.844-6.214-9.017-11.027a9.412,9.412,0,0,1,.055-5.658,3.636,3.636,0,0,0,.4-1.341,3.027,3.027,0,0,0-.788-1.66,20.28,20.28,0,0,1-3.942-11.938,10.143,10.143,0,0,1,1.222-5.3,5.147,5.147,0,0,1,4.537-2.623c.228-3.253-1.079-6.546-.387-9.731a8.276,8.276,0,0,1,10.542-5.733,8.518,8.518,0,0,1,10.322-10.729,4.549,4.549,0,0,1,3.174-4.174,12.415,12.415,0,0,1,5.556-.324,7.6,7.6,0,0,1,12-5.686c-.266-.19,4.132-1.763,4.656-1.782a28.828,28.828,0,0,1,4.843.492c3.981.577,5.937,3.057,7.721,6.455" transform="translate(111.938 123.704)" fill="#e8605c"/>
      <path id="Path_7874" data-name="Path 7874" d="M294.491,191.569,254.654,197.5l-37.632,78.8,42.55-12Z" transform="translate(192.264 169.714)" fill="#0b3a47"/>
      <path id="Path_7875" data-name="Path 7875" d="M289.952,230.139l.419,6.423L187.123,282.624l-4.39-7.063,64.379-31.012.29-2.414Z" transform="translate(161.885 203.883)" fill="#547989"/>
    </g>
  </g>
</svg>
