<svg xmlns="http://www.w3.org/2000/svg" width="751.114" height="426.72" viewBox="0 0 751.114 426.72">
  <g id="Group_2113" data-name="Group 2113" transform="translate(-5502.181 -1752.483)">
    <g id="Group_2062" data-name="Group 2062" transform="translate(5603.762 1768.508)">
      <g id="Group_2055" data-name="Group 2055" transform="translate(56.67 37.39)">
        <path id="Path_2117" data-name="Path 2117" d="M5809.21,1877.537v-11.823a2.094,2.094,0,0,0-2.095-2.094h-3.042a1.921,1.921,0,0,1-1.879-1.474,41.86,41.86,0,0,0-5.266-12.781,1.951,1.951,0,0,1,.254-2.42l2.14-2.14a2.093,2.093,0,0,0,0-2.961l-8.359-8.36a2.1,2.1,0,0,0-2.962,0l-2.137,2.137a1.951,1.951,0,0,1-2.42.253,41.844,41.844,0,0,0-12.784-5.272,1.919,1.919,0,0,1-1.474-1.878v-3.034a2.094,2.094,0,0,0-2.094-2.094h-11.822a2.094,2.094,0,0,0-2.094,2.094v3.034a1.92,1.92,0,0,1-1.475,1.878,41.862,41.862,0,0,0-12.786,5.271,1.952,1.952,0,0,1-2.421-.253l-2.134-2.135a2.1,2.1,0,0,0-2.962,0l-8.358,8.36a2.093,2.093,0,0,0,0,2.961l2.137,2.137a1.951,1.951,0,0,1,.254,2.419,41.921,41.921,0,0,0-5.268,12.785,1.919,1.919,0,0,1-1.878,1.473h-3.04a2.094,2.094,0,0,0-2.094,2.094v11.823a2.094,2.094,0,0,0,2.094,2.094h3.042a1.919,1.919,0,0,1,1.878,1.473,41.906,41.906,0,0,0,5.269,12.782,1.95,1.95,0,0,1-.254,2.42l-2.14,2.14a2.093,2.093,0,0,0,0,2.962l8.358,8.359a2.094,2.094,0,0,0,2.962,0l2.142-2.142a1.949,1.949,0,0,1,2.419-.255,41.873,41.873,0,0,0,12.78,5.263,1.92,1.92,0,0,1,1.475,1.879v3.049a2.094,2.094,0,0,0,2.094,2.094h11.822a2.094,2.094,0,0,0,2.094-2.094v-3.05a1.921,1.921,0,0,1,1.475-1.879,41.854,41.854,0,0,0,12.778-5.263,1.95,1.95,0,0,1,2.419.254l2.143,2.144a2.1,2.1,0,0,0,2.962,0l8.359-8.36a2.094,2.094,0,0,0,0-2.962l-2.142-2.141a1.95,1.95,0,0,1-.254-2.42,41.83,41.83,0,0,0,5.267-12.78,1.921,1.921,0,0,1,1.878-1.474h3.044A2.094,2.094,0,0,0,5809.21,1877.537Zm-48.032,27.424a33.33,33.33,0,1,1,33.315-33.344A33.325,33.325,0,0,1,5761.178,1904.96Z" transform="translate(-5713.152 -1823.597)" fill="none" stroke="#dee3fc" stroke-miterlimit="10" stroke-width="0.79"/>
        <path id="Path_2118" data-name="Path 2118" d="M5891.993,1936.682v-8.057a1.427,1.427,0,0,0-1.426-1.427h-2.075a1.308,1.308,0,0,1-1.279-1,28.526,28.526,0,0,0-3.589-8.711,1.329,1.329,0,0,1,.173-1.649l1.458-1.458a1.428,1.428,0,0,0,0-2.018l-5.7-5.7a1.427,1.427,0,0,0-2.018,0l-1.457,1.456a1.33,1.33,0,0,1-1.649.173,28.522,28.522,0,0,0-8.712-3.594,1.309,1.309,0,0,1-1.005-1.279v-2.068a1.426,1.426,0,0,0-1.426-1.427h-8.057a1.426,1.426,0,0,0-1.427,1.427v2.067a1.308,1.308,0,0,1-1,1.28,28.52,28.52,0,0,0-8.714,3.592,1.328,1.328,0,0,1-1.649-.173l-1.455-1.455a1.428,1.428,0,0,0-2.019,0l-5.7,5.7a1.427,1.427,0,0,0,0,2.018l1.457,1.457a1.329,1.329,0,0,1,.173,1.649,28.559,28.559,0,0,0-3.589,8.712,1.31,1.31,0,0,1-1.28,1h-2.072a1.427,1.427,0,0,0-1.427,1.427v8.057a1.427,1.427,0,0,0,1.427,1.427h2.073a1.309,1.309,0,0,1,1.28,1,28.556,28.556,0,0,0,3.59,8.71,1.326,1.326,0,0,1-.174,1.649l-1.458,1.459a1.426,1.426,0,0,0,0,2.018l5.7,5.7a1.428,1.428,0,0,0,2.019,0l1.459-1.46a1.328,1.328,0,0,1,1.648-.173,28.544,28.544,0,0,0,8.709,3.586,1.308,1.308,0,0,1,1.005,1.28v2.078a1.426,1.426,0,0,0,1.427,1.427h8.057a1.426,1.426,0,0,0,1.426-1.427v-2.078a1.31,1.31,0,0,1,1.005-1.281,28.51,28.51,0,0,0,8.708-3.586,1.329,1.329,0,0,1,1.648.173l1.461,1.461a1.427,1.427,0,0,0,2.018,0l5.7-5.7a1.428,1.428,0,0,0,0-2.018l-1.458-1.459a1.329,1.329,0,0,1-.174-1.65,28.5,28.5,0,0,0,3.589-8.709,1.309,1.309,0,0,1,1.28-1h2.076A1.427,1.427,0,0,0,5891.993,1936.682Zm-32.733,17.406a21.433,21.433,0,1,1,21.424-21.442A21.429,21.429,0,0,1,5859.26,1954.089Z" transform="translate(-5741.559 -1842.721)" fill="#dee3fc"/>
      </g>
      <g id="Group_2056" data-name="Group 2056" transform="translate(11.59)">
        <circle id="Ellipse_92" data-name="Ellipse 92" cx="3.906" cy="3.906" r="3.906" transform="translate(39.89 336.869)" fill="#a4afff"/>
        <circle id="Ellipse_93" data-name="Ellipse 93" cx="3.906" cy="3.906" r="3.906" transform="translate(563.133 230.149)" fill="#a4afff"/>
        <circle id="Ellipse_94" data-name="Ellipse 94" cx="3.906" cy="3.906" r="3.906" transform="translate(555.322 90.686)" fill="#a4afff"/>
        <circle id="Ellipse_95" data-name="Ellipse 95" cx="2.45" cy="2.45" r="2.45" transform="translate(416.352 44.74)" fill="#a4afff"/>
        <path id="Path_2119" data-name="Path 2119" d="M5730.2,1792.309a2.45,2.45,0,1,1-2.45-2.45A2.451,2.451,0,0,1,5730.2,1792.309Z" transform="translate(-5671.116 -1777.754)" fill="#a4afff"/>
        <path id="Path_2120" data-name="Path 2120" d="M5802.554,1993.615a2.45,2.45,0,1,1-2.45-2.45A2.45,2.45,0,0,1,5802.554,1993.615Z" transform="translate(-5689.245 -1828.192)" fill="#a4afff"/>
        <path id="Path_2121" data-name="Path 2121" d="M5682.626,2232.8a2.45,2.45,0,1,1-2.45-2.45A2.45,2.45,0,0,1,5682.626,2232.8Z" transform="translate(-5659.196 -1888.122)" fill="#a4afff"/>
        <circle id="Ellipse_96" data-name="Ellipse 96" cx="3.906" cy="3.906" r="3.906" transform="translate(505.84 339.177)" fill="#a4afff"/>
        <circle id="Ellipse_97" data-name="Ellipse 97" cx="3.906" cy="3.906" r="3.906" transform="translate(588.889 339.177)" fill="#a4afff"/>
        <circle id="Ellipse_98" data-name="Ellipse 98" cx="3.906" cy="3.906" r="3.906" transform="translate(122.516)" fill="#a4afff"/>
        <path id="Path_2122" data-name="Path 2122" d="M6177.764,2014.28a5.226,5.226,0,1,1-5.227-5.226A5.226,5.226,0,0,1,6177.764,2014.28Z" transform="translate(-5781.865 -1832.674)" fill="#a4afff"/>
        <path id="Path_2123" data-name="Path 2123" d="M5663.453,1928.052a5.226,5.226,0,1,1-5.226-5.226A5.226,5.226,0,0,1,5663.453,1928.052Z" transform="translate(-5653.001 -1811.07)" fill="#a4afff"/>
      </g>
      <g id="Group_2057" data-name="Group 2057" transform="translate(0 30.87)">
        <rect id="Rectangle_145" data-name="Rectangle 145" width="8.104" height="8.104" rx="0.664" fill="#fff"/>
        <rect id="Rectangle_146" data-name="Rectangle 146" width="8.104" height="8.104" rx="0.664" transform="translate(10.84)" fill="#fff"/>
        <rect id="Rectangle_147" data-name="Rectangle 147" width="8.104" height="8.104" rx="0.664" transform="translate(21.68)" fill="#fff"/>
      </g>
      <g id="Group_2059" data-name="Group 2059" transform="translate(552.02 315.466)">
        <g id="Group_2058" data-name="Group 2058">
          <rect id="Rectangle_148" data-name="Rectangle 148" width="8.104" height="8.104" rx="0.664" fill="#dee3fc"/>
          <rect id="Rectangle_149" data-name="Rectangle 149" width="8.104" height="8.104" rx="0.664" transform="translate(10.84)" fill="#dee3fc"/>
          <rect id="Rectangle_150" data-name="Rectangle 150" width="8.104" height="8.104" rx="0.664" transform="translate(21.68)" fill="#dee3fc"/>
        </g>
      </g>
      <g id="Group_2061" data-name="Group 2061" transform="translate(50.883 311.024)">
        <g id="Group_2060" data-name="Group 2060">
          <rect id="Rectangle_151" data-name="Rectangle 151" width="8.104" height="8.104" rx="0.664" fill="#dee3fc"/>
          <rect id="Rectangle_152" data-name="Rectangle 152" width="8.104" height="8.104" rx="0.664" transform="translate(10.84)" fill="#dee3fc"/>
          <rect id="Rectangle_153" data-name="Rectangle 153" width="8.104" height="8.104" rx="0.664" transform="translate(21.68)" fill="#dee3fc"/>
        </g>
      </g>
    </g>
    <g id="Group_2071" data-name="Group 2071" transform="translate(5775.08 1760.662)">
      <g id="Group_2063" data-name="Group 2063">
        <rect id="Rectangle_154" data-name="Rectangle 154" width="205.315" height="396.627" rx="21.349" fill="#3945ba"/>
        <rect id="Rectangle_155" data-name="Rectangle 155" width="197.627" height="387.518" rx="18.7" transform="translate(3.844 3.473)" fill="#fff"/>
        <path id="Path_2124" data-name="Path 2124" d="M6063.127,1790.866v343.978a14.607,14.607,0,0,1-14.608,14.607H5897.411a14.607,14.607,0,0,1-14.608-14.607V1790.866a14.607,14.607,0,0,1,14.608-14.607h25.2a3.7,3.7,0,0,1,3.3,2.04l2.675,5.341a7.218,7.218,0,0,0,6.474,4.009h75.807a7.218,7.218,0,0,0,6.473-4.009l2.676-5.341a3.694,3.694,0,0,1,3.3-2.04h25.2A14.607,14.607,0,0,1,6063.127,1790.866Z" transform="translate(-5870.308 -1766.5)" fill="#dee3fc"/>
        <path id="Path_2125" data-name="Path 2125" d="M6024.287,1781.4H5963.23a2.57,2.57,0,0,1-2.571-2.571h0a2.57,2.57,0,0,1,2.571-2.571h61.057a2.571,2.571,0,0,1,2.571,2.571h0A2.571,2.571,0,0,1,6024.287,1781.4Z" transform="translate(-5889.815 -1766.5)" fill="#dee3fc"/>
      </g>
      <rect id="Rectangle_156" data-name="Rectangle 156" width="155.198" height="67.305" rx="8.379" transform="translate(23.3 303.708)" fill="none" stroke="#698bd1" stroke-linecap="round" stroke-linejoin="round" stroke-width="1" stroke-dasharray="2.837"/>
      <rect id="Rectangle_157" data-name="Rectangle 157" width="81.342" height="47.255" rx="6.044" transform="translate(87.575 158.599)" fill="none" stroke="#698bd1" stroke-linecap="round" stroke-linejoin="round" stroke-width="1" stroke-dasharray="2.837"/>
      <g id="Group_2067" data-name="Group 2067" transform="translate(23.3 211.094)">
        <rect id="Rectangle_158" data-name="Rectangle 158" width="155.814" height="75.324" rx="7.201" transform="translate(5.649 6.094)" fill="#4b5a9b"/>
        <path id="Path_2126" data-name="Path 2126" d="M6052.417,2053.2v58.745a8.285,8.285,0,0,1-8.293,8.282h-138.61a8.285,8.285,0,0,1-8.293-8.282V2053.2a8.3,8.3,0,0,1,8.293-8.294h138.61A8.3,8.3,0,0,1,6052.417,2053.2Z" transform="translate(-5897.22 -2044.906)" fill="#7f95f4"/>
        <rect id="Rectangle_159" data-name="Rectangle 159" width="52.049" height="52.049" rx="4.861" transform="translate(7.17 17.151)" fill="#fff"/>
        <g id="Group_2064" data-name="Group 2064" transform="translate(64.275 20.195)">
          <path id="Path_2127" data-name="Path 2127" d="M6020.718,2075.394h-35.964a1.77,1.77,0,0,1-1.771-1.77h0a1.771,1.771,0,0,1,1.771-1.771h35.964a1.771,1.771,0,0,1,1.771,1.771h0A1.77,1.77,0,0,1,6020.718,2075.394Z" transform="translate(-5982.984 -2071.853)" fill="#b2c1f9"/>
          <path id="Path_2128" data-name="Path 2128" d="M6004.33,2084.828h-19.575a1.771,1.771,0,0,1-1.771-1.771h0a1.771,1.771,0,0,1,1.771-1.771h19.575a1.771,1.771,0,0,1,1.771,1.771h0A1.771,1.771,0,0,1,6004.33,2084.828Z" transform="translate(-5982.984 -2074.217)" fill="#b2c1f9"/>
          <path id="Path_2129" data-name="Path 2129" d="M6073.455,2084.828h-52.968a1.771,1.771,0,0,1-1.771-1.771h0a1.771,1.771,0,0,1,1.771-1.771h52.968a1.771,1.771,0,0,1,1.771,1.771h0A1.771,1.771,0,0,1,6073.455,2084.828Z" transform="translate(-5991.937 -2074.217)" fill="#b2c1f9"/>
          <path id="Path_2130" data-name="Path 2130" d="M6015.042,2094.261h-30.287a1.771,1.771,0,0,1-1.771-1.771h0a1.77,1.77,0,0,1,1.771-1.77h30.287a1.77,1.77,0,0,1,1.77,1.77h0A1.771,1.771,0,0,1,6015.042,2094.261Z" transform="translate(-5982.984 -2076.581)" fill="#b2c1f9"/>
          <path id="Path_2131" data-name="Path 2131" d="M6053.1,2094.261h-19.04a1.771,1.771,0,0,1-1.771-1.771h0a1.771,1.771,0,0,1,1.771-1.77h19.04a1.77,1.77,0,0,1,1.77,1.77h0A1.77,1.77,0,0,1,6053.1,2094.261Z" transform="translate(-5995.339 -2076.581)" fill="#b2c1f9"/>
          <path id="Path_2132" data-name="Path 2132" d="M6085.3,2094.261h-17.534a1.771,1.771,0,0,1-1.77-1.771h0a1.771,1.771,0,0,1,1.77-1.77H6085.3a1.771,1.771,0,0,1,1.771,1.77h0A1.771,1.771,0,0,1,6085.3,2094.261Z" transform="translate(-6003.784 -2076.581)" fill="#b2c1f9"/>
          <path id="Path_2133" data-name="Path 2133" d="M6064.5,2103.694h-79.748a1.77,1.77,0,0,1-1.771-1.77h0a1.77,1.77,0,0,1,1.771-1.771H6064.5a1.771,1.771,0,0,1,1.771,1.771h0A1.77,1.77,0,0,1,6064.5,2103.694Z" transform="translate(-5982.984 -2078.944)" fill="#b2c1f9"/>
          <path id="Path_2134" data-name="Path 2134" d="M6028.646,2113.128h-43.891a1.771,1.771,0,0,1-1.771-1.771h0a1.771,1.771,0,0,1,1.771-1.771h43.891a1.77,1.77,0,0,1,1.77,1.771h0A1.77,1.77,0,0,1,6028.646,2113.128Z" transform="translate(-5982.984 -2081.307)" fill="#b2c1f9"/>
          <path id="Path_2135" data-name="Path 2135" d="M6081.542,2113.128h-28.781a1.771,1.771,0,0,1-1.771-1.771h0a1.771,1.771,0,0,1,1.771-1.771h28.781a1.771,1.771,0,0,1,1.771,1.771h0A1.771,1.771,0,0,1,6081.542,2113.128Z" transform="translate(-6000.023 -2081.307)" fill="#b2c1f9"/>
          <path id="Path_2136" data-name="Path 2136" d="M6010.542,2122.561h-25.788a1.771,1.771,0,0,1-1.771-1.771h0a1.77,1.77,0,0,1,1.771-1.77h25.788a1.77,1.77,0,0,1,1.771,1.77h0A1.77,1.77,0,0,1,6010.542,2122.561Z" transform="translate(-5982.984 -2083.671)" fill="#b2c1f9"/>
          <path id="Path_2137" data-name="Path 2137" d="M6054.265,2122.561h-25.788a1.771,1.771,0,0,1-1.771-1.771h0a1.771,1.771,0,0,1,1.771-1.77h25.788a1.77,1.77,0,0,1,1.771,1.77h0A1.771,1.771,0,0,1,6054.265,2122.561Z" transform="translate(-5993.939 -2083.671)" fill="#b2c1f9"/>
          <path id="Path_2138" data-name="Path 2138" d="M6086.162,2122.561H6071.2a1.771,1.771,0,0,1-1.771-1.771h0a1.77,1.77,0,0,1,1.771-1.77h14.962a1.771,1.771,0,0,1,1.771,1.77h0A1.771,1.771,0,0,1,6086.162,2122.561Z" transform="translate(-6004.643 -2083.671)" fill="#b2c1f9"/>
          <path id="Path_2139" data-name="Path 2139" d="M6020.718,2131.994h-35.964a1.77,1.77,0,0,1-1.771-1.77h0a1.771,1.771,0,0,1,1.771-1.771h35.964a1.771,1.771,0,0,1,1.771,1.771h0A1.77,1.77,0,0,1,6020.718,2131.994Z" transform="translate(-5982.984 -2086.035)" fill="#b2c1f9"/>
          <path id="Path_2140" data-name="Path 2140" d="M6079.14,2075.394h-35.963a1.771,1.771,0,0,1-1.772-1.77h0a1.771,1.771,0,0,1,1.772-1.771h35.963a1.771,1.771,0,0,1,1.771,1.771h0A1.77,1.77,0,0,1,6079.14,2075.394Z" transform="translate(-5997.622 -2071.853)" fill="#b2c1f9"/>
        </g>
        <g id="Group_2066" data-name="Group 2066">
          <path id="Path_2141" data-name="Path 2141" d="M6052.417,2053.2v2.468h-155.2V2053.2a8.3,8.3,0,0,1,8.293-8.294h138.61A8.3,8.3,0,0,1,6052.417,2053.2Z" transform="translate(-5897.22 -2044.906)" fill="#3052ce"/>
          <g id="Group_2065" data-name="Group 2065" transform="translate(122.099 3.653)">
            <path id="Path_2142" data-name="Path 2142" d="M6063.985,2051.7a1.922,1.922,0,1,1-1.922-1.922A1.923,1.923,0,0,1,6063.985,2051.7Z" transform="translate(-6060.14 -2049.78)" fill="#dee3fc"/>
            <path id="Path_2143" data-name="Path 2143" d="M6077.11,2051.7a1.923,1.923,0,1,1-1.923-1.922A1.923,1.923,0,0,1,6077.11,2051.7Z" transform="translate(-6063.429 -2049.78)" fill="#dee3fc"/>
            <path id="Path_2144" data-name="Path 2144" d="M6090.236,2051.7a1.923,1.923,0,1,1-1.923-1.922A1.924,1.924,0,0,1,6090.236,2051.7Z" transform="translate(-6066.717 -2049.78)" fill="#dee3fc"/>
          </g>
        </g>
      </g>
      <g id="Group_2069" data-name="Group 2069" transform="translate(32.385 158.642)">
        <rect id="Rectangle_160" data-name="Rectangle 160" width="47.212" height="47.212" rx="7.151" fill="none" stroke="#495ad6" stroke-miterlimit="10" stroke-width="0.896"/>
        <g id="Group_2068" data-name="Group 2068" transform="translate(9.439 16.777)">
          <path id="Path_2145" data-name="Path 2145" d="M5928.74,1997.3l-6.8,6.8,6.855,6.855" transform="translate(-5921.938 -1997.303)" fill="none" stroke="#495ad6" stroke-linecap="round" stroke-linejoin="round" stroke-width="1.672"/>
          <path id="Path_2146" data-name="Path 2146" d="M5950.649,1997.3l6.8,6.8-6.856,6.855" transform="translate(-5929.118 -1997.303)" fill="none" stroke="#495ad6" stroke-linecap="round" stroke-linejoin="round" stroke-width="1.672"/>
          <line id="Line_74" data-name="Line 74" x1="6.37" y2="13.658" transform="translate(10.981)" fill="none" stroke="#495ad6" stroke-linecap="round" stroke-linejoin="round" stroke-width="1.672"/>
        </g>
      </g>
      <g id="Group_2070" data-name="Group 2070" transform="translate(23.3 33.97)">
        <path id="Path_2147" data-name="Path 2147" d="M6052.417,1818v96.048a9.432,9.432,0,0,1-9.435,9.435H5906.655a9.439,9.439,0,0,1-9.435-9.435V1818a9.439,9.439,0,0,1,9.435-9.436h136.328A9.432,9.432,0,0,1,6052.417,1818Z" transform="translate(-5897.22 -1808.565)" fill="#b2c1f9"/>
        <circle id="Ellipse_99" data-name="Ellipse 99" cx="22.492" cy="22.492" r="22.492" transform="translate(101.273 7.855)" fill="#f0f4ff"/>
        <path id="Path_2148" data-name="Path 2148" d="M5988.447,1932.154h-81.792a9.439,9.439,0,0,1-9.435-9.436V1907.6l35.792-62a4.861,4.861,0,0,1,8.42,0l27.025,46.807,20.07,34.765A4.771,4.771,0,0,1,5988.447,1932.154Z" transform="translate(-5897.22 -1817.235)" fill="#fff"/>
        <path id="Path_2149" data-name="Path 2149" d="M6039.861,1940.722h-78.215l22.954-39.748,12.365-21.42a4.374,4.374,0,0,1,7.578,0Z" transform="translate(-5913.363 -1825.803)" fill="#f0f4ff"/>
      </g>
    </g>
    <g id="Group_2081" data-name="Group 2081" transform="translate(5954.454 1914.948)">
      <g id="Group_2073" data-name="Group 2073" transform="translate(65.266 173.078)">
        <rect id="Rectangle_161" data-name="Rectangle 161" width="60.299" height="90.619" fill="#3b47bc"/>
        <rect id="Rectangle_162" data-name="Rectangle 162" width="23.088" height="90.619" transform="translate(83.387 90.619) rotate(180)" fill="#495ad6"/>
        <g id="Group_2072" data-name="Group 2072" transform="translate(63.604 3.48)">
          <rect id="Rectangle_163" data-name="Rectangle 163" width="16.951" height="2.892" fill="#b2c1f9"/>
          <rect id="Rectangle_164" data-name="Rectangle 164" width="16.951" height="2.892" transform="translate(0 6.213)" fill="#b2c1f9"/>
          <rect id="Rectangle_165" data-name="Rectangle 165" width="16.951" height="2.892" transform="translate(0 12.426)" fill="#b2c1f9"/>
          <rect id="Rectangle_166" data-name="Rectangle 166" width="16.951" height="2.892" transform="translate(0 18.639)" fill="#b2c1f9"/>
          <rect id="Rectangle_167" data-name="Rectangle 167" width="16.951" height="2.892" transform="translate(0 24.851)" fill="#b2c1f9"/>
          <rect id="Rectangle_168" data-name="Rectangle 168" width="16.951" height="2.892" transform="translate(0 31.064)" fill="#b2c1f9"/>
          <rect id="Rectangle_169" data-name="Rectangle 169" width="16.951" height="2.892" transform="translate(0 37.277)" fill="#b2c1f9"/>
          <rect id="Rectangle_170" data-name="Rectangle 170" width="16.951" height="2.892" transform="translate(0 43.49)" fill="#b2c1f9"/>
          <rect id="Rectangle_171" data-name="Rectangle 171" width="16.951" height="2.892" transform="translate(0 49.703)" fill="#b2c1f9"/>
          <rect id="Rectangle_172" data-name="Rectangle 172" width="16.951" height="2.892" transform="translate(0 55.915)" fill="#b2c1f9"/>
          <rect id="Rectangle_173" data-name="Rectangle 173" width="16.951" height="2.892" transform="translate(0 62.128)" fill="#b2c1f9"/>
          <rect id="Rectangle_174" data-name="Rectangle 174" width="16.951" height="2.892" transform="translate(0 68.341)" fill="#b2c1f9"/>
          <rect id="Rectangle_175" data-name="Rectangle 175" width="16.951" height="2.892" transform="translate(0 74.554)" fill="#b2c1f9"/>
          <rect id="Rectangle_176" data-name="Rectangle 176" width="16.951" height="2.892" transform="translate(0 80.767)" fill="#b2c1f9"/>
        </g>
      </g>
      <g id="Group_2080" data-name="Group 2080">
        <path id="Path_2150" data-name="Path 2150" d="M6179.475,2316.877h30.646s1.713-5.457-2-12.217c0,0-2.467,1.978-9.855.64a32.889,32.889,0,0,1-5.213,3.642C6190.913,2309.977,6178.649,2312.386,6179.475,2316.877Z" transform="translate(-6124.004 -2053.18)" fill="#281616"/>
        <path id="Path_2151" data-name="Path 2151" d="M6182.106,2203.584c1.979,11.811,11.113,51.768,15.039,75.373,7.176.611,10.622-.213,12.448-.633-.357-8.231-1.065-27.92-.982-36.555.136-14.592.821-33.836-5.6-44.4l-21.6,1.7c.131,1.141.25,2.068.356,2.732C6181.869,2202.441,6181.988,2203.028,6182.106,2203.584Z" transform="translate(-6124.499 -2026.299)" fill="#002c54"/>
        <path id="Path_2152" data-name="Path 2152" d="M6105.513,2316.877h30.645s1.713-5.457-2-12.217c0,0-2.467,1.978-9.855.64a32.9,32.9,0,0,1-5.213,3.642C6116.951,2309.977,6104.687,2312.386,6105.513,2316.877Z" transform="translate(-6105.473 -2053.18)" fill="#281616"/>
        <path id="Path_2153" data-name="Path 2153" d="M6129.415,2275.893a35.156,35.156,0,0,0,12.105,1.082c1.629-9.488,4.2-30.364,6.52-40.15,3.594-15.21,7.112-36.127,4.668-43.59l-21.248-5.335C6131.391,2188.571,6129.66,2252.59,6129.415,2275.893Z" transform="translate(-6111.471 -2023.925)" fill="#052635"/>
        <path id="Path_2154" data-name="Path 2154" d="M6214.644,2156.408h0c-.426-4.2-.917-7.266-.917-7.266l-23.738,5.81-20.166,4.595c-7.475,1.666-16.506,3.671-24.467,5.469-8.934,2.03-14.865,8.816-12.908,17.762l2.239,10.851c12.5-.17,71.243-5.8,76.269-8.34C6216.631,2182.422,6218.341,2172.285,6214.644,2156.408Z" transform="translate(-6112.138 -2014.214)" fill="#052635"/>
        <path id="Path_2155" data-name="Path 2155" d="M6261.926,2155.927h0a32.809,32.809,0,0,0-2.474-8.7l-22.183,7.248-20.164,4.595c-7.476,1.665-16.506,3.671-24.468,5.469-8.934,2.03-14.864,8.816-12.907,17.762l2.238,10.851c12.5-.17,64.722-1.991,76.269-8.34C6263.811,2181.744,6265.624,2171.8,6261.926,2155.927Z" transform="translate(-6123.985 -2013.733)" fill="#002c54"/>
        <g id="Group_2074" data-name="Group 2074" transform="translate(36.603 106.06)">
          <path id="Path_2156" data-name="Path 2156" d="M6189.209,2112.735s10.543-4.763,13.445.014c1.589,2.616.49,7.473-3.106,9.512s-23.917,10.633-43.1,15.426a46.522,46.522,0,0,0-2.14-5.472,100.943,100.943,0,0,0,17.158-9.576,109.313,109.313,0,0,1,17.738-9.9Z" transform="translate(-6154.313 -2110.622)" fill="#e5918f"/>
        </g>
        <path id="Path_2157" data-name="Path 2157" d="M6201.372,2069.509l-9.037,36.093s.934,9.125,10.149,4.646,15.321-33.233,15.321-33.233Z" transform="translate(-6127.236 -1994.261)" fill="#e5918f"/>
        <path id="Path_2158" data-name="Path 2158" d="M6218.291,2082.748c-1.119-.271-2.186-.566-3.214-.875q-1.581-.462-3.008-.964a50.723,50.723,0,0,1-13.227-6.478c2.7-11.736,5.952-19.616,8.844-24.809a3.668,3.668,0,0,0,.219-.385l.231-.386a22.54,22.54,0,0,1,6.287-6.543c.257-.18.5-.347.758-.527l1.066,18.844.18,1.941Z" transform="translate(-6128.867 -1987.314)" fill="#fff"/>
        <path id="Path_2159" data-name="Path 2159" d="M6222.712,2088.919c-1.119-.271-2.186-.566-3.214-.875q-1.58-.462-3.007-.964c1.8-12.693,3.431-20.67,3.431-20.67l.926,2.327Z" transform="translate(-6133.29 -1993.485)" fill="#c7e5f2"/>
        <path id="Path_2160" data-name="Path 2160" d="M6276.119,2047.787c-.218,5.579-1.2,14.538-2.043,23.536-.27,2.854-.527,5.72-.746,8.484-.154,1.722-2.75,10.913-2.854,12.558-.463,7.867-4.318,13.754-.668,25.734a18.877,18.877,0,0,1,1.093,5.527c0,.823-1.067,1.684-1.492,1.916-1.529.887-4.537,1.5-8.187,1.954h-.013a212.247,212.247,0,0,1-22.726,1.041c-7.854,0-19.642-1.246-21.133-3.226-1.363-1.812-.1-4.447.54-8.085,2.893-16.415,1.864-24.975,1.685-36.827,0-.3-.014-.591-.014-.9-.3-18.278-1.5-33.922-.655-39.565.257-.18.5-.347.758-.527,1.247-.848,2.468-1.607,3.651-2.275.1-.052.23-.129.359-.206.36-.205.733-.4,1.08-.59a4.055,4.055,0,0,1,.411-.206,89.767,89.767,0,0,1,8.767-3.458c.282-.09.539-.18.758-.244,2.1-.128,4.371-.154,6.825-.09,2.134.064,5.4.347,8.947.81h.013a92.49,92.49,0,0,1,11.877,2.224.64.64,0,0,1,.065.026,24.468,24.468,0,0,1,9.345,6.543A31.642,31.642,0,0,1,6276.119,2047.787Z" transform="translate(-6133.351 -1984.939)" fill="#fff"/>
        <path id="Path_2161" data-name="Path 2161" d="M6284.112,2127.3a18.9,18.9,0,0,1,1.093,5.527c0,.823-1.067,1.684-1.492,1.916-1.53.887-4.537,1.5-8.188,1.954,1.5-.18,4.1-2.566,4.1-4.718,0-1.506-1.954-11.684-1.415-18.252s1.607-16.993-.424-25.348-3.958-19.346-3.958-19.346l11.453,6.916s1.478,2.069,3.1,4.576c-.271,2.854-.527,5.72-.746,8.484C6287.48,2090.733,6280.462,2115.323,6284.112,2127.3Z" transform="translate(-6147.655 -1994.142)" fill="#c7e5f2"/>
        <g id="Group_2078" data-name="Group 2078" transform="translate(80.691)">
          <path id="Path_2162" data-name="Path 2162" d="M6220.319,1988.5s.992,11.979,4.963,12.783,3-4.285,3-4.285l-.555-5.688Z" transform="translate(-6214.938 -1973.965)" fill="#002c54"/>
          <path id="Path_2163" data-name="Path 2163" d="M6243.009,2036.4c-7.777-.926-4.872-8.484-3.8-10.219.282-.09,1.619-.5,1.721-.565a.042.042,0,0,1,.026-.013,2.138,2.138,0,0,0,.6-.9c.758-1.993.41-5.965.385-6.222v-.732c.129-.476.257-.926.36-1.35l4.088-3.214,8.65-6.8s-2.3,11.376-.451,18.548a2.7,2.7,0,0,0,1.144,1.723c0,.013.014,0,.014,0a2.064,2.064,0,0,0,.861.308C6258.729,2027.963,6255.773,2037.912,6243.009,2036.4Z" transform="translate(-6219.314 -1978.444)" fill="#e5918f"/>
          <path id="Path_2164" data-name="Path 2164" d="M6251.123,2016.027s-.072,7.592-8.313,11.083c.767-1.981.414-5.956.389-6.211l3.452-2.711Z" transform="translate(-6220.574 -1980.861)" fill="#cc6362"/>
          <path id="Path_2165" data-name="Path 2165" d="M6222.853,1986.806s1.8,24.854,8.508,26.966a17.456,17.456,0,0,0,14.689-7.453c1.769-2.379,4-2.914,4.733-5.787,1.186-4.666,2.858-13.274.725-18.461C6248.47,1974.683,6223.142,1968.818,6222.853,1986.806Z" transform="translate(-6215.574 -1970.561)" fill="#e5918f"/>
          <path id="Path_2166" data-name="Path 2166" d="M6249.178,1976.513c-.111-4.516-4.681-6.2-4.681-6.2-4.548-2.128-14-1.21-23.749.964-2.285.51-5.153-.893-6.749.215-1.929,1.338-.008,7.451-.008,7.451,3.759,11.386,17.594,7.683,21.752,6.279.989,2.931.861,7.006,3.326,9.109,1.4,1.2,3.846,1.232,6.328.818.305.581,1.452,1.092,1.687,1.889.782,2.663.669,6.823.646,10.035l1.172-.573C6249.055,2005.628,6261.189,1976.886,6249.178,1976.513Z" transform="translate(-6213.14 -1969.104)" fill="#002c54"/>
          <g id="Group_2075" data-name="Group 2075" transform="translate(8.276 19.825)">
            <path id="Path_2167" data-name="Path 2167" d="M6230.07,2000.854c.352,2.063-.666,3.958-2.273,4.231s-3.193-1.178-3.545-3.242.667-3.958,2.273-4.232S6229.718,1998.789,6230.07,2000.854Z" transform="translate(-6224.183 -1996.063)" fill="none" stroke="#fff" stroke-miterlimit="10" stroke-width="0.501"/>
            <path id="Path_2168" data-name="Path 2168" d="M6240.891,1998.832c.352,2.064-.667,3.958-2.272,4.232s-3.194-1.178-3.545-3.242.666-3.959,2.273-4.232S6240.54,1996.768,6240.891,1998.832Z" transform="translate(-6226.894 -1995.557)" fill="none" stroke="#fff" stroke-miterlimit="10" stroke-width="0.501"/>
            <path id="Path_2169" data-name="Path 2169" d="M6232.039,2001.8s.355-.578,2.222-.416" transform="translate(-6226.151 -1997.01)" fill="none" stroke="#fff" stroke-miterlimit="10" stroke-width="0.501"/>
            <line id="Line_75" data-name="Line 75" y1="1.107" x2="6.932" transform="translate(14.066 2.663)" fill="none" stroke="#fff" stroke-miterlimit="10" stroke-width="0.501"/>
          </g>
          <g id="Group_2076" data-name="Group 2076" transform="translate(27.801 20.821)">
            <path id="Path_2170" data-name="Path 2170" d="M6252.218,2007.351c4.772,1.829,6.264-9.92,1.731-10.441-3.437-.395-3.579,4.4-3.579,4.4S6249.493,2006.307,6252.218,2007.351Z" transform="translate(-6250.236 -1996.886)" fill="#e5918f"/>
          </g>
          <g id="Group_2077" data-name="Group 2077" transform="translate(29.741 22.616)" opacity="0.5">
            <path id="Path_2171" data-name="Path 2171" d="M6254.44,1999.281s-2.82,1.491-1.01,6.073" transform="translate(-6252.824 -1999.281)" fill="none" stroke="#cc6362" stroke-miterlimit="10" stroke-width="0.724"/>
            <path id="Path_2172" data-name="Path 2172" d="M6255.2,2002.257a2.494,2.494,0,0,0-2.319,1.721" transform="translate(-6252.838 -2000.026)" fill="none" stroke="#cc6362" stroke-miterlimit="10" stroke-width="0.724"/>
          </g>
        </g>
        <path id="Path_2173" data-name="Path 2173" d="M6305.962,2107.072v.012c-2.1,2.435-10.06,4.209-13.891.842-1.2-1.073-2.562-3.9-3.9-7.406a229.587,229.587,0,0,1-6.611-22.379l17.817-9.1s2.292,10.276,4.266,20.043c0,0,.018.1.054.272.643,3.129,1.24,6.205,1.711,8.846a1.309,1.309,0,0,1,.034.21A37.348,37.348,0,0,1,6305.962,2107.072Z" transform="translate(-6149.593 -1994.143)" fill="#e5918f"/>
        <path id="Path_2174" data-name="Path 2174" d="M6272.585,2058.156c1.72,7.154,7.128,20.712,7.128,20.712a28.228,28.228,0,0,0,13.076-1.582,24.085,24.085,0,0,0,8.329-5.409s-3.587-10.079-6.806-17.322c-2.889-6.5-4.624-8.927-5.875-10.216a28.347,28.347,0,0,0-7.074-5.261Z" transform="translate(-6147.344 -1986.636)" fill="#fff"/>
        <path id="Path_2175" data-name="Path 2175" d="M6296.4,2062.165l-10.455-4.511-8.238-21.226s1.51.459,3.5,1.261h.009c.038.019.125.048.268.106a.956.956,0,0,1,.153.067c1.777.831,8.669,4.893,13.438,19.649l.114.372c.507,1.7.88,3.068,1.081,3.775.019.068.038.134.057.211C6296.35,2061.964,6296.369,2062.07,6296.4,2062.165Z" transform="translate(-6148.626 -1985.972)" fill="#fff"/>
        <g id="Group_2079" data-name="Group 2079" transform="translate(89.508 94.673)">
          <path id="Path_2176" data-name="Path 2176" d="M6295.8,2113.685v.012c-.153,1.305-.513,2.242-1.158,2.574-.1.066-1.566.937-1.667,1a88.916,88.916,0,0,1-11.044,5.71,399.829,399.829,0,0,1-38.564,13.857,45.531,45.531,0,0,0-2.359-5.383,101.061,101.061,0,0,0,16.742-10.277c8.31-6.343,20.263-14.048,20.263-14.048l3.019-3.551s10.73-9.875,12.453-7.889c0,0,.018.1.054.272.255,1.03,1.107,4.819,1.711,8.846a1.309,1.309,0,0,1,.034.21A37.347,37.347,0,0,1,6295.8,2113.685Z" transform="translate(-6228.939 -2095.428)" fill="#e5918f"/>
          <path id="Path_2177" data-name="Path 2177" d="M6238.207,2142.207a6.64,6.64,0,0,1-4.236.814c-1.183-.248-1.659-.732-2.534-.886a19.657,19.657,0,0,1-4.356-1.007c-1.153-.565-1.6-.629-1.562.529s2.315,2.158,2.932,2.48a5.838,5.838,0,0,1,1.475,1.477c.083.129-3.791,2.156-4.834,1.746a3.024,3.024,0,0,0-.133,1.453c.177.521.974.7,1.035.966s-.183.8-.009,1.213.883.417,1.17,1.092-.029.686.181,1.39,1.108.831,1.28,1.194.08.788.458,1.038,3.863-.868,5.134-1.414,4.671-5.438,8.433-7.106Z" transform="translate(-6224.904 -2106.78)" fill="#e5918f"/>
        </g>
        <path id="Path_2178" data-name="Path 2178" d="M6257.358,2170.958h-27.1v-2.652h27.1a1.326,1.326,0,0,1,1.325,1.326h0A1.325,1.325,0,0,1,6257.358,2170.958Z" transform="translate(-6136.737 -2019.016)" fill="#375f84"/>
        <path id="Path_2179" data-name="Path 2179" d="M6218.916,2153.95h-67.86a1.81,1.81,0,0,1-1.744-1.324l-13.89-50a1.738,1.738,0,0,1,1.674-2.2h65.623a3.4,3.4,0,0,1,3.28,2.492l13.839,49.819A.957.957,0,0,1,6218.916,2153.95Z" transform="translate(-6112.96 -2002.007)" fill="#375f84"/>
        <path id="Path_2180" data-name="Path 2180" d="M6215.639,2153.95h-67.861a1.809,1.809,0,0,1-1.743-1.324l-13.889-50a1.737,1.737,0,0,1,1.673-2.2h65.624a3.4,3.4,0,0,1,3.279,2.492l13.84,49.819A.958.958,0,0,1,6215.639,2153.95Z" transform="translate(-6112.14 -2002.007)" fill="#467cdb"/>
      </g>
    </g>
    <g id="Group_2082" data-name="Group 2082" transform="translate(5657.767 1979.76)">
      <path id="Path_2181" data-name="Path 2181" d="M5884.7,2121.671l7.862-8.06a21,21,0,0,1,.7-4.352c.428-.757,1.533-3.565,2.085-3.871a2.85,2.85,0,0,1,1.652,0,7.577,7.577,0,0,1,1.581-.367,4.646,4.646,0,0,1,1.406.447s1.175-.08,1.665-.08a1.043,1.043,0,0,1,.647.137,34.78,34.78,0,0,1,2.813-2.914c.918-.735,2.323-2.087,2.738-2.082.391.005.565.695.28,1.429a8.178,8.178,0,0,1-1.53,1.919l-3.581,5.427a7.86,7.86,0,0,0,.938-.449c.327-.2,2.51-2.245,2.643-2.326s1.112-.735,1.683-.082-3.75,5.83-4.443,6.523a37.824,37.824,0,0,1-4.667,2.705s-4.194,7.544-4.6,8.034S5884.7,2121.671,5884.7,2121.671Z" transform="translate(-5753.468 -2066.846)" fill="#e49191"/>
      <path id="Path_2182" data-name="Path 2182" d="M5884.806,2074.653s-4.39,25.436-8.523,26.026c0,0-16.5.666-20.176-19.35-3.187-17.359,9.6-21.061,15.579-19.733S5886.091,2063.787,5884.806,2074.653Z" transform="translate(-5746.179 -2057.03)" fill="#e49191"/>
      <path id="Path_2183" data-name="Path 2183" d="M5869.652,2103.779s-2.312,3.116-3.123,10.664a24.5,24.5,0,0,1-13.207-2.28,93.479,93.479,0,0,0,3.833-22.2" transform="translate(-5745.608 -2064.198)" fill="#e49191"/>
      <path id="Path_2184" data-name="Path 2184" d="M5864.426,2055.893c-9.017,1.991-8.3,7.608-8.3,7.608-4.221,1.046-5.129,2.788-5.093,10.58s2.854,17.149,4.409,17.91,10.37.8,11.106.531,3.821-7.416,3.1-8.673.036-6.2,2.089-6.391,1.651,3,1.651,3l1.687-.37,1.3-3.2c11.916.709,14.994-12.869,14.994-12.869C5888.515,2062.152,5873.442,2053.9,5864.426,2055.893Z" transform="translate(-5745.035 -2055.585)" fill="#002c54"/>
      <path id="Path_2185" data-name="Path 2185" d="M5733.651,2285.717l9.116,1.318-3.02,10.645-9.874-2.49s-4.017-5.445,2.048-9.474A3.32,3.32,0,0,1,5733.651,2285.717Z" transform="translate(-5714.35 -2113.217)" fill="#e5918f"/>
      <path id="Path_2186" data-name="Path 2186" d="M5804.566,2235.453l-13.437-40.687s-4.073-1.451-6.16,0c0,0-14,7.527-12.5,28.991,1.125,16.18,4.542,33.73,5.926,40.767l-35.852-1.326a12.218,12.218,0,0,0-1.562,12.1s45.05,12.115,51.4,13.234c5.157.911,10.8,1.612,13.527-.723C5810.7,2283.7,5804.566,2235.453,5804.566,2235.453Z" transform="translate(-5717.218 -2090.296)"/>
      <path id="Path_2187" data-name="Path 2187" d="M5790.292,2285.717l9.117,1.318-3.02,10.645-9.874-2.49s-4.018-5.445,2.048-9.474A3.32,3.32,0,0,1,5790.292,2285.717Z" transform="translate(-5728.542 -2113.217)" fill="#e5918f"/>
      <path id="Path_2188" data-name="Path 2188" d="M5782.229,2290.385c-.2,2.1,1.629,3.984,1.293,4.506s-6.464,10.8-6.464,10.8,4.627,2.015,3.881,4.925h-11.716a9.72,9.72,0,0,1-2.985-6.717,34,34,0,0,1,2.885-8.582c2.09-4.031,6.841-13.129,6.841-13.129a6.626,6.626,0,0,1,3.905.075,23.719,23.719,0,0,1,5.668,2.535S5782.731,2285.206,5782.229,2290.385Z" transform="translate(-5723.788 -2112.303)" fill="#467cdb"/>
      <path id="Path_2189" data-name="Path 2189" d="M5883.358,2279.479c-2.893-10.794-30.111-56.876-39.319-69.318-18.912-8.212-39.069-15.18-39.069-15.18-8.337,1.99-12.443,18.788-7.715,29.987,3.244,7.683,23.822,27.018,36.423,38.4l-34.969-.043s-4.119,6.158-.387,12.006c0,0,58.16,13.224,63.261,13.97s16.548,0,16.548,0S5885.793,2288.565,5883.358,2279.479Z" transform="translate(-5731.06 -2090.512)" fill="#002c54"/>
      <path id="Path_2190" data-name="Path 2190" d="M5725.589,2290.385c-.2,2.1,1.629,3.984,1.293,4.506s-6.464,10.8-6.464,10.8,4.627,2.015,3.88,4.925h-11.717a9.723,9.723,0,0,1-2.985-6.717,33.989,33.989,0,0,1,2.886-8.582c2.09-4.031,6.84-13.129,6.84-13.129a6.625,6.625,0,0,1,3.905.075,23.708,23.708,0,0,1,5.668,2.535S5726.093,2285.206,5725.589,2290.385Z" transform="translate(-5709.596 -2112.303)" fill="#467cdb"/>
      <path id="Path_2191" data-name="Path 2191" d="M5956.758,2118.289,5938,2151.281l-13.433-13.389-11.117,16.55,3.228,1.55-1.162.967s25.923,12.624,29.029,9.839,17.579-44.758,17.579-44.758Z" transform="translate(-5760.673 -2071.296)" fill="#e49191"/>
      <path id="Path_2192" data-name="Path 2192" d="M5897.283,2137.968s-3.541,14.937-10.623,22.02l-18.121-6.9s-8.409,14.141-16.633,24.983c-3.16,4.187-4.209,10.082-7.923,10.854-.231-.081-.45-.15-.681-.208-10.07-3.023-24.927.184-37.187-4.372-13.542-5.041-10.912-7.878-10.912-7.878A174.953,174.953,0,0,0,5808.074,2146a186.935,186.935,0,0,0,4.476-18.374,21.158,21.158,0,0,1,17.81-17.037c.1-.011.2-.034.3-.045,10.266-1.3,37.142,1.868,42.367,4.106S5897.283,2137.968,5897.283,2137.968Z" transform="translate(-5730.994 -2069.278)" fill="#467cdb"/>
      <path id="Path_2193" data-name="Path 2193" d="M5884.916,2166.616s-8.409,14.142-16.633,24.984c-3.16,4.187-4.209,10.082-7.923,10.854,1.625-.577,4.325-9.135,5.283-11.062s2.5-3.841,5.824-10.566,7.8-16.609,7.8-16.609Z" transform="translate(-5747.371 -2082.803)" fill="#5996ef"/>
      <path id="Path_2194" data-name="Path 2194" d="M5846.523,2286.23a58.661,58.661,0,0,1,18.077,2.6" transform="translate(-5743.904 -2113.372)" fill="none" stroke="#000" stroke-miterlimit="10" stroke-width="1.065"/>
      <path id="Path_2195" data-name="Path 2195" d="M5984.89,2100.11a17.654,17.654,0,0,0-3.154,2.276l1.071-2.048a20.1,20.1,0,0,0,1.922-2.116c.51-.749.241-1.5-.16-1.539a15.693,15.693,0,0,0-2.955,2.113l.216-.412a20.259,20.259,0,0,0,1.923-2.115c.509-.75.241-1.5-.161-1.54s-3.655,2.691-3.655,2.691l-1.584,2.122,1.195-2.32a10.069,10.069,0,0,0,1.048-1.608c.419-.839.116-1.095-.117-1.375s-2.423,1.352-2.982,2a33.694,33.694,0,0,0-2.471,3.67l-1.83,3.786c-.117-1.1-.3-2.974-.43-4.171-.187-1.725-1.748-2.132-1.8-1.294s-.924,4.963-.727,7.2.572,3.7.711,4.963-1.166,3.773-1.166,3.773,5.22,3.241,6.083,2.271a40.6,40.6,0,0,0,3.587-4.576,24.309,24.309,0,0,0,2.043-4.614l1.63-3.485a20.131,20.131,0,0,0,1.923-2.116C5985.559,2100.9,5985.292,2100.151,5984.89,2100.11Z" transform="translate(-5774.788 -2065.261)" fill="#e49191"/>
    </g>
    <g id="Group_2085" data-name="Group 2085" transform="translate(6099.167 1909.556)">
      <g id="Group_2084" data-name="Group 2084">
        <path id="Path_2196" data-name="Path 2196" d="M6366.876,1961.91h-61.207a7.1,7.1,0,0,0-7.1,7.1v14.46a7.1,7.1,0,0,0,6.207,7.046,1.023,1.023,0,0,1,.9,1.017v7.916a.471.471,0,0,0,.854.274l6.234-8.718a1.034,1.034,0,0,1,.84-.432h53.278a7.1,7.1,0,0,0,7.1-7.1v-14.46A7.1,7.1,0,0,0,6366.876,1961.91Z" transform="translate(-6298.567 -1961.91)" fill="#7e89fd"/>
        <g id="Group_2083" data-name="Group 2083" transform="translate(11.816 11.972)">
          <path id="Path_2197" data-name="Path 2197" d="M6319.009,1980.223a2.338,2.338,0,1,1-2.338-2.338A2.338,2.338,0,0,1,6319.009,1980.223Z" transform="translate(-6314.333 -1977.885)" fill="#7e89fd"/>
          <path id="Path_2198" data-name="Path 2198" d="M6334.723,1980.223a2.339,2.339,0,1,1-2.339-2.338A2.339,2.339,0,0,1,6334.723,1980.223Z" transform="translate(-6318.27 -1977.885)" fill="#7e89fd"/>
          <path id="Path_2199" data-name="Path 2199" d="M6350.436,1980.223a2.339,2.339,0,1,1-2.339-2.338A2.339,2.339,0,0,1,6350.436,1980.223Z" transform="translate(-6322.207 -1977.885)" fill="#7e89fd"/>
          <path id="Path_2200" data-name="Path 2200" d="M6366.149,1980.223a2.339,2.339,0,1,1-2.339-2.338A2.339,2.339,0,0,1,6366.149,1980.223Z" transform="translate(-6326.144 -1977.885)" fill="#7e89fd"/>
          <path id="Path_2201" data-name="Path 2201" d="M6381.862,1980.223a2.339,2.339,0,1,1-2.338-2.338A2.338,2.338,0,0,1,6381.862,1980.223Z" transform="translate(-6330.081 -1977.885)" fill="#7e89fd"/>
        </g>
      </g>
    </g>
    <g id="Group_2087" data-name="Group 2087" transform="translate(5676.729 1972.946)">
      <path id="Path_2202" data-name="Path 2202" d="M5742,2046.493h61.207a7.1,7.1,0,0,1,7.1,7.1v14.46a7.1,7.1,0,0,1-6.206,7.046,1.024,1.024,0,0,0-.9,1.017v7.915a.47.47,0,0,1-.852.274l-6.236-8.718a1.029,1.029,0,0,0-.839-.432H5742a7.1,7.1,0,0,1-7.1-7.1V2053.6A7.1,7.1,0,0,1,5742,2046.493Z" transform="translate(-5734.897 -2046.493)" fill="none" stroke="#fff" stroke-miterlimit="10" stroke-width="0.896"/>
      <g id="Group_2086" data-name="Group 2086" transform="translate(11.815 11.972)">
        <path id="Path_2203" data-name="Path 2203" d="M5813.516,2064.806a2.338,2.338,0,1,0,2.338-2.338A2.338,2.338,0,0,0,5813.516,2064.806Z" transform="translate(-5766.412 -2062.468)" fill="none" stroke="#fff" stroke-miterlimit="10" stroke-width="0.896"/>
        <path id="Path_2204" data-name="Path 2204" d="M5797.8,2064.806a2.338,2.338,0,1,0,2.338-2.338A2.339,2.339,0,0,0,5797.8,2064.806Z" transform="translate(-5762.474 -2062.468)" fill="none" stroke="#fff" stroke-miterlimit="10" stroke-width="0.896"/>
        <path id="Path_2205" data-name="Path 2205" d="M5782.089,2064.806a2.339,2.339,0,1,0,2.339-2.338A2.338,2.338,0,0,0,5782.089,2064.806Z" transform="translate(-5758.537 -2062.468)" fill="none" stroke="#fff" stroke-miterlimit="10" stroke-width="0.896"/>
        <path id="Path_2206" data-name="Path 2206" d="M5766.376,2064.806a2.339,2.339,0,1,0,2.338-2.338A2.338,2.338,0,0,0,5766.376,2064.806Z" transform="translate(-5754.6 -2062.468)" fill="none" stroke="#fff" stroke-miterlimit="10" stroke-width="0.896"/>
        <path id="Path_2207" data-name="Path 2207" d="M5750.663,2064.806a2.339,2.339,0,1,0,2.339-2.338A2.339,2.339,0,0,0,5750.663,2064.806Z" transform="translate(-5750.663 -2062.468)" fill="none" stroke="#fff" stroke-miterlimit="10" stroke-width="0.896"/>
      </g>
    </g>
    <g id="Group_2089" data-name="Group 2089" transform="translate(5930.778 1853.918)">
      <path id="Path_2208" data-name="Path 2208" d="M6196.58,1909.951H6085.022a11.14,11.14,0,0,1-11.14-11.14h0a11.14,11.14,0,0,1,11.14-11.14H6196.58a11.14,11.14,0,0,1,11.14,11.14h0A11.14,11.14,0,0,1,6196.58,1909.951Z" transform="translate(-6073.882 -1887.671)" fill="#fff" stroke="#495ad6" stroke-miterlimit="10" stroke-width="0.896"/>
      <g id="Group_2088" data-name="Group 2088" transform="translate(109.215 4.448)">
        <path id="Path_2209" data-name="Path 2209" d="M6231.458,1899.53a5.924,5.924,0,1,1-5.924-5.924A5.924,5.924,0,0,1,6231.458,1899.53Z" transform="translate(-6219.61 -1893.606)" fill="none" stroke="#495ad6" stroke-miterlimit="10" stroke-width="1.672"/>
        <line id="Line_76" data-name="Line 76" x2="3.271" y2="3.271" transform="translate(10.113 10.113)" fill="none" stroke="#495ad6" stroke-linecap="round" stroke-miterlimit="10" stroke-width="1.672"/>
      </g>
    </g>
    <g id="Group_2112" data-name="Group 2112" transform="translate(5601.074 1752.958)">
      <g id="Group_2090" data-name="Group 2090" transform="translate(238.101 380.377)">
        <rect id="Rectangle_177" data-name="Rectangle 177" width="45.846" height="45.846" rx="7.708" transform="translate(8.355)" fill="#193091"/>
        <rect id="Rectangle_178" data-name="Rectangle 178" width="45.846" height="45.846" rx="7.708" fill="#495ad6"/>
        <path id="Path_2210" data-name="Path 2210" d="M5974.406,2279.49l13.161,7.6a1.219,1.219,0,0,1,0,2.11l-13.161,7.6a1.218,1.218,0,0,1-1.828-1.055v-15.2A1.218,1.218,0,0,1,5974.406,2279.49Z" transform="translate(-5956.896 -2265.219)" fill="#fff"/>
      </g>
      <g id="Group_2091" data-name="Group 2091" transform="translate(514.487 366.291)">
        <rect id="Rectangle_179" data-name="Rectangle 179" width="59.932" height="59.932" rx="10.076" transform="translate(10.922)" fill="#193091"/>
        <rect id="Rectangle_180" data-name="Rectangle 180" width="59.932" height="59.932" rx="10.076" fill="#495ad6"/>
        <path id="Path_2211" data-name="Path 2211" d="M6365.219,2258.922a7.2,7.2,0,1,1-7.2-7.2A7.2,7.2,0,0,1,6365.219,2258.922Z" transform="translate(-6328.052 -2244.217)" fill="#fff"/>
        <path id="Path_2212" data-name="Path 2212" d="M6370.418,2288.842v10.629a1.739,1.739,0,0,1-1.739,1.74h-26.543a1.739,1.739,0,0,1-1.739-1.74v-10.629a15.01,15.01,0,0,1,15.011-15.01h0A15.01,15.01,0,0,1,6370.418,2288.842Z" transform="translate(-6325.441 -2249.757)" fill="#fff"/>
      </g>
      <g id="Group_2092" data-name="Group 2092" transform="translate(385.09 132.532)">
        <path id="Path_2213" data-name="Path 2213" d="M6173.119,1933.34h-23.563a1.77,1.77,0,0,1-1.77-1.77h0a1.77,1.77,0,0,1,1.77-1.771h23.563a1.771,1.771,0,0,1,1.771,1.771h0A1.771,1.771,0,0,1,6173.119,1933.34Z" transform="translate(-6147.785 -1929.799)" fill="#f0f4ff"/>
        <path id="Path_2214" data-name="Path 2214" d="M6206.75,1933.34H6189.7a1.771,1.771,0,0,1-1.771-1.77h0a1.771,1.771,0,0,1,1.771-1.771h17.052a1.771,1.771,0,0,1,1.771,1.771h0A1.771,1.771,0,0,1,6206.75,1933.34Z" transform="translate(-6157.843 -1929.799)" fill="#f0f4ff"/>
        <path id="Path_2215" data-name="Path 2215" d="M6159.566,1943.729h-10.011a1.77,1.77,0,0,1-1.77-1.771h0a1.77,1.77,0,0,1,1.77-1.77h10.011a1.771,1.771,0,0,1,1.771,1.77h0A1.771,1.771,0,0,1,6159.566,1943.729Z" transform="translate(-6147.785 -1932.402)" fill="#f0f4ff"/>
        <path id="Path_2216" data-name="Path 2216" d="M6202.026,1943.729h-31.183a1.771,1.771,0,0,1-1.771-1.771h0a1.771,1.771,0,0,1,1.771-1.77h31.183a1.771,1.771,0,0,1,1.771,1.77h0A1.771,1.771,0,0,1,6202.026,1943.729Z" transform="translate(-6153.119 -1932.402)" fill="#f0f4ff"/>
        <path id="Path_2217" data-name="Path 2217" d="M6180.616,1954.118h-31.061a1.77,1.77,0,0,1-1.77-1.771h0a1.77,1.77,0,0,1,1.77-1.77h31.061a1.771,1.771,0,0,1,1.771,1.77h0A1.771,1.771,0,0,1,6180.616,1954.118Z" transform="translate(-6147.785 -1935.005)" fill="#f0f4ff"/>
        <path id="Path_2218" data-name="Path 2218" d="M6209.1,1954.118h-10.012a1.771,1.771,0,0,1-1.77-1.771h0a1.77,1.77,0,0,1,1.77-1.77H6209.1a1.771,1.771,0,0,1,1.771,1.77h0A1.771,1.771,0,0,1,6209.1,1954.118Z" transform="translate(-6160.197 -1935.005)" fill="#f0f4ff"/>
      </g>
      <g id="Group_2096" data-name="Group 2096" transform="translate(25.373 266.583)">
        <rect id="Rectangle_181" data-name="Rectangle 181" width="91.079" height="50.344" rx="3.823" fill="#193091"/>
        <line id="Line_77" data-name="Line 77" x2="83.337" transform="translate(3.871 6.801)" fill="none" stroke="#fff" stroke-linecap="round" stroke-miterlimit="10" stroke-width="0.896"/>
        <circle id="Ellipse_100" data-name="Ellipse 100" cx="1.009" cy="1.009" r="1.009" transform="translate(83.999 2.332)" fill="#fff"/>
        <circle id="Ellipse_101" data-name="Ellipse 101" cx="1.009" cy="1.009" r="1.009" transform="translate(78.736 2.332)" fill="#fff"/>
        <circle id="Ellipse_102" data-name="Ellipse 102" cx="1.009" cy="1.009" r="1.009" transform="translate(73.474 2.332)" fill="#fff"/>
        <g id="Group_2095" data-name="Group 2095" transform="translate(3.871 10.79)">
          <g id="Group_2093" data-name="Group 2093">
            <path id="Path_2219" data-name="Path 2219" d="M5688.5,2125.851h-14.141a1.394,1.394,0,0,1-1.394-1.394h0a1.394,1.394,0,0,1,1.394-1.394H5688.5a1.394,1.394,0,0,1,1.394,1.394h0A1.394,1.394,0,0,1,5688.5,2125.851Z" transform="translate(-5672.97 -2123.063)" fill="#6589d1"/>
            <path id="Path_2220" data-name="Path 2220" d="M5688.5,2134.444h-14.141a1.394,1.394,0,0,1-1.394-1.394h0a1.394,1.394,0,0,1,1.394-1.393H5688.5a1.393,1.393,0,0,1,1.394,1.393h0A1.394,1.394,0,0,1,5688.5,2134.444Z" transform="translate(-5672.97 -2125.216)" fill="#6589d1"/>
            <path id="Path_2221" data-name="Path 2221" d="M5688.5,2143.037h-14.141a1.394,1.394,0,0,1-1.394-1.393h0a1.394,1.394,0,0,1,1.394-1.394H5688.5a1.393,1.393,0,0,1,1.394,1.394h0A1.393,1.393,0,0,1,5688.5,2143.037Z" transform="translate(-5672.97 -2127.37)" fill="#6589d1"/>
            <path id="Path_2222" data-name="Path 2222" d="M5688.5,2151.631h-14.141a1.394,1.394,0,0,1-1.394-1.394h0a1.394,1.394,0,0,1,1.394-1.394H5688.5a1.394,1.394,0,0,1,1.394,1.394h0A1.394,1.394,0,0,1,5688.5,2151.631Z" transform="translate(-5672.97 -2129.522)" fill="#6589d1"/>
            <path id="Path_2223" data-name="Path 2223" d="M5688.5,2160.224h-14.141a1.394,1.394,0,0,1-1.394-1.394h0a1.394,1.394,0,0,1,1.394-1.394H5688.5a1.394,1.394,0,0,1,1.394,1.394h0A1.394,1.394,0,0,1,5688.5,2160.224Z" transform="translate(-5672.97 -2131.676)" fill="#6589d1"/>
            <path id="Path_2224" data-name="Path 2224" d="M5688.5,2168.817h-14.141a1.4,1.4,0,0,1-1.394-1.394h0a1.394,1.394,0,0,1,1.394-1.393H5688.5a1.393,1.393,0,0,1,1.394,1.393h0A1.394,1.394,0,0,1,5688.5,2168.817Z" transform="translate(-5672.97 -2133.829)" fill="#6589d1"/>
          </g>
          <g id="Group_2094" data-name="Group 2094" transform="translate(19.609)">
            <path id="Path_2225" data-name="Path 2225" d="M5761.47,2125.851h-60.94a1.394,1.394,0,0,1-1.394-1.394h0a1.394,1.394,0,0,1,1.394-1.394h60.94a1.394,1.394,0,0,1,1.393,1.394h0A1.393,1.393,0,0,1,5761.47,2125.851Z" transform="translate(-5699.135 -2123.063)" fill="#3b5fb7"/>
            <path id="Path_2226" data-name="Path 2226" d="M5761.47,2134.444h-60.94a1.394,1.394,0,0,1-1.394-1.394h0a1.393,1.393,0,0,1,1.394-1.393h60.94a1.393,1.393,0,0,1,1.393,1.393h0A1.394,1.394,0,0,1,5761.47,2134.444Z" transform="translate(-5699.135 -2125.216)" fill="#3b5fb7"/>
            <path id="Path_2227" data-name="Path 2227" d="M5761.47,2143.037h-60.94a1.393,1.393,0,0,1-1.394-1.393h0a1.394,1.394,0,0,1,1.394-1.394h60.94a1.393,1.393,0,0,1,1.393,1.394h0A1.393,1.393,0,0,1,5761.47,2143.037Z" transform="translate(-5699.135 -2127.37)" fill="#3b5fb7"/>
            <path id="Path_2228" data-name="Path 2228" d="M5761.47,2151.631h-60.94a1.394,1.394,0,0,1-1.394-1.394h0a1.394,1.394,0,0,1,1.394-1.394h60.94a1.394,1.394,0,0,1,1.393,1.394h0A1.394,1.394,0,0,1,5761.47,2151.631Z" transform="translate(-5699.135 -2129.522)" fill="#3b5fb7"/>
            <path id="Path_2229" data-name="Path 2229" d="M5761.47,2160.224h-60.94a1.394,1.394,0,0,1-1.394-1.394h0a1.394,1.394,0,0,1,1.394-1.394h60.94a1.393,1.393,0,0,1,1.393,1.394h0A1.394,1.394,0,0,1,5761.47,2160.224Z" transform="translate(-5699.135 -2131.676)" fill="#3b5fb7"/>
            <path id="Path_2230" data-name="Path 2230" d="M5761.47,2168.817h-60.94a1.394,1.394,0,0,1-1.394-1.394h0a1.393,1.393,0,0,1,1.394-1.393h60.94a1.393,1.393,0,0,1,1.393,1.393h0A1.394,1.394,0,0,1,5761.47,2168.817Z" transform="translate(-5699.135 -2133.829)" fill="#3b5fb7"/>
          </g>
        </g>
      </g>
      <g id="Group_2100" data-name="Group 2100" transform="translate(457.388 0)">
        <circle id="Ellipse_103" data-name="Ellipse 103" cx="37.493" cy="37.493" r="37.493" transform="matrix(0.233, -0.972, 0.972, 0.233, 0, 72.923)" fill="none" stroke="#dee3fc" stroke-miterlimit="10" stroke-width="0.79"/>
        <circle id="Ellipse_104" data-name="Ellipse 104" cx="32.596" cy="32.596" r="32.596" transform="translate(2.199 28.578) rotate(-23.868)" fill="#3945ba"/>
        <path id="Path_2231" data-name="Path 2231" d="M6306.537,1812.274a2.967,2.967,0,1,1-2.967-2.967A2.967,2.967,0,0,1,6306.537,1812.274Z" transform="translate(-6258.373 -1767.077)" fill="#fff"/>
        <path id="Path_2232" data-name="Path 2232" d="M6300.464,1806.125h0a.928.928,0,0,1-1.262-.361l-9.587-17.292a.928.928,0,0,1,.362-1.261h0a.927.927,0,0,1,1.261.361l9.587,17.292A.928.928,0,0,1,6300.464,1806.125Z" transform="translate(-6255.59 -1761.511)" fill="#fff"/>
        <path id="Path_2233" data-name="Path 2233" d="M6305.1,1813.8h0a.929.929,0,0,1,1.313,0l8.293,8.294a.927.927,0,0,1,0,1.312h0a.928.928,0,0,1-1.312,0l-8.293-8.294A.928.928,0,0,1,6305.1,1813.8Z" transform="translate(-6259.431 -1768.136)" fill="#fff"/>
        <g id="Group_2097" data-name="Group 2097" transform="translate(15.358 15.358)">
          <line id="Line_78" data-name="Line 78" y1="3.749" transform="translate(30.039)" fill="none" stroke="#fff" stroke-linecap="round" stroke-miterlimit="10" stroke-width="2"/>
          <line id="Line_79" data-name="Line 79" x2="3.749" transform="translate(55.93 30.039)" fill="none" stroke="#fff" stroke-linecap="round" stroke-miterlimit="10" stroke-width="2"/>
          <line id="Line_80" data-name="Line 80" y2="3.749" transform="translate(29.64 55.93)" fill="none" stroke="#fff" stroke-linecap="round" stroke-miterlimit="10" stroke-width="2"/>
          <line id="Line_81" data-name="Line 81" x1="3.749" transform="translate(0 29.64)" fill="none" stroke="#fff" stroke-linecap="round" stroke-miterlimit="10" stroke-width="2"/>
        </g>
        <g id="Group_2098" data-name="Group 2098" transform="translate(19.256 19.256)" opacity="0.5">
          <line id="Line_82" data-name="Line 82" x1="1.874" y1="3.247" transform="translate(11.194)" fill="none" stroke="#dee3fc" stroke-linecap="round" stroke-miterlimit="10" stroke-width="1"/>
          <line id="Line_83" data-name="Line 83" y1="1.874" x2="3.247" transform="translate(48.637 11.195)" fill="none" stroke="#dee3fc" stroke-linecap="round" stroke-miterlimit="10" stroke-width="1"/>
          <line id="Line_84" data-name="Line 84" x2="1.874" y2="3.247" transform="translate(38.814 48.637)" fill="none" stroke="#dee3fc" stroke-linecap="round" stroke-miterlimit="10" stroke-width="1"/>
          <line id="Line_85" data-name="Line 85" x1="3.247" y2="1.874" transform="translate(0 38.814)" fill="none" stroke="#dee3fc" stroke-linecap="round" stroke-miterlimit="10" stroke-width="1"/>
        </g>
        <g id="Group_2099" data-name="Group 2099" transform="translate(19.455 19.455)" opacity="0.5">
          <line id="Line_86" data-name="Line 86" x1="3.247" y1="1.874" transform="translate(0 10.649)" fill="none" stroke="#dee3fc" stroke-linecap="round" stroke-miterlimit="10" stroke-width="1"/>
          <line id="Line_87" data-name="Line 87" y1="3.247" x2="1.874" transform="translate(38.96)" fill="none" stroke="#dee3fc" stroke-linecap="round" stroke-miterlimit="10" stroke-width="1"/>
          <line id="Line_88" data-name="Line 88" x2="3.247" y2="1.874" transform="translate(48.237 38.96)" fill="none" stroke="#dee3fc" stroke-linecap="round" stroke-miterlimit="10" stroke-width="1"/>
          <line id="Line_89" data-name="Line 89" x1="1.874" y2="3.247" transform="translate(10.65 48.237)" fill="none" stroke="#dee3fc" stroke-linecap="round" stroke-miterlimit="10" stroke-width="1"/>
        </g>
      </g>
      <g id="Group_2103" data-name="Group 2103" transform="translate(0 165.157)">
        <rect id="Rectangle_182" data-name="Rectangle 182" width="63.248" height="63.248" rx="9.569" transform="translate(4.902 5.479)" fill="#193091"/>
        <rect id="Rectangle_183" data-name="Rectangle 183" width="63.248" height="63.248" rx="7.667" fill="#7e89fd" stroke="#dee3fc" stroke-miterlimit="10" stroke-width="1"/>
        <g id="Group_2102" data-name="Group 2102" transform="translate(17.58 9.974)">
          <g id="Group_2101" data-name="Group 2101">
            <path id="Path_2234" data-name="Path 2234" d="M5682.4,2001.047h-.331v-3.623a10.783,10.783,0,1,0-21.566,0v3.623h-.073a3.026,3.026,0,0,0-3.026,3.026v13.653a3.026,3.026,0,0,0,3.026,3.026h21.97a3.026,3.026,0,0,0,3.026-3.026v-13.653A3.026,3.026,0,0,0,5682.4,2001.047Zm-19.167-3.623a8.053,8.053,0,0,1,16.106,0v3.623h-16.106Z" transform="translate(-5657.407 -1986.639)" fill="#dee3fc"/>
            <path id="Path_2235" data-name="Path 2235" d="M5678.488,2014.052a3.519,3.519,0,1,0-5.292,3.034.632.632,0,0,1,.32.707l-.613,2.26a2.113,2.113,0,1,0,4.08,0l-.605-2.236a.634.634,0,0,1,.328-.712A3.505,3.505,0,0,0,5678.488,2014.052Z" transform="translate(-5660.926 -1992.626)" fill="#7e89fd"/>
          </g>
          <path id="Path_2236" data-name="Path 2236" d="M5684.132,2037.679H5658.7a1.3,1.3,0,0,1-1.3-1.3h0a1.3,1.3,0,0,1,1.3-1.3h25.428a1.3,1.3,0,0,1,1.3,1.3h0A1.3,1.3,0,0,1,5684.132,2037.679Z" transform="translate(-5657.407 -1998.777)" fill="#dee3fc"/>
          <path id="Path_2237" data-name="Path 2237" d="M5684.132,2043.547H5658.7a1.3,1.3,0,0,1-1.3-1.3h0a1.3,1.3,0,0,1,1.3-1.3h25.428a1.3,1.3,0,0,1,1.3,1.3h0A1.3,1.3,0,0,1,5684.132,2043.547Z" transform="translate(-5657.407 -2000.247)" fill="#dee3fc"/>
        </g>
      </g>
      <g id="Group_2110" data-name="Group 2110" transform="translate(521.685 267.768)">
        <g id="Group_2104" data-name="Group 2104">
          <path id="Rectangle_184" data-name="Rectangle 184" d="M5.634,0H31.6a5.634,5.634,0,0,1,5.634,5.634V31.6A5.633,5.633,0,0,1,31.6,37.235H5.634A5.634,5.634,0,0,1,0,31.6V5.634A5.634,5.634,0,0,1,5.634,0Z" transform="translate(2.886 3.225)" fill="#193091"/>
          <rect id="Rectangle_185" data-name="Rectangle 185" width="37.235" height="37.235" rx="4.513" fill="#7e89fd" stroke="#dee3fc" stroke-miterlimit="10" stroke-width="1"/>
        </g>
        <g id="Group_2109" data-name="Group 2109" transform="translate(7.497 7.496)">
          <g id="Group_2105" data-name="Group 2105" transform="translate(2.444)">
            <path id="Path_2238" data-name="Path 2238" d="M6344.464,2142.49a1.153,1.153,0,0,1-1.111-1.466l5.63-19.934a1.153,1.153,0,0,1,2.219.626l-5.63,19.933A1.153,1.153,0,0,1,6344.464,2142.49Z" transform="translate(-6343.31 -2120.25)" fill="#fff"/>
          </g>
          <g id="Group_2106" data-name="Group 2106" transform="translate(11.86)">
            <path id="Path_2239" data-name="Path 2239" d="M6357.028,2142.49a1.153,1.153,0,0,1-1.11-1.466l5.632-19.934a1.153,1.153,0,0,1,2.219.626l-5.633,19.933A1.151,1.151,0,0,1,6357.028,2142.49Z" transform="translate(-6355.874 -2120.25)" fill="#fff"/>
          </g>
          <g id="Group_2107" data-name="Group 2107" transform="translate(0 5.45)">
            <path id="Path_2240" data-name="Path 2240" d="M6361.136,2129.83H6341.2a1.154,1.154,0,0,1,0-2.308h19.934a1.154,1.154,0,0,1,0,2.308Z" transform="translate(-6340.049 -2127.522)" fill="#fff"/>
          </g>
          <g id="Group_2108" data-name="Group 2108" transform="translate(0 14.557)">
            <path id="Path_2241" data-name="Path 2241" d="M6361.136,2141.98H6341.2a1.153,1.153,0,0,1,0-2.307h19.934a1.153,1.153,0,0,1,0,2.307Z" transform="translate(-6340.049 -2139.673)" fill="#fff"/>
          </g>
        </g>
      </g>
      <g id="Group_2111" data-name="Group 2111" transform="translate(89.809 186.79)">
        <path id="Path_2242" data-name="Path 2242" d="M5769.781,2005.358h-14.416a1.58,1.58,0,0,1-1.581-1.58h0a1.58,1.58,0,0,1,1.581-1.581h14.416a1.58,1.58,0,0,1,1.581,1.581h0A1.58,1.58,0,0,1,5769.781,2005.358Z" transform="translate(-5753.784 -2002.197)" fill="#f0f4ff"/>
        <path id="Path_2243" data-name="Path 2243" d="M5784.3,2014.721h-28.938a1.58,1.58,0,0,1-1.581-1.581h0a1.58,1.58,0,0,1,1.581-1.581H5784.3a1.58,1.58,0,0,1,1.581,1.581h0A1.58,1.58,0,0,1,5784.3,2014.721Z" transform="translate(-5753.784 -2004.543)" fill="#f0f4ff"/>
        <path id="Path_2244" data-name="Path 2244" d="M5758.783,2024.084h-3.418a1.58,1.58,0,0,1-1.581-1.581h0a1.58,1.58,0,0,1,1.581-1.581h3.418a1.581,1.581,0,0,1,1.581,1.581h0A1.58,1.58,0,0,1,5758.783,2024.084Z" transform="translate(-5753.784 -2006.889)" fill="#f0f4ff"/>
        <path id="Path_2245" data-name="Path 2245" d="M5787.241,2024.084h-20.149a1.58,1.58,0,0,1-1.581-1.581h0a1.581,1.581,0,0,1,1.581-1.581h20.149a1.581,1.581,0,0,1,1.581,1.581h0A1.58,1.58,0,0,1,5787.241,2024.084Z" transform="translate(-5756.722 -2006.889)" fill="#f0f4ff"/>
        <path id="Path_2246" data-name="Path 2246" d="M5791.056,2005.358h-8.737a1.581,1.581,0,0,1-1.582-1.58h0a1.581,1.581,0,0,1,1.582-1.581h8.737a1.581,1.581,0,0,1,1.581,1.581h0A1.58,1.58,0,0,1,5791.056,2005.358Z" transform="translate(-5760.537 -2002.197)" fill="#f0f4ff"/>
      </g>
      <path id="Path_2247" data-name="Path 2247" d="M5673.888,2291.382a10.016,10.016,0,0,0-5.141,1.412,10.78,10.78,0,0,0-21.426,2.395,8.232,8.232,0,1,0-1.525,16.322h28.092a10.064,10.064,0,1,0,0-20.128Z" transform="translate(-5634.855 -1885.821)" fill="#fff"/>
    </g>
    <line id="Line_90" data-name="Line 90" x2="750" transform="translate(5502.738 2178.645)" fill="none" stroke="#fff" stroke-linecap="round" stroke-miterlimit="10" stroke-width="1.114"/>
  </g>
</svg>
