<svg id="Group_3294" data-name="Group 3294" xmlns="http://www.w3.org/2000/svg" width="755.773" height="349.445" viewBox="0 0 755.773 349.445">
  <path id="Path_2806" data-name="Path 2806" d="M9854.954,2212.577c-13.957,0-42.559.989-42.861,1.44h-72.11l-21.105-.045H9529.9l-55.188-.045H9329.218l-60.77-.045H9158.556l-.547-1.085-.06-.091a.382.382,0,0,1-.062-.135c-.242-.361-91.448-143.958,59.138-214.747,58.919-27.7,27.87-83,115.075-116.506,112.436-43.2,143.08,19.567,276.033,4.393,115.469-13.179,168.082,28.794,159.979,91.217-3.808,29.322,22.327,51.8,48.105,55.828,71.122,11.122,68.573,76.265,62.76,124.127C9875.394,2186.392,9855.449,2212.577,9854.954,2212.577Z" transform="translate(-9125.854 -1865.879)" fill="#e8f2fa"/>
  <path id="Path_2807" data-name="Path 2807" d="M9453.764,2122.7a4.843,4.843,0,0,0-2.283-1.455c-1.371-.344-4.33-1.789-3.986-1.032s2,1.653,1.721,2.2c0,0-4.7-1.308-4.84-.482s1.656,3.981,3.67,4.659c.666.224,5.3-.667,5.3-.667Z" transform="translate(-9154.291 -1888.888)" fill="#ff9c60"/>
  <path id="Path_2808" data-name="Path 2808" d="M9620.329,2138.034a5.505,5.505,0,0,0-4.308-1.693c-1.259.163-3.078-1.815-2.986-.53a11.807,11.807,0,0,0,2.534,4.769c1.216,1,3.891.671,3.891.671l3.281,2.023Z" transform="translate(-9169.563 -1890.281)" fill="#ffae73"/>
  <g id="Group_3261" data-name="Group 3261" transform="translate(44.334 164.83)">
    <path id="Path_2809" data-name="Path 2809" d="M9188.889,2078.173s-13.586,14.085-14.227,19.387,6.507,13.578,6.507,13.578Z" transform="translate(-9174.201 -2049.931)" fill="#fc7600"/>
    <path id="Path_2810" data-name="Path 2810" d="M9197.059,2238.448s.48,7.472,1.926,7.576c.192.014,7.333,0,7.333,0l9.113-.073a2.954,2.954,0,0,0-2.729-2.655c-2.666-.459-7.129-2.322-8.751-5.84C9202.245,2233.755,9197.059,2238.448,9197.059,2238.448Z" transform="translate(-9176.232 -2064.225)" fill="#0d57aa"/>
    <path id="Path_2811" data-name="Path 2811" d="M9174.736,2238.5s.479,7.472,1.926,7.576c.192.014,7.332,0,7.332,0l9.115-.073a2.956,2.956,0,0,0-2.729-2.655c-2.666-.458-7.13-2.321-8.75-5.839C9179.923,2233.8,9174.736,2238.5,9174.736,2238.5Z" transform="translate(-9174.212 -2064.229)" fill="#0d57aa"/>
    <path id="Path_2812" data-name="Path 2812" d="M9204.905,2149.227s-2.351,15.251-11.185,42.336-10.021,38.807-10.021,38.807l-9.54-.246s-.146-29.579,3.923-43.2.777-49.068.777-49.068Z" transform="translate(-9174.159 -2055.335)" fill="#0b3563"/>
    <path id="Path_2813" data-name="Path 2813" d="M9210.3,2138.7a370.019,370.019,0,0,1-3.526,51.194c-3.914,28.219-2.54,40.191-2.54,40.191l-9.521.337s-5.751-28.208-4.151-42.331-7.9-48.435-7.9-48.435Z" transform="translate(-9174.93 -2055.412)" fill="#0d458e"/>
    <path id="Path_2814" data-name="Path 2814" d="M9192.652,2078.5l5.08,3.315,7.328-1.382c-.1-.592-.592-3.044-1.037-5.264-.027-.131-.055-.263-.079-.39-.382-1.89-.712-3.513-.712-3.513l-6.854-3.006-2.555-1.121c.006.04.2,2.1.229,2.4A17.45,17.45,0,0,1,9192.652,2078.5Z" transform="translate(-9175.834 -2048.932)" fill="#ffae73"/>
    <path id="Path_2815" data-name="Path 2815" d="M9203.1,2077.526c-.141-.059-8.833-2.6-9.776-2.29s-1.5,2.141-1.5,2.141l14.215,3.181A7.059,7.059,0,0,0,9203.1,2077.526Z" transform="translate(-9175.759 -2049.663)" fill="#fc7600"/>
    <path id="Path_2816" data-name="Path 2816" d="M9178.605,2136.067c1.487,6.714,25.992,7.457,32.3,1.346.716-.7.744-3.93.464-8.289-.549-8.516-2.278-21.325-2.358-27.87a51.712,51.712,0,0,0-1.066-9.327,75.735,75.735,0,0,0-3.132-11.161s-11.977-3.844-14.215-3.18C9179.813,2080.778,9177.119,2129.353,9178.605,2136.067Z" transform="translate(-9174.527 -2049.871)" fill="#ff912b"/>
    <path id="Path_2817" data-name="Path 2817" d="M9213.471,2130.435c-.549-8.516-2.278-21.325-2.358-27.87a51.717,51.717,0,0,0-1.066-9.327l-7.2-1.255S9195.867,2120.748,9213.471,2130.435Z" transform="translate(-9176.633 -2051.182)" fill="#fc7600"/>
    <path id="Path_2818" data-name="Path 2818" d="M9209.979,2121.107a1.7,1.7,0,0,0,.545,1.96,3.287,3.287,0,0,1,1.471,2.993c-.236.933-2.492,2.459-3.277,2.216s-2.381-1.468-2.211-1.961-1.082-4.313.826-5.791S9209.979,2121.107,9209.979,2121.107Z" transform="translate(-9177.064 -2053.718)" fill="#ffae73"/>
    <path id="Path_2819" data-name="Path 2819" d="M9201.326,2079.208s7.025,1.3,12.637,9.532,9.309,14.354,8.285,17.328-10.4,13.3-12.016,13.3-4.236-1.17-4.391-3.819c0,0,6.188-10.3,4.883-11.783-.559-.633-8.2-6.761-9.338-3.814C9199.5,2104.833,9201.326,2079.208,9201.326,2079.208Z" transform="translate(-9176.547 -2050.025)" fill="#ff912b"/>
    <path id="Path_2820" data-name="Path 2820" d="M9194.738,2069.738c1.509,2.544,7.116,4.735,9.456,5.54-.027-.131-.055-.263-.079-.39-.382-1.89-.712-3.513-.712-3.513l-6.854-3.006C9195.036,2068.35,9194.115,2068.691,9194.738,2069.738Z" transform="translate(-9176.005 -2049.043)" fill="#ffa05e"/>
    <path id="Path_2821" data-name="Path 2821" d="M9205.589,2069.4s-11.022,3.465-13.074-3.432-4.856-11.1,2.095-13.6,9.107-.281,10.352,1.855S9208.4,2068.324,9205.589,2069.4Z" transform="translate(-9175.609 -2047.495)" fill="#ffae73"/>
    <path id="Path_2822" data-name="Path 2822" d="M9204.052,2053.188s-.686,8.032-2.348,7.688-3.169-.6-2.92,1.82,2.558,5.211-2.561,5.65-12.5-12.745-11.1-15.248C9189.161,2045.878,9209.9,2044.377,9204.052,2053.188Z" transform="translate(-9175.136 -2047.12)" fill="#0b3563"/>
  </g>
  <g id="Group_3263" data-name="Group 3263" transform="translate(642.926 169.329)">
    <path id="Path_2823" data-name="Path 2823" d="M9838.979,2108.766s-.939-1.552-1.515-2.409-1.721-1.928-2.014-1.653.88,1.411.828,1.79-2.019-.894-2.23-1.18c-.425-.575-1.551-1.194-1.687-.472a9.478,9.478,0,0,0,1.076,3.649,7.185,7.185,0,0,0,2.842,2c.875.309,2.378,1.032,2.378,1.032Z" transform="translate(-9832.346 -2056.816)" fill="#ffae73"/>
    <path id="Path_2824" data-name="Path 2824" d="M9880.809,2053.053a7.639,7.639,0,0,0-6.04-.646c-10.262-1.205-13.256,10.761-13.115,14.88s.608,8.54-3.975,13.888c-13.236,15.452,14.485,16.134,14.485,16.134.234-12.346,15.033-7.842,14.386-6.59C9905.52,2095.271,9888.435,2057.009,9880.809,2053.053Z" transform="translate(-9834.315 -2052.067)" fill="#0b3563"/>
    <path id="Path_2825" data-name="Path 2825" d="M9865.933,2108.535a27.07,27.07,0,0,1-2.759,4.174c-2.145,2.686-5.45,5.789-9.6,6.4a10.306,10.306,0,0,1-5.7-.926l-.007,0c-5.042-2.238-8.832-7.385-8.832-7.385a4.145,4.145,0,0,1,.565-4.067s10.181,2.29,11.15,1.805,6.624-16.778,7.971-18.826,5.937-3.11,5.937-3.11Z" transform="translate(-9832.926 -2055.194)" fill="#ff912b"/>
    <path id="Path_2826" data-name="Path 2826" d="M9864.083,2114.771c-2.145,2.686-5.45,5.789-9.6,6.4a10.306,10.306,0,0,1-5.7-.926c.2.026,5.232.648,7.239-2.943,2.048-3.663,4.261-9.48,7.3-7.541C9864.63,2110.6,9864.571,2112.678,9864.083,2114.771Z" transform="translate(-9833.834 -2057.256)" fill="#fc7600"/>
    <path id="Path_2827" data-name="Path 2827" d="M9909.282,2231.416s3.106,2.835,2.5,4.848-3.41,3.358-3.789,5.82-1.895,3.8-3.258,3.8h-6.5s-1-1.731,1.421-2.255,3.339-3.415,3.187-6.1a47.34,47.34,0,0,1,.228-6.266l5.152-1.194Z" transform="translate(-9838.294 -2068.185)" fill="#0d57aa"/>
    <path id="Path_2828" data-name="Path 2828" d="M9879.731,2232.873s1.117,12.009-.247,12.681l-17.453-.036s0-2.015,2.8-2.462,7.728-2.089,8.561-5.744S9879.731,2232.873,9879.731,2232.873Z" transform="translate(-9835.034 -2068.438)" fill="#0d57aa"/>
    <path id="Path_2829" data-name="Path 2829" d="M9892.244,2132.351c-3.592-8.055-5.789-10.367-5.37-12.867.313-1.861-.95-34.692-.95-34.692-.426-.131-1.28-.25-1.747-.354a4.376,4.376,0,0,1-3.2-2.783,22.319,22.319,0,0,1-1.087-7.407l-.46.091-7.735,1.531s.175,2.435.181,4.728v.057a4.448,4.448,0,0,1-3.21,4.3c-.978.282-1.827.523-1.827.523a70.974,70.974,0,0,0-3.385,16.441c-.542,8.331,5.166,11.95-.043,28.6C9858.095,2147.525,9894.229,2136.8,9892.244,2132.351Z" transform="translate(-9835.111 -2054.075)" fill="#ffae73"/>
    <path id="Path_2830" data-name="Path 2830" d="M9872.573,2075.879s.175,2.435.181,4.728c4.329-.122,6.617-4.071,7.555-6.259Z" transform="translate(-9835.989 -2054.084)" fill="#f48f4e"/>
    <path id="Path_2831" data-name="Path 2831" d="M9870.644,2076.7s10.242.169,10.249-6.21,1.334-10.655-5.205-11.033-7.812,2.055-8.332,4.185S9867.979,2076.491,9870.644,2076.7Z" transform="translate(-9835.506 -2052.733)" fill="#ffae73"/>
    <path id="Path_2832" data-name="Path 2832" d="M9871.4,2059.159s2.8,7.485,7.106,8.592,6.171-.046,6.171-.046a12.189,12.189,0,0,1-3.986-7.2S9873.515,2055.6,9871.4,2059.159Z" transform="translate(-9835.883 -2052.592)" fill="#0b3563"/>
    <path id="Path_2833" data-name="Path 2833" d="M9871.647,2059.835a6.361,6.361,0,0,0-2.937,2.294,10.331,10.331,0,0,0-1.384,5.857s-2.112-5.087.263-7.965C9870.106,2056.969,9871.647,2059.835,9871.647,2059.835Z" transform="translate(-9835.436 -2052.66)" fill="#0b3563"/>
    <path id="Path_2834" data-name="Path 2834" d="M9873.064,2074.032a2.572,2.572,0,0,1-2.12.863,1.884,1.884,0,0,1-1.578-1.042A6.879,6.879,0,0,1,9873.064,2074.032Z" transform="translate(-9835.698 -2054.024)" fill="#e8f2fa"/>
    <path id="Path_2835" data-name="Path 2835" d="M9893.115,2100.366a69.339,69.339,0,0,1,0,8.067c-.172,2.917-3.122,6.824-3.541,7.79-1.051,2.424-2.235,2.818-2.235,2.818l-9.164,2.246-3.222.789-10.16-3.035s-4.628-12.918-2.77-20.189a55.916,55.916,0,0,1,4.7-12.321s8.291,8.118,19.087-.688Z" transform="translate(-9834.994 -2055.125)" fill="#ff912b"/>
    <path id="Path_2836" data-name="Path 2836" d="M9891.689,2111.7a28.5,28.5,0,0,1-.859,6.6c-1.051,2.424-2.235,2.818-2.235,2.818l-9.164,2.246-3.979-1.17s13.286-2.014,11.814-13.445Z" transform="translate(-9836.25 -2057.199)" fill="#f8caa4"/>
    <path id="Path_2837" data-name="Path 2837" d="M9865.288,2124.5s-5.032,15.662-5.355,20.995,9.619,75.753,10.019,78.21c.378,2.315,3.254,3.792,3.254,3.792a4.35,4.35,0,0,0,3.21.247,7.943,7.943,0,0,0,3.447-1.625s3.918-50.224,1.493-68.165a284.109,284.109,0,0,1-2.452-33.455Z" transform="translate(-9834.844 -2058.626)" fill="#0b3563"/>
    <path id="Path_2838" data-name="Path 2838" d="M9887.306,2123.988s7.677,10.3,8.393,17.26,1.122,31.416,2.646,38.2,7.126,19.848,7.126,41.016a4.227,4.227,0,0,1-2.381,1.86,19.773,19.773,0,0,1-2.092.579,3.289,3.289,0,0,1-3.68-1.747c-3.787-7.624-15.851-32.215-16.468-37.318-.439-3.613-4.246-27.52-12.555-41.55-1.994-3.368,1.225-16.761,1.225-16.761Z" transform="translate(-9835.543 -2058.579)" fill="#0d458e"/>
    <path id="Path_2839" data-name="Path 2839" d="M9872.827,2074.208s-.176.751-2.047.636c0,0-1.57-.1-1.522-.923A5.048,5.048,0,0,1,9872.827,2074.208Z" transform="translate(-9835.688 -2054.028)" fill="#fff"/>
    <path id="Path_2840" data-name="Path 2840" d="M9864.911,2121.843a10.544,10.544,0,0,0,6.032,1.679c4.793.1,16.671-1.221,16.671-1.221a9.829,9.829,0,0,1,.506,3.031s-14.506,3.659-22.912.534A5.312,5.312,0,0,1,9864.911,2121.843Z" transform="translate(-9835.27 -2058.385)" fill="#1e3865"/>
    <g id="Group_3262" data-name="Group 3262" transform="translate(32.337 64.317)">
      <path id="Path_2841" data-name="Path 2841" d="M9870.09,2127.738a2.494,2.494,0,1,1,2.188-2.475A2.347,2.347,0,0,1,9870.09,2127.738Zm0-4.226a1.779,1.779,0,1,0,1.463,1.751A1.628,1.628,0,0,0,9870.09,2123.512Z" transform="translate(-9867.903 -2122.787)" fill="#fff"/>
    </g>
    <rect id="Rectangle_236" data-name="Rectangle 236" width="19.707" height="26.976" transform="matrix(0.754, -0.657, 0.657, 0.754, 35.384, 58.889)" fill="#a8ccff"/>
    <path id="Path_2842" data-name="Path 2842" d="M9885.644,2125.011s-5.778.888-5.762,2.18,1.2,3.63,2.363,3.815c1.482.236,4.431-3.591,4.431-3.591Z" transform="translate(-9836.65 -2058.672)" fill="#ffae73"/>
    <path id="Path_2843" data-name="Path 2843" d="M9885.5,2125.3a7.538,7.538,0,0,0-3.355-.415c-1.42.292-2.733.076-2.41.593s2.244.325,2.549.527.31.076.31.076Z" transform="translate(-9836.633 -2058.654)" fill="#ffae73"/>
    <path id="Path_2844" data-name="Path 2844" d="M9887.89,2085.842s7.271.509,10.058,7.284,8.075,18.15,8.075,20.063-2.954,7.812-18.817,11.2c0,0-1.641-1.726-1.541-3.09,0,0,9.9-8.505,9.875-9.5-.049-1.881-1.623-4.363-10.316-13.059C9882.858,2096.38,9887.89,2085.842,9887.89,2085.842Z" transform="translate(-9837.076 -2055.125)" fill="#ff912b"/>
  </g>
  <g id="Group_3264" data-name="Group 3264" transform="translate(96.632 139.521)">
    <path id="Path_2845" data-name="Path 2845" d="M9365.28,2226.676a64.493,64.493,0,0,1-11.4-1.01,63.211,63.211,0,0,1-10.041-2.666,81.6,81.6,0,0,1-15.232.016,97.432,97.432,0,0,1-41.833-13.41,33.06,33.06,0,0,1-8.745.687,35.532,35.532,0,0,1-20.514-8.152c-6.01-4.784-11.2-11.387-15.429-19.626-7.41-14.444-11.076-32.594-10.326-51.107a114.022,114.022,0,0,1,17.758-57.01c8.489-13.217,17.869-23.48,27.877-30.5a63.749,63.749,0,0,1,36.06-12.053,92.783,92.783,0,0,1,28.832-11.071,68.52,68.52,0,0,1,49.6,8.308c19.758,11.816,35.563,33.806,46.981,65.361q.98,2.707,1.816,5.4c2.619,1.354,5.448,2.878,8.605,4.579l.207.112c9.87,5.318,25.266,9.572,41.185,11.382,13.275,1.508,32.99,2.035,51.532-4.024,17.329-5.662,29.572-15.782,36.39-30.081l1.491.71c-7.021,14.723-19.593,25.134-37.367,30.941-18.826,6.151-38.795,5.622-52.232,4.1-16.117-1.833-31.736-6.157-41.781-11.569l-.207-.111c-2.6-1.4-4.964-2.675-7.159-3.827,4.591,15.84,5.479,31.317,2.635,46.113a81.346,81.346,0,0,1-19.258,39.3,71.286,71.286,0,0,1-9.06,8.448c-.222.489-.449.973-.681,1.45a11.961,11.961,0,0,1,1.692,6.052c-.2,2.959-3.557,5.561-9.989,7.734q-.8.268-1.643.526a47.074,47.074,0,0,1-19,11.653A66.216,66.216,0,0,1,9365.28,2226.676Zm-17.518-4.143a61.861,61.861,0,0,0,6.409,1.507,64.1,64.1,0,0,0,31.361-2.287,45.984,45.984,0,0,0,16.13-9.154c-8.688,2.172-20.4,3.592-33.018,4.078q-.741.318-1.492.623A82.6,82.6,0,0,1,9347.763,2222.533Zm-58.736-13.5a96.352,96.352,0,0,0,39.732,12.341,79.83,79.83,0,0,0,11.513.233,60.845,60.845,0,0,1-11.842-6.7,135.351,135.351,0,0,1-16.229-3.173,61.946,61.946,0,0,1-15.47-6.093A33.508,33.508,0,0,1,9289.026,2209.03Zm43,6.337a59.861,59.861,0,0,0,12.024,5.953,81.134,81.134,0,0,0,19.765-4.5c-6.16.118-12.469.016-18.69-.329C9340.592,2216.237,9336.207,2215.861,9332.024,2215.367Zm-2.943-2.029c5.013.679,10.406,1.183,16.133,1.5,7.706.428,15.542.482,23.053.2a77.01,77.01,0,0,0,12.941-7.143,36.354,36.354,0,0,1-6.472-1.007c-4.955-1.244-9.016-4.2-12.341-9.062a94.288,94.288,0,0,1-15.807-.9c-12.823-1.793-23.323-5.685-31.393-11.616-1.335,2.344-2.665,4.424-3.965,6.268a56.437,56.437,0,0,0,15.338,19.793Q9327.8,2212.393,9329.081,2213.338Zm54.869-5.356a77.641,77.641,0,0,1-11.329,6.86c12.408-.685,23.647-2.292,31.556-4.636a46.69,46.69,0,0,0,4.354-5.183,53.985,53.985,0,0,0,4.29-7.014,59.582,59.582,0,0,1-12.3,6.637A46.158,46.158,0,0,1,9383.95,2207.982Zm-85.625-3.346c6.418,3.6,15.793,6.4,27.438,8.219-.082-.066-.164-.134-.244-.2a58.045,58.045,0,0,1-15.392-19.545,56.909,56.909,0,0,1-4.951,5.81A43.444,43.444,0,0,1,9298.325,2204.636Zm115.731-5.436a53.589,53.589,0,0,1-6.7,9.955c4.829-1.789,7.539-3.849,7.673-5.854A8.956,8.956,0,0,0,9414.057,2199.2Zm-103.394-165.616c-1.806.132-3.5.336-5.122.576a63.243,63.243,0,0,0-27.2,11.084c-9.832,6.9-19.062,17.009-27.436,30.044a112.379,112.379,0,0,0-17.5,56.185c-.74,18.233,2.863,36.092,10.146,50.286,4.118,8.029,9.161,14.45,14.985,19.088a33.92,33.92,0,0,0,19.571,7.795,31.63,31.63,0,0,0,6.605-.336,73.33,73.33,0,0,1-18.983-17.711,66.138,66.138,0,0,1-6.563-10.941,36.454,36.454,0,0,1-13.762-13.076c-4.912-7.868-7.5-17.919-7.485-29.065a72.535,72.535,0,0,1,1.415-14.054c-.511-13.425,5.021-28.967,15.627-43.861,10.169-14.282,23.45-25.739,36.436-31.433q2.177-.955,4.294-1.672a68.5,68.5,0,0,1,6.026-6.088A75.184,75.184,0,0,1,9310.663,2033.584Zm-49.052,147.27a64.791,64.791,0,0,0,5.454,8.76,72.127,72.127,0,0,0,19.994,18.227,31.492,31.492,0,0,0,8.09-3.2,23.881,23.881,0,0,1-4.731-4.069,115.092,115.092,0,0,1-11.689-15.9,57.66,57.66,0,0,1-8.155-1.013A41.656,41.656,0,0,1,9261.611,2180.854Zm102.761,16.9a18.911,18.911,0,0,0,10.767,7.539,35.233,35.233,0,0,0,8.271,1.039,69,69,0,0,0,12.625-12.061,62.931,62.931,0,0,0,5.121-7.355A79.589,79.589,0,0,1,9364.372,2197.751Zm39.339-11.989a63.879,63.879,0,0,1-6.392,9.541,70.016,70.016,0,0,1-11.093,10.947,45.539,45.539,0,0,0,13.7-3.143,58.2,58.2,0,0,0,12.522-6.854,58.245,58.245,0,0,0-6.679-8.358Q9404.777,2186.839,9403.711,2185.763Zm-123.009-1.009a114.074,114.074,0,0,0,10.96,14.734,22.979,22.979,0,0,0,5.077,4.205,40.941,40.941,0,0,0,7.258-5.933,55.946,55.946,0,0,0,5.335-6.354q-.753-1.674-1.409-3.411-.686-1.807-1.261-3.664-.892-.192-1.768-.436a28.485,28.485,0,0,1-4.292-1.58A74.15,74.15,0,0,1,9280.7,2184.754Zm36.688.094c7.684,5.287,17.523,8.786,29.427,10.451a93.122,93.122,0,0,0,14.534.9,55.369,55.369,0,0,1-5.448-13.269q-.292-1.014-.564-2.061-3.292-.454-6.577-1.146a65.089,65.089,0,0,1-8.1-2.241,85.072,85.072,0,0,1-15.464,5.928A50.487,50.487,0,0,1,9317.391,2184.848Zm39.718-3.749q.188.7.383,1.38a51.578,51.578,0,0,0,5.775,13.668,77.805,77.805,0,0,0,38.974-11.842c-2.24-2.181-4.688-4.4-7.3-6.618q-3.6,1.091-7.224,1.892A91.476,91.476,0,0,1,9357.108,2181.1Zm47.744,3.469q1.1,1.108,2.119,2.2a60.962,60.962,0,0,1,6.8,8.511c.187-.14.371-.281.556-.424a80.556,80.556,0,0,0,5.244-16.909q.766-3.818,1.286-7.95a75.069,75.069,0,0,1-16.009,14.575Zm17.957-17.051q-.59,5.648-1.615,10.751a85.154,85.154,0,0,1-4.15,14.381,70.782,70.782,0,0,0,6.457-6.3,79.6,79.6,0,0,0,18.727-37.825,115.085,115.085,0,0,1-15.5,13.26Q9424.9,2164.738,9422.81,2167.518Zm-114.307,17.15q.451,1.384.964,2.741.464,1.225.977,2.418c.99-1.449,2-3.04,3.009-4.786A33.289,33.289,0,0,1,9308.5,2184.668Zm-.546-1.764a31.267,31.267,0,0,0,4.766.468,45.4,45.4,0,0,1-3.8-3.588q-.823.291-1.654.568Q9307.588,2181.638,9307.957,2182.9Zm12.261-7.8c-1.274,3-2.581,5.718-3.895,8.172a47.693,47.693,0,0,0,8.458-1.461,80.651,80.651,0,0,0,13.729-5.131,49.27,49.27,0,0,1-10.458-5.619C9325.577,2172.44,9322.958,2173.8,9320.218,2175.1Zm-40.538,7.966a70.641,70.641,0,0,0,18.69-1.908,35.02,35.02,0,0,1-11.039-10.331,61.15,61.15,0,0,1-4.653-7.684,93.057,93.057,0,0,1-11.268-2.812c-.265-.084-.529-.168-.8-.256C9271.807,2167.168,9274.922,2175.056,9279.68,2183.07ZM9396.8,2177.1c2.3,1.982,4.474,3.96,6.48,5.911a58.068,58.068,0,0,0,3.851-9.906A102.7,102.7,0,0,1,9396.8,2177.1Zm-136.366,1.345a39.074,39.074,0,0,0,10.461,3.6,55.922,55.922,0,0,0,6.816.914,88.169,88.169,0,0,1-4.351-8.512,58.526,58.526,0,0,1-4.521-14.976,56.046,56.046,0,0,1-14.408-7.467A65.877,65.877,0,0,0,9260.433,2178.448Zm50.191.721a44.408,44.408,0,0,0,4.061,3.673c1.1-2.038,2.2-4.264,3.28-6.694C9315.594,2177.217,9313.142,2178.234,9310.624,2179.168Zm-7.429,2.446a27.132,27.132,0,0,0,2.934.9q-.229-.823-.435-1.653Q9304.451,2181.255,9303.2,2181.614Zm105.9-9.415a59.506,59.506,0,0,1-3.526,9.857,73.365,73.365,0,0,0,15.643-15.169c.05-.486.1-.977.142-1.47q-1.7,1.084-3.519,2.152Q9413.519,2170.105,9409.1,2172.2Zm-124.373-8.7a59.142,59.142,0,0,0,3.953,6.378,32.282,32.282,0,0,0,12.081,10.7q2.3-.6,4.555-1.318-.567-2.541-.94-5.161c-.1-.142-.189-.285-.285-.428a48.108,48.108,0,0,1-4.688-9.21A78.82,78.82,0,0,1,9284.725,2163.5Zm71.938,15.885a89.835,89.835,0,0,0,30.7-1.415q3.04-.67,6.063-1.552a205.242,205.242,0,0,0-23.045-16.482c-1.807,1.12-3.705,2.324-5.682,3.578-3.158,2-6.53,4.142-10.046,6.263C9355.244,2173.139,9355.906,2176.353,9356.663,2179.381Zm-13.907-2.937a65,65,0,0,0,6.346,1.667q2.9.609,5.8,1.032c-.655-2.691-1.239-5.518-1.765-8.461C9349.777,2172.678,9346.3,2174.641,9342.756,2176.443Zm-36.214.6q.164.851.35,1.7c.276-.093.554-.187.829-.282Q9307.116,2177.765,9306.542,2177.046Zm-.587-3.562a42.922,42.922,0,0,0,3.446,4.379c3.3-1.2,6.492-2.55,9.539-3.98q1.557-3.727,3.028-8.06-.514-.536-1.01-1.09a40.766,40.766,0,0,1-2.689-3.358q-1.157.352-2.323.665a71.444,71.444,0,0,1-10.643,2A72.008,72.008,0,0,0,9305.955,2173.484Zm-65.919-43.821a70.14,70.14,0,0,0-.459,7.852c-.014,10.835,2.488,20.582,7.236,28.189a35.093,35.093,0,0,0,11.2,11.36,68.107,68.107,0,0,1-5.253-26.356A35.091,35.091,0,0,1,9240.036,2129.664Zm131.918,29.3a205.689,205.689,0,0,1,23.362,16.879,101.179,101.179,0,0,0,12.365-4.8,59.866,59.866,0,0,0,1.526-18.96,33.443,33.443,0,0,1-7.938,4.9c-7.4,3.182-14.119,3.3-19.982.343a22.871,22.871,0,0,1-3.131-1.915C9376.268,2156.391,9374.189,2157.6,9371.954,2158.963Zm-42.3,11.2a48.73,48.73,0,0,0,10.912,5.532c4.193-2.069,8.317-4.392,12.272-6.756-.725-4.268-1.342-8.761-1.905-13.416-3.013,2.44-6.122,4.79-9.265,7C9338.33,2164.859,9334.268,2167.518,9329.649,2170.162Zm-6.379-3.04q-1.031,3-2.111,5.7c1.876-.924,3.693-1.875,5.438-2.834A42.528,42.528,0,0,1,9323.271,2167.122Zm-22.127-2.738a47.344,47.344,0,0,0,2.787,5.851q-.259-2.971-.277-6.029Q9302.4,2164.318,9301.144,2164.385Zm109.61-13.641a61.862,61.862,0,0,1-1.153,19.381q3.735-1.827,7.4-3.979c1.573-.923,3.082-1.862,4.526-2.8a187.844,187.844,0,0,0-.071-26.733A51.794,51.794,0,0,1,9410.754,2150.744Zm-86.9,14.641a40.949,40.949,0,0,0,4.316,3.72c4.84-2.739,9.09-5.512,12.543-7.937,3.5-2.458,6.843-5.006,9.985-7.582q-.252-2.154-.492-4.348-2.75-1.2-5.367-2.176a81.861,81.861,0,0,1-18.929,11.515Q9324.922,2162.154,9323.854,2165.385Zm28.59-11.1c.565,4.772,1.186,9.375,1.91,13.742,3.3-2,6.479-4.017,9.459-5.908,1.725-1.093,3.39-2.149,4.987-3.146q-.661-.4-1.321-.791c-4.12-2.441-8.126-4.61-11.978-6.492Q9353.993,2153,9352.444,2154.281Zm70.665,10v.01l.013-.018Zm-103.181-3.431q1.068,1.446,2.264,2.785.18.2.365.4.721-2.247,1.412-4.657Q9321.966,2160.175,9319.929,2160.848Zm-36.146.816a78.122,78.122,0,0,0,15.021,1.155q-4.5-12.994-3.282-30.673-1.232-1.12-2.37-2.352-.7-.757-1.363-1.551c-3.751,1.734-7.059,3.407-9.755,4.917a25.987,25.987,0,0,0-4.457,3.115c0,.182.01.363.017.544A61.18,61.18,0,0,0,9283.783,2161.665Zm13.3-28.169q-.98,16.859,3.446,29.264,1.569-.073,3.127-.212a85.337,85.337,0,0,1,.7-9.66,60.408,60.408,0,0,1,2.514-13.546A39.473,39.473,0,0,1,9297.086,2133.5Zm11.352,6.462a59.968,59.968,0,0,0-2.425,13.03l-.006.075a83.792,83.792,0,0,0-.692,9.316,69.924,69.924,0,0,0,10.2-1.934q.888-.239,1.771-.5a45.145,45.145,0,0,1-6.905-19.314Q9309.4,2140.316,9308.438,2139.958Zm114.46-6.245a196.9,196.9,0,0,1,.366,28.475q1.146-.775,2.228-1.546a75.721,75.721,0,0,0,11.034-40.808c-.11-6.656-2.074-11.137-6-13.7a12.815,12.815,0,0,0-1.337-.758A67.265,67.265,0,0,1,9422.9,2133.713Zm-152.55,24.535q.769.261,1.559.511a92.191,92.191,0,0,0,9.866,2.533,62.852,62.852,0,0,1-5.791-23.482,21.46,21.46,0,0,0-5.519,11.275A31.328,31.328,0,0,0,9270.348,2158.249Zm41.771-17.1a43.2,43.2,0,0,0,6.814,18.291q2.829-.913,5.6-2.069c1.346-4.977,2.388-9.848,3.158-14.4q-.916-.052-1.789-.053A51.842,51.842,0,0,1,9312.119,2141.145Zm117.019-37.606a14.649,14.649,0,0,1,2.285,1.21c4.364,2.845,6.637,7.911,6.754,15.057a77.516,77.516,0,0,1-9.36,38.382,102.416,102.416,0,0,0,13.961-12.677c2.352-14.3,1.188-29.242-3.466-44.527a93.274,93.274,0,0,0-11.045-4.973,50.544,50.544,0,0,1,.839,6.857C9429.118,2103.091,9429.129,2103.315,9429.138,2103.539Zm-72.295,46.968c3.7,1.83,7.543,3.918,11.479,6.25q1.028.609,2.055,1.235c2.274-1.4,4.4-2.653,6.354-3.7a41.556,41.556,0,0,1-9.513-12.469q-.883.241-1.769.437C9362.783,2145.031,9359.89,2147.8,9356.843,2150.507Zm23,4.062a20.63,20.63,0,0,0,2.188,1.28c5.483,2.763,11.563,2.636,18.586-.385a32.358,32.358,0,0,0,8.405-5.388,69.507,69.507,0,0,0-2.869-13.51,42.135,42.135,0,0,0-2.014-5.18c-7.565,11.5-15.862,19.823-22.217,22.282C9381.265,2153.923,9380.569,2154.225,9379.843,2154.569Zm-125.43-4.628a52.051,52.051,0,0,0,14.2,7.692,32.49,32.49,0,0,1,.226-8.83,22.98,22.98,0,0,1,7.072-13.254,68.983,68.983,0,0,1,5.853-28.913,76.586,76.586,0,0,1-1.575-16.013q-2.6-.135-5.158-.083a119.224,119.224,0,0,0-18.839,43.174A81.811,81.811,0,0,0,9254.413,2149.941Zm74.924-6.837c-.715,4.257-1.664,8.787-2.876,13.424a80.39,80.39,0,0,0,16.555-10.127A61.159,61.159,0,0,0,9329.337,2143.1Zm39.518-1.766c2.905,5.382,6.047,9.4,9.479,12.127,1.058-.526,2.058-.976,2.993-1.338,5.981-2.317,14.232-10.672,21.534-21.8.141-.216.283-.434.424-.651a33.889,33.889,0,0,0-8.7-10.614,40,40,0,0,1-9.522,12.767A44.853,44.853,0,0,1,9368.854,2141.338Zm-16.9,8.676c.088.776.174,1.545.262,2.313q.844-.708,1.669-1.419Q9352.912,2150.449,9351.954,2150.014Zm-.207-1.9q1.724.767,3.493,1.613c2.658-2.342,5.138-4.679,7.415-6.969a28.367,28.367,0,0,1-6.37.157,9.577,9.577,0,0,1-4.7-1.825c-.175.17-.35.337-.524.506Q9351.4,2144.888,9351.747,2148.114Zm53.443-18.354a43.456,43.456,0,0,1,2.537,6.308,71.835,71.835,0,0,1,2.8,12.629,51.886,51.886,0,0,0,10.146-14.171c.186-.37.366-.744.544-1.119q-.8-9.827-2.437-20.629a77.512,77.512,0,0,0-1.572-7.695A118.883,118.883,0,0,1,9405.19,2129.76ZM9241,2123.584c.007.162.016.323.023.485a34.093,34.093,0,0,0,7.729,20.393,36.162,36.162,0,0,0,4.026,4.124,84.227,84.227,0,0,1,1.792-15.209,120.686,120.686,0,0,1,18.4-42.765,63.58,63.58,0,0,0-9.016,1.083c-6.668,1.3-12.861,6.9-17.439,15.771A62.568,62.568,0,0,0,9241,2123.584Zm105.306,22.273q1.819.7,3.7,1.5-.231-2.156-.457-4.342Q9347.943,2144.484,9346.3,2145.857Zm-16.7-4.384a64.788,64.788,0,0,1,14.919,3.718q2.313-1.9,4.558-4l.254-.238q-.107-1.039-.213-2.085a40.059,40.059,0,0,1-6.006-9.6c-4.241,1.21-7.67,1.714-9.981,1.153-.685-.166-1.426-.367-2.214-.6C9330.7,2133.278,9330.27,2137.223,9329.6,2141.473Zm23.174-1.56a7.911,7.911,0,0,0,3.662,1.357,28.025,28.025,0,0,0,8.166-.513q.686-.719,1.346-1.43a102.858,102.858,0,0,1-4.076-9.782A112.145,112.145,0,0,1,9352.776,2139.914Zm-40.871-.547a49.863,49.863,0,0,0,13.993,1.9q1,0,2.057.066c.7-4.416,1.135-8.493,1.343-12.023a71.249,71.249,0,0,1-13.319-6.115q-1.072,1.675-2.044,3.442c-.822,1.492-1.558,2.975-2.218,4.436A54.367,54.367,0,0,0,9311.905,2139.366Zm56.04.228c.044.087.09.175.134.263a43.092,43.092,0,0,0,15.865-9.253,38.171,38.171,0,0,0,9.29-12.575,37.319,37.319,0,0,0-8.227-4.479c-.359-.142-.72-.279-1.084-.412q-1.305.515-2.61,1.04a53.846,53.846,0,0,1-1.311,7.359C9378.9,2125.808,9374.507,2132.38,9367.945,2139.595Zm-17.236-1.422c.247.254.5.494.752.719a110.884,110.884,0,0,0,9.756-11.2q-.769-2.223-1.5-4.529c-3.6,1.485-7.018,2.846-10.16,3.988.379,3.51.737,7.017,1.094,10.5C9350.674,2137.825,9350.69,2138,9350.709,2138.173Zm-41.787.2q.631.236,1.273.455-.155-1.779-.194-3.582C9309.6,2136.314,9309.244,2137.359,9308.922,2138.373Zm54.15-10.4c.647,1.825,1.324,3.611,2.033,5.344q1.009,2.468,2.06,4.676c6.219-6.912,10.239-13.014,11.238-16.876a50.66,50.66,0,0,0,1.165-6.238c-3.567,1.451-7.092,2.931-10.5,4.366Q9366.218,2123.784,9363.072,2127.977Zm-65.849,3.472a37.71,37.71,0,0,0,10.145,6.3,68.983,68.983,0,0,1,2.718-7.093,61.534,61.534,0,0,1,1.5-10.287l-.161-.113c-4.792,1.706-9.383,3.511-13.6,5.307Q9297.443,2128.572,9297.224,2131.449Zm47.486-2.651a46.029,46.029,0,0,0,4.106,7.114q-.417-4.08-.854-8.19Q9346.274,2128.311,9344.71,2128.8Zm-62.3-19.43a68.687,68.687,0,0,0-4.852,24.778,28.728,28.728,0,0,1,3.673-2.429c2.638-1.475,5.855-3.108,9.5-4.8A48.708,48.708,0,0,1,9282.405,2109.368Zm136.133-5.712a78.358,78.358,0,0,1,1.873,8.874q1.4,9.216,2.19,17.742a65.106,65.106,0,0,0,4.921-25.582A24.447,24.447,0,0,0,9418.538,2103.656Zm-125.19,23.873q.5.583,1.018,1.144.645.7,1.321,1.358c.105-1.219.232-2.457.377-3.707Q9294.676,2126.928,9293.348,2127.529Zm37.665.6c.9.278,1.742.509,2.511.7,1.975.48,5.056.017,8.881-1.063-1.746-3.819-3.405-8.069-5.093-12.394q-.458-1.173-.919-2.352c-2.418.527-4.755,1.091-6.977,1.67a20.9,20.9,0,0,1,1.577,6.588A61.242,61.242,0,0,1,9331.013,2128.127Zm64.242-10.65a35.229,35.229,0,0,1,9.044,10.6,116.563,116.563,0,0,0,11.582-24.219,93.443,93.443,0,0,0-18.593,4.4A28.425,28.425,0,0,1,9395.255,2117.478Zm-78.372,4.347a69.663,69.663,0,0,0,12.5,5.773,58.1,58.1,0,0,0-.04-6.213,19.275,19.275,0,0,0-1.542-6.273c-2.511.677-5.021,1.41-7.506,2.183Q9318.491,2119.461,9316.883,2121.825Zm21.147-9.159q.412,1.052.82,2.1c1.714,4.388,3.394,8.7,5.149,12.522q1.8-.556,3.777-1.257c-.541-4.951-1.13-9.9-1.812-14.8C9343.26,2111.646,9340.6,2112.133,9338.03,2112.666Zm-24.981,8.7c-.375,1.7-.677,3.4-.9,5.1.112-.209.227-.418.341-.628q.99-1.8,2.078-3.5Q9313.806,2121.868,9313.049,2121.369Zm-29.56-14.552a47.942,47.942,0,0,0,8.777,19.391q1.947-.887,4.033-1.784.984-7.515,2.9-15.764a41.323,41.323,0,0,1-4.228-6.921,36.456,36.456,0,0,1-2.9-8.6,55.428,55.428,0,0,0-8.058,12.539Q9283.746,2106.244,9283.489,2106.817Zm77.764,15.714q.565,1.8,1.163,3.561,2.045-2.775,3.966-5.709Q9363.769,2121.482,9361.253,2122.531Zm-13.652-11.536c.667,4.784,1.244,9.624,1.775,14.461,3.073-1.126,6.4-2.453,9.854-3.878-1.136-3.715-2.194-7.564-3.2-11.474C9353.2,2110.3,9350.379,2110.607,9347.6,2110.995Zm-47.088-.67q-1.563,6.942-2.448,13.347c3.685-1.551,7.634-3.1,11.738-4.585A54.222,54.222,0,0,1,9300.513,2110.325Zm12.937,9.343q1.006.677,2.017,1.3.961-1.419,1.994-2.769-2.005.653-3.978,1.336ZM9357.7,2110c.94,3.643,1.952,7.327,3.058,10.943,2.185-.907,4.415-1.847,6.666-2.8l.521-.22q2.278-3.655,4.347-7.508A82.84,82.84,0,0,0,9357.7,2110Zm-56.719-1.721a52.345,52.345,0,0,0,10.68,10.142l.442-.155a65.793,65.793,0,0,1,4.9-12.768q.536-1.06,1.108-2.088l-.007-.006a57.167,57.167,0,0,0-13.628-7.535q-.863,2.361-1.559,4.884Q9301.859,2104.591,9300.984,2108.281Zm18.437-3.823q-.486.883-.945,1.79a64.209,64.209,0,0,0-4.474,11.366q2.643-.9,5.341-1.749a56.868,56.868,0,0,1,5.572-5.7A33.8,33.8,0,0,0,9319.421,2104.458Zm54.616,6.206q-1.668,3.146-3.483,6.17c3.011-1.265,6.1-2.555,9.226-3.819.037-.375.071-.758.1-1.143A55.422,55.422,0,0,0,9374.037,2110.664Zm12.162,1.587a38.932,38.932,0,0,1,7.683,4.2,26.884,26.884,0,0,0,1.72-7.629C9392.5,2109.876,9389.351,2111.035,9386.2,2112.251Zm-92.607-63.215c-.5.2-1.015.417-1.525.642-12.532,5.5-25.9,17.04-35.754,30.879-8.412,11.814-13.569,24.01-14.966,35.156a59.287,59.287,0,0,1,3.7-9c4.814-9.325,11.417-15.232,18.591-16.634a65.581,65.581,0,0,1,10.5-1.155q3.161-4.488,6.61-8.57a61.5,61.5,0,0,1,12.838-31.314Zm32.277,62.49q-1.815,1.623-3.483,3.408,2.342-.7,4.7-1.338Q9326.538,2112.55,9325.869,2111.525Zm1.259-1.094a25.939,25.939,0,0,1,1.59,2.729q3.589-.941,7.06-1.707c-.75-1.9-1.512-3.789-2.3-5.645q-1.2.748-2.345,1.549Q9329.055,2108.806,9327.128,2110.431Zm54.493.211q1.16.342,2.271.731c3.944-1.549,7.9-3.023,11.767-4.323a27.792,27.792,0,0,0-3.714-13.539c-3.215.24-6.718.536-10.563.887-.115.308-.231.613-.35.92A77.164,77.164,0,0,1,9381.621,2110.642Zm-46.711-5.7c.856,2.024,1.688,4.088,2.5,6.156q4.258-.895,8.317-1.517-.664-4.588-1.456-9.079A60.973,60.973,0,0,0,9334.91,2104.944Zm39.938,4.169q2.672.437,5.15,1.08a75.355,75.355,0,0,0-.245-11.669Q9377.515,2103.942,9374.848,2109.113Zm-28.994-9.179c.556,3.1,1.056,6.241,1.513,9.409q4.245-.6,8.244-.887c-.786-3.109-1.543-6.253-2.281-9.394-.095-.4-.182-.8-.265-1.208A71.594,71.594,0,0,0,9345.854,2099.934ZM9320.248,2103a35.8,35.8,0,0,1,5.921,6.081q1.938-1.624,4.022-3.078,1.289-.9,2.632-1.73a85.049,85.049,0,0,0-5.534-10.905A56.85,56.85,0,0,0,9320.248,2103Zm42.508,5.192a77.052,77.052,0,0,1,10.367.665,138.143,138.143,0,0,0,6.215-13.735c-.026-.175-.052-.35-.079-.526-4.654.434-9.793.939-15.5,1.509a84.831,84.831,0,0,0-9.085,1.394q.12.6.259,1.186c.734,3.121,1.511,6.369,2.345,9.666q.365-.022.726-.039Q9360.433,2108.19,9362.756,2108.19Zm-69.122-15.678a34.764,34.764,0,0,0,2.828,8.511,39.263,39.263,0,0,0,3.241,5.522q.75-3.067,1.622-6.23.718-2.6,1.608-5.036A75.659,75.659,0,0,0,9293.634,2092.512Zm100.125.869a29.408,29.408,0,0,1,3.543,13.125c2.019-.656,4.007-1.26,5.95-1.8a75.644,75.644,0,0,1,13.134-2.565,74.806,74.806,0,0,0-3.438-9.164A150.839,150.839,0,0,0,9393.759,2093.382Zm-111.922-2.656a76.952,76.952,0,0,0,1.109,13.367,56.374,56.374,0,0,1,7.989-12.151A78.394,78.394,0,0,0,9281.837,2090.726Zm46.624,1.4a84.182,84.182,0,0,1,5.791,11.29,62.867,62.867,0,0,1,9.725-4.562q-.831-4.463-1.835-8.775-.822-3.506-1.748-6.739A43.348,43.348,0,0,0,9328.461,2092.125Zm91.677,9.84a25.142,25.142,0,0,1,7.316.966,48.325,48.325,0,0,0-1-7.535,49.658,49.658,0,0,0-6.11-1.542q-.844,4.02-2.13,8.16Q9419.2,2101.965,9420.138,2101.965Zm-115.064-7.659a10.806,10.806,0,0,0,21.291-2.374c-4.384-6.522-9.149-9.711-14.541-9.72A50.924,50.924,0,0,0,9305.073,2094.306Zm109.745-1.19q1.359,3.106,2.44,6.323.842-2.962,1.455-5.86C9417.465,2093.387,9416.173,2093.234,9414.818,2093.116Zm13.042,1.01a84.437,84.437,0,0,1,10.757,4.655q-.614-1.888-1.3-3.782c-11.285-31.187-26.854-52.889-46.275-64.5a66.9,66.9,0,0,0-48.425-8.108,91.758,91.758,0,0,0-25.863,9.46,85.424,85.424,0,0,1,19.272,2.887,66.19,66.19,0,0,1,23.9-2.291c10.483,1.047,18.585,4.906,23.407,10.94,9.166-2.165,18.537.677,27.081,8.384,7.66,6.909,11.534,16.743,11.446,28.815q.371.514.721,1.045A38.787,38.787,0,0,1,9427.86,2094.126Zm-85.95-11.492q.976,3.387,1.841,7.065.99,4.219,1.8,8.592a73.4,73.4,0,0,1,7.22-2.063,47.092,47.092,0,0,1,.639-17.465A60.459,60.459,0,0,0,9341.91,2082.635Zm13.274-4.234a45.723,45.723,0,0,0-.8,17.47,86.686,86.686,0,0,1,9.212-1.411c5.683-.567,10.781-1.068,15.392-1.5a66.952,66.952,0,0,0-1.875-7.847,57.532,57.532,0,0,0-2-5.559A38.57,38.57,0,0,0,9355.185,2078.4Zm-61.048,12.516a76.378,76.378,0,0,1,9.393,2.8,53.16,53.16,0,0,1,6.124-11.35C9304.311,2083.074,9298.936,2086.1,9294.137,2090.917Zm126.53,1.32a51.033,51.033,0,0,1,5.344,1.3,37.229,37.229,0,0,0-4.243-10.112,68.28,68.28,0,0,1-1.042,8.5Zm-36.1-7.406c-.751,2.591-1.6,5.218-2.557,7.858,3.232-.29,6.214-.541,8.973-.751A30.9,30.9,0,0,0,9384.57,2084.831Zm-7.343-4.444c.563,1.452,1.05,2.876,1.468,4.249a68.556,68.556,0,0,1,1.8,7.389c1-2.784,1.894-5.55,2.667-8.271q-.7-.508-1.439-.978A31.57,31.57,0,0,0,9377.228,2080.387Zm36.815,11.015c1.1.08,2.154.182,3.182.307q.923.112,1.813.249c.021-.113.042-.226.063-.338a64.137,64.137,0,0,0,1.09-10.522,31.536,31.536,0,0,0-16.517-11.356c-1.928-.589-4.029-1.2-6.276-1.8A83.02,83.02,0,0,1,9414.043,2091.4Zm-28.986-8.294a32.556,32.556,0,0,1,7.795,8.692,164.116,164.116,0,0,1,19.306-.512,82.7,82.7,0,0,0-17.989-24.186c-1.884-.471-3.852-.931-5.888-1.368A97.5,97.5,0,0,1,9385.057,2083.108Zm-71.959-2.5c5.364.45,10.109,3.775,14.436,10.1a44.8,44.8,0,0,1,12.389-8.982,93.225,93.225,0,0,0-5.985-15.318,52.864,52.864,0,0,0-7.741,3.457A45.241,45.241,0,0,0,9313.1,2080.613Zm-31.247,8.463a79.989,79.989,0,0,1,9.773,1.305c-.854-7.021.352-14.436,3.615-22.171a107.1,107.1,0,0,0-12.9,12.824c-.076.7-.144,1.4-.2,2.111Q9281.9,2086.173,9281.851,2089.076Zm16.243-23.155q-.217.439-.425.886c-3.712,7.959-5.2,15.563-4.471,22.728,5.4-5.334,11.515-8.539,17.563-8.94.076-.005.153-.01.23-.013a46.822,46.822,0,0,1,14.409-12.16,54.33,54.33,0,0,1,7.767-3.486,52.911,52.911,0,0,0-8.6-11.981c-.092-.093-.183-.185-.275-.276a63.621,63.621,0,0,0-16.979,7.026A85.953,85.953,0,0,0,9298.094,2065.921Zm-21.646,22.962q1.872,0,3.755.094.051-2.794.271-5.7-2.2,2.712-4.277,5.6Zm99.9-10.633a33.386,33.386,0,0,1,6.267,3.135c.345.22.683.447,1.017.678a94.177,94.177,0,0,0,3.029-16.667,144.982,144.982,0,0,0-20.891-2.788A49.338,49.338,0,0,1,9376.349,2078.25Zm-40.833-12.373a95.052,95.052,0,0,1,5.923,15.16,61.375,61.375,0,0,1,12.393-4.055,55.737,55.737,0,0,1,2.636-7.816,54.748,54.748,0,0,1,3.4-6.73h-.248A78.522,78.522,0,0,0,9335.516,2065.877Zm59.473-.272c3.35.844,6.433,1.721,9.169,2.557a33.407,33.407,0,0,1,16.01,10.258c-.307-8.921-2.99-18.328-10.86-25.427s-16.476-9.859-24.9-8.142a22.518,22.518,0,0,1,3.218,7.335,35.494,35.494,0,0,1,.871,7.833q2.363,1.874,4.668,3.923Q9394.094,2064.767,9394.988,2065.6Zm-98.338-17.689a59.784,59.784,0,0,0-13.915,30.149,105.893,105.893,0,0,1,14.048-13.219,53.7,53.7,0,0,1,15.5-18.458,24.743,24.743,0,0,0-2.473-.312A34.008,34.008,0,0,0,9296.65,2047.916Zm66.673,28.056a37.6,37.6,0,0,1,10.886,1.553,46.739,46.739,0,0,0-10.981-15.03c-.479-.015-.955-.028-1.436-.038a52.543,52.543,0,0,0-3.8,7.349,54.067,54.067,0,0,0-2.362,6.835A45.922,45.922,0,0,1,9363.323,2075.972Zm25.076-11.9q1.651.351,3.24.721-1.563-1.377-3.157-2.671Q9388.458,2063.08,9388.4,2064.073Zm-62.214-11.813a55.067,55.067,0,0,1,8.562,12.133,81.074,81.074,0,0,1,26.144-3.594c.036-.057.073-.115.11-.172a45.426,45.426,0,0,0-14.245-7.461A40.5,40.5,0,0,0,9326.186,2052.26Zm37.716,8.614a143.936,143.936,0,0,1,22.873,2.861q.082-1.5.085-2.906a120.351,120.351,0,0,0-14.951-9.922,44.087,44.087,0,0,0-8.689,9.382C9363.45,2060.483,9363.676,2060.678,9363.9,2060.874Zm-49.491-14a53.2,53.2,0,0,0-14.452,15.615q3.215-2.285,6.521-4.21a66.154,66.154,0,0,1,16.354-6.936A22.044,22.044,0,0,0,9314.41,2046.871ZM9335,2049.7a39.861,39.861,0,0,1,12.26,1.89,47.135,47.135,0,0,1,14.672,7.656,46.09,46.09,0,0,1,8.419-9.206,144.081,144.081,0,0,0-18.649-8.5c-5.908-2.2-11.113-3.857-15.746-5.078a70.774,70.774,0,0,0-11.405,4.338,66.724,66.724,0,0,0-8.432,4.861,23.817,23.817,0,0,1,8.667,5.2A46.828,46.828,0,0,1,9335,2049.7Zm38.346.121a122.733,122.733,0,0,1,13.474,8.888,31.963,31.963,0,0,0-.8-6.139,20.765,20.765,0,0,0-3.345-7.306,28.819,28.819,0,0,0-6.944,3Q9374.523,2048.983,9373.347,2049.824Zm-34.105-14.21c4.455,1.288,8.8,2.8,13.038,4.383a145.365,145.365,0,0,1,19.484,8.938,35.508,35.508,0,0,1,3.129-2.089,31.072,31.072,0,0,1,6.677-2.985c-4.6-5.369-12.133-8.81-21.81-9.776A63.362,63.362,0,0,0,9339.241,2035.614Zm-25.233-2.181a75.068,75.068,0,0,0-11.185,8.2q-2.13,1.9-4.054,3.932a33.868,33.868,0,0,1,11.165-1.14,26.037,26.037,0,0,1,4.127.643,67.478,67.478,0,0,1,9.77-5.755,71.987,71.987,0,0,1,9.013-3.626A75.683,75.683,0,0,0,9314.008,2033.433Z" transform="translate(-9231.664 -2019.291)" fill="#25468f"/>
  </g>
  <g id="Group_3266" data-name="Group 3266" transform="translate(166.472 54.878)">
    <path id="Path_2846" data-name="Path 2846" d="M9309.406,1959.794c4.621-17.956,12.431-33.573,33.572-33.573,18.54,0,35.358,16.334,34.136,36.462-1.124,18.506-17.2,34.183-36.868,31.979C9321.82,1992.6,9304.116,1980.353,9309.406,1959.794Z" transform="translate(-9308.456 -1926.221)" fill="#a8ccff"/>
    <g id="Group_3265" data-name="Group 3265" transform="translate(20.455 13.063)" opacity="0.8">
      <path id="Path_2847" data-name="Path 2847" d="M9339.945,1973.1a24.072,24.072,0,0,1,.264-3.832,11.508,11.508,0,0,1,2.434-5.538,28.226,28.226,0,0,1,2.359-2.575q1.055-1.024,1.971-1.939a15.918,15.918,0,0,0,1.613-1.877,8.48,8.48,0,0,0,1.1-2.048,6.886,6.886,0,0,0,.4-2.419,6.26,6.26,0,0,0-1.443-4.452,5.528,5.528,0,0,0-4.234-1.536,7.678,7.678,0,0,0-2.172.31,5.359,5.359,0,0,0-1.893.992,5.055,5.055,0,0,0-1.35,1.738,5.8,5.8,0,0,0-.51,2.544h-7.539a12.274,12.274,0,0,1,1.068-5.135,10.617,10.617,0,0,1,2.855-3.722,12.324,12.324,0,0,1,4.25-2.265,19.253,19.253,0,0,1,10.873.046,11.385,11.385,0,0,1,4.158,2.357,10.068,10.068,0,0,1,2.592,3.785,13.685,13.685,0,0,1,.883,5.057,10.933,10.933,0,0,1-.652,3.816,14.508,14.508,0,0,1-1.736,3.318,23.7,23.7,0,0,1-2.482,2.979q-1.395,1.428-2.885,2.824a7.7,7.7,0,0,0-2.281,3.4,14.724,14.724,0,0,0-.605,4.173Zm-.527,9.648a4.575,4.575,0,0,1,.279-1.613,3.671,3.671,0,0,1,2.156-2.172,5.464,5.464,0,0,1,3.629,0,3.727,3.727,0,0,1,1.334.87,3.93,3.93,0,0,1,.838,1.3,4.371,4.371,0,0,1,.295,1.613,3.926,3.926,0,0,1-1.117,2.855,4.212,4.212,0,0,1-3.164,1.148,4.16,4.16,0,0,1-3.148-1.148A3.962,3.962,0,0,1,9339.418,1982.746Z" transform="translate(-9330.949 -1940.585)" fill="#fff"/>
    </g>
  </g>
  <g id="Group_3267" data-name="Group 3267" transform="translate(262.875 31.238)">
    <path id="Path_2848" data-name="Path 2848" d="M9444.582,1916.206l-30.124,8.658,18.462-16.737,1.656,4.312,7.662.314Z" transform="translate(-9414.458 -1900.943)" fill="#f1bb8f"/>
    <path id="Path_2849" data-name="Path 2849" d="M9414.458,1924.391l23.74-16.743,24.892-4.747Z" transform="translate(-9414.458 -1900.469)" fill="#fddbba"/>
    <path id="Path_2850" data-name="Path 2850" d="M9432.92,1907.411l-18.462,16.737,12.767-23.921Z" transform="translate(-9414.458 -1900.227)" fill="#fddbba"/>
  </g>
  <g id="Group_3268" data-name="Group 3268" transform="translate(537.164 152.828)">
    <path id="Path_2851" data-name="Path 2851" d="M9738.42,2052.438l31.4,4.471-20.838-14.2-1.059,4.553-7.635,1.385Z" transform="translate(-9718.081 -2034.719)" fill="#f2c9a5"/>
    <path id="Path_2852" data-name="Path 2852" d="M9767.791,2056.854l-26.129-13.464-25.607-1.282Z" transform="translate(-9716.055 -2034.664)" fill="#fddbba"/>
    <path id="Path_2853" data-name="Path 2853" d="M9750.029,2041.918l20.838,14.2-16.134-22.19Z" transform="translate(-9719.131 -2033.923)" fill="#fddbba"/>
  </g>
  <g id="Group_3279" data-name="Group 3279" transform="translate(426.96 122.776)">
    <g id="Group_3270" data-name="Group 3270" transform="translate(13.041 3.465)">
      <g id="Group_3269" data-name="Group 3269">
        <path id="Path_2854" data-name="Path 2854" d="M9710.175,2205.17c-29.481,0-58.688-13-78.132-34.776-16.648-18.646-24.358-41.771-21.708-65.112l.395.045-.395-.045c3.624-31.923,14.413-56.66,32.067-73.524,16.744-15.995,39.54-24.834,67.751-26.272,33-1.682,58.4,7.718,75.484,27.943,7.473,8.848,13.35,19.815,17.47,32.6a158.292,158.292,0,0,1,6.908,39.278c.88,15.238-.47,29.087-4.011,41.163a76.708,76.708,0,0,1-17.644,31.5C9771.323,2196.018,9745.017,2205.17,9710.175,2205.17Zm7.366-199.08q-3.608,0-7.346.19c-28.018,1.429-50.641,10.195-67.244,26.054-17.515,16.731-28.223,41.3-31.826,73.038-2.624,23.113,5.016,46.017,21.513,64.492,19.294,21.609,48.279,34.51,77.537,34.51,34.614,0,60.727-9.069,77.608-26.954a75.941,75.941,0,0,0,17.459-31.178c3.516-11.988,4.854-25.746,3.979-40.892a157.536,157.536,0,0,0-6.871-39.08c-4.089-12.683-9.915-23.559-17.321-32.327C9769.405,2015.444,9746.723,2006.091,9717.541,2006.091Z" transform="translate(-9609.272 -2004.744)" fill="#25468f"/>
        <path id="Path_2855" data-name="Path 2855" d="M9710.12,2205.667c-29.635,0-59-13.07-78.543-34.959-16.624-18.62-24.392-41.68-21.905-64.993h0l.123-1.094h0c3.7-31.792,14.522-56.454,32.172-73.312,16.844-16.089,39.758-24.979,68.105-26.425,33.188-1.692,58.734,7.776,75.933,28.138,7.518,8.9,13.43,19.932,17.571,32.783a158.857,158.857,0,0,1,6.935,39.416c.884,15.3-.473,29.213-4.032,41.348a77.274,77.274,0,0,1-17.771,31.723C9771.561,2196.456,9745.121,2205.667,9710.12,2205.667Zm7.366-199.08c-2.384,0-4.845.064-7.318.19-27.88,1.422-50.385,10.137-66.891,25.9-17.421,16.64-28.072,41.1-31.659,72.7-2.606,22.955,4.984,45.707,21.375,64.063,19.19,21.494,48.024,34.327,77.127,34.327,34.457,0,60.434-9.011,77.207-26.782a75.4,75.4,0,0,0,17.332-30.954c3.5-11.927,4.829-25.622,3.957-40.705a156.938,156.938,0,0,0-6.845-38.943c-4.065-12.615-9.859-23.428-17.218-32.141C9769.056,2015.892,9746.49,2006.586,9717.486,2006.586Z" transform="translate(-9609.217 -2004.689)" fill="#25468f"/>
      </g>
    </g>
    <g id="Group_3272" data-name="Group 3272" transform="translate(3.163 3.639)">
      <g id="Group_3271" data-name="Group 3271">
        <path id="Path_2856" data-name="Path 2856" d="M9712.741,2209.618c-16.557,0-34.777-4.7-54.481-14.087-26.614-12.677-47.395-36.974-55.583-64.994-7.014-23.993-4.029-48.186,8.4-68.119,17-27.263,37.377-44.956,60.567-52.589,22-7.239,46.377-5.418,72.465,5.415,30.522,12.674,49.408,32.083,56.132,57.688,2.941,11.2,3.532,23.63,1.755,36.942a158.344,158.344,0,0,1-10.652,38.432c-5.759,14.135-12.933,26.058-21.323,35.438a74.273,74.273,0,0,1-57.279,25.876Zm-101.327-146.991.338.211c-12.309,19.738-15.26,43.7-8.312,67.475,8.128,27.806,28.748,51.918,55.162,64.5,31.252,14.885,58.726,17.927,81.658,9.038a75.934,75.934,0,0,0,29.169-20.639c8.329-9.311,15.453-21.157,21.177-35.207a157.433,157.433,0,0,0,10.6-38.237c1.765-13.208,1.18-25.534-1.735-36.634-6.656-25.352-25.386-44.582-55.667-57.156-25.908-10.758-50.1-12.572-71.911-5.394-23.009,7.573-43.243,25.155-60.142,52.255Z" transform="translate(-9598.411 -2004.936)" fill="#25468f"/>
        <path id="Path_2857" data-name="Path 2857" d="M9712.687,2210.113c-16.609,0-35.019-4.757-54.718-14.14-26.755-12.744-47.643-37.169-55.876-65.337-7.058-24.146-4.053-48.5,8.461-68.565,17.071-27.375,37.548-45.146,60.864-52.821,22.124-7.282,46.634-5.455,72.848,5.429,30.69,12.743,49.684,32.276,56.454,58.057,2.959,11.27,3.555,23.771,1.767,37.154a158.756,158.756,0,0,1-10.688,38.566c-5.781,14.194-12.988,26.171-21.421,35.6a74.819,74.819,0,0,1-57.69,26.059Zm-100.522-147.039c-12.225,19.6-15.154,43.408-8.251,67.03,8.084,27.657,28.6,51.642,54.87,64.156,31.11,14.817,58.437,17.853,81.224,9.022a75.392,75.392,0,0,0,28.957-20.493c8.286-9.264,15.379-21.055,21.078-35.047a157.005,157.005,0,0,0,10.565-38.1c1.754-13.137,1.175-25.391-1.724-36.421-6.61-25.177-25.23-44.283-55.344-56.786-25.784-10.706-49.85-12.516-71.529-5.38C9649.128,2018.584,9628.993,2036.086,9612.164,2063.074Z" transform="translate(-9598.356 -2004.881)" fill="#25468f"/>
      </g>
    </g>
    <g id="Group_3274" data-name="Group 3274" transform="translate(14.065)">
      <g id="Group_3273" data-name="Group 3273">
        <path id="Path_2858" data-name="Path 2858" d="M9719.427,2215.383c-24.024,0-48.7-11.546-73.441-34.378-22.426-20.7-35.519-51.095-35.021-81.312.426-25.875,10.8-48.879,29.2-64.776l.269.312-.269-.312c25.171-21.741,50.747-32.984,76.018-33.418,23.958-.413,47.517,8.868,69.989,27.582,26.29,21.893,39.01,46.877,37.8,74.256-.527,11.977-3.756,24.447-9.6,37.064a163.857,163.857,0,0,1-22.322,34.731c-10.029,12.21-20.778,21.8-31.951,28.5a79.42,79.42,0,0,1-35.539,11.576Q9722,2215.381,9719.427,2215.383Zm-1.72-213.074c-.5,0-1,0-1.511.013-25.071.43-50.473,11.606-75.493,33.218-18.225,15.741-28.493,38.529-28.915,64.167-.494,29.986,12.5,60.151,34.756,80.693,26.334,24.3,52.563,35.739,77.967,33.984a78.6,78.6,0,0,0,35.171-11.459c11.091-6.652,21.77-16.177,31.738-28.315a162.983,162.983,0,0,0,22.211-34.554c5.795-12.52,9-24.885,9.521-36.755,1.194-27.108-11.426-51.867-37.509-73.587C9763.8,2011.525,9740.951,2002.309,9717.707,2002.309Z" transform="translate(-9610.399 -2000.934)" fill="#25468f"/>
        <path id="Path_2859" data-name="Path 2859" d="M9719.372,2215.878h0c-24.156,0-48.991-11.615-73.814-34.524-22.54-20.8-35.7-51.355-35.2-81.726.426-25.838,10.71-48.836,28.976-64.822l0,0,.834-.719h0c25.138-21.593,50.688-32.759,75.952-33.193,24.1-.417,47.771,8.908,70.35,27.71,26.431,22.009,39.217,47.144,38,74.7-.531,12.049-3.777,24.589-9.647,37.271a164.333,164.333,0,0,1-22.4,34.85c-10.067,12.259-20.866,21.888-32.094,28.621a79.96,79.96,0,0,1-35.783,11.652c-1.713.118-3.455.178-5.178.178Zm-1.72-213.073c-.5,0-1,0-1.5.014-24.94.427-50.222,11.558-75.144,33.083-18.1,15.637-28.306,38.281-28.725,63.759-.491,29.831,12.437,59.842,34.58,80.28,24.476,22.589,48.844,34.012,72.511,34.012q2.528,0,5.044-.173a78.072,78.072,0,0,0,34.926-11.384c11.038-6.619,21.668-16.1,31.6-28.191a162.519,162.519,0,0,0,22.137-34.436c5.764-12.452,8.95-24.749,9.471-36.547,1.187-26.928-11.367-51.536-37.311-73.14C9763.5,2011.982,9740.763,2002.8,9717.652,2002.8Z" transform="translate(-9610.346 -2000.879)" fill="#25468f"/>
      </g>
    </g>
    <g id="Group_3276" data-name="Group 3276" transform="translate(0 1.51)">
      <g id="Group_3275" data-name="Group 3275">
        <path id="Path_2860" data-name="Path 2860" d="M9688.376,2213.767a76.65,76.65,0,0,1-26.831-4.695c-24.091-8.944-43.444-30.317-57.525-63.526-11.913-28.1-11.326-61.188,1.57-88.519,11.044-23.4,29.967-40.1,53.284-47,31.892-9.447,59.827-9.16,83.034.851,22.012,9.5,39.648,27.648,52.421,53.956,14.943,30.778,16.245,58.782,3.871,83.236-5.412,10.7-13.489,20.731-24.007,29.823a163.878,163.878,0,0,1-34.645,22.457c-14.167,7-27.911,11.307-40.852,12.812A89.256,89.256,0,0,1,9688.376,2213.767Zm-29.384-203.35.116.395c-23.09,6.84-41.832,23.378-52.774,46.566-12.8,27.122-13.379,59.962-1.556,87.846,13.988,32.992,33.185,54.213,57.053,63.076a78.6,78.6,0,0,0,36.771,4.04c12.847-1.493,26.5-5.777,40.583-12.731a163.053,163.053,0,0,0,34.469-22.343c10.438-9.022,18.448-18.971,23.813-29.572,12.251-24.213,10.947-51.97-3.878-82.5-12.683-26.125-30.181-44.145-52-53.561-23.026-9.932-50.773-10.208-82.475-.818Z" transform="translate(-9594.934 -2002.595)" fill="#25468f"/>
        <path id="Path_2861" data-name="Path 2861" d="M9688.321,2214.263a77.354,77.354,0,0,1-27.022-4.73c-24.238-9-43.7-30.474-57.841-63.827-11.974-28.24-11.384-61.5,1.579-88.969,11.111-23.548,30.156-40.344,53.626-47.3,32.019-9.484,60.081-9.19,83.408.873,22.137,9.549,39.866,27.792,52.7,54.222,15.021,30.94,16.322,59.109,3.866,83.724-5.445,10.762-13.566,20.852-24.139,29.991a164.415,164.415,0,0,1-34.76,22.534c-14.225,7.025-28.028,11.354-41.033,12.866A90.21,90.21,0,0,1,9688.321,2214.263Zm-29.111-202.978c-22.937,6.795-41.558,23.228-52.433,46.273-12.732,26.982-13.311,59.654-1.547,87.4,13.927,32.847,33.017,53.967,56.738,62.774a78.06,78.06,0,0,0,36.515,4.01c12.783-1.486,26.376-5.752,40.4-12.68a162.506,162.506,0,0,0,34.354-22.264c10.382-8.976,18.35-18.869,23.681-29.4,12.17-24.05,10.864-51.644-3.882-82.015-12.624-26-30.028-43.933-51.729-53.3C9718.405,2002.2,9690.782,2001.932,9659.21,2011.285Z" transform="translate(-9594.879 -2002.54)" fill="#25468f"/>
      </g>
    </g>
    <g id="Group_3278" data-name="Group 3278" transform="translate(18.942 3.466)">
      <g id="Group_3277" data-name="Group 3277">
        <path id="Path_2862" data-name="Path 2862" d="M9716.527,2205.17c-29.479,0-54.431-15.476-73.874-37.252-16.65-18.646-28.616-39.294-25.966-62.635,3.624-31.923,14.413-56.66,32.068-73.524,16.744-15.995,39.539-24.834,67.751-26.272,33.007-1.682,58.4,7.718,75.484,27.943,7.472,8.848,13.35,19.815,17.47,32.6a158.382,158.382,0,0,1,6.908,39.278c.88,15.238-.471,29.087-4.012,41.163a76.7,76.7,0,0,1-17.644,31.5C9777.676,2196.018,9751.37,2205.17,9716.527,2205.17Zm-99.444-99.842.395.044c-2.623,23.113,10,43.743,26.5,62.218,19.294,21.61,43.291,36.785,72.548,36.785,34.615,0,60.727-9.069,77.608-26.954a75.941,75.941,0,0,0,17.459-31.178c3.516-11.988,4.854-25.746,3.979-40.892a157.537,157.537,0,0,0-6.87-39.08c-4.089-12.683-9.916-23.559-17.321-32.327-16.912-20.025-42.09-29.333-74.835-27.663-28.017,1.429-50.641,10.195-67.243,26.054-17.517,16.731-28.224,41.3-31.827,73.038Z" transform="translate(-9615.764 -2004.745)" fill="#25468f"/>
        <path id="Path_2863" data-name="Path 2863" d="M9716.472,2205.667a86.317,86.317,0,0,1-40.961-10.525c-11.781-6.286-22.993-15.341-33.323-26.911-9.32-10.438-15.965-20.152-20.312-29.7-5.159-11.329-7.054-22.243-5.791-33.368,3.64-32.055,14.484-56.905,32.234-73.859,16.843-16.089,39.757-24.979,68.1-26.425,33.189-1.69,58.734,7.776,75.933,28.138,7.518,8.9,13.431,19.932,17.572,32.783a158.8,158.8,0,0,1,6.934,39.416c.884,15.3-.472,29.212-4.031,41.348a77.259,77.259,0,0,1-17.772,31.723C9777.912,2196.456,9751.472,2205.667,9716.472,2205.667Zm-98.5-100.286c-2.217,19.528,6.16,39.162,26.364,61.789,21.685,24.286,45.955,36.6,72.138,36.6,34.456,0,60.434-9.011,77.209-26.782a75.4,75.4,0,0,0,17.33-30.954c3.5-11.927,4.83-25.623,3.959-40.705a156.891,156.891,0,0,0-6.847-38.943c-4.066-12.615-9.857-23.429-17.217-32.141-16.795-19.887-41.819-29.13-74.387-27.468-27.879,1.422-50.385,10.137-66.891,25.9C9632.209,2049.318,9621.558,2073.779,9617.97,2105.38Zm5.434,33.826c4.3,9.081,10.728,18.349,19.6,28.29a140.858,140.858,0,0,0,11.691,11.679,145.761,145.761,0,0,1-11.187-11.273C9634.533,2157.847,9627.865,2148.364,9623.4,2139.207Z" transform="translate(-9615.707 -2004.69)" fill="#25468f"/>
      </g>
    </g>
  </g>
  <g id="Group_3280" data-name="Group 3280" transform="translate(450.766 193.581)">
    <path id="Path_2864" data-name="Path 2864" d="M9701.243,2162.064c-.049.086-.1.177-.149.265-1.2,2.079-3.941,7.174-6.963,12.749-1.431,2.646-2.927,5.4-4.348,7.99-2.446,4.471-4.673,8.453-5.971,10.558-1.321,2.14-2.294,3.643-2.687,4.244l0,0a1,1,0,0,0-.129.621,32.425,32.425,0,0,1-.086,5.607,43.009,43.009,0,0,1-14.054,27.856l-3.637.538s5.146-19.065,6.663-29.844a20.679,20.679,0,0,0,.277-4.272c-.269-2.809.23-6.931,1.174-11.665a261.546,261.546,0,0,1,7.438-27c.168-.528,5.282-19.027,5.282-19.027,4.292,3.751,19.948,5.3,19.948,5.3S9706.654,2152.44,9701.243,2162.064Z" transform="translate(-9624.873 -2084.343)" fill="#ff912b"/>
    <path id="Path_2865" data-name="Path 2865" d="M9654.826,2245.854H9670a8.336,8.336,0,0,0-.428-4.068c-.761-1.684-1.844-1.738-.139-4.377-.965.993-4.065,1.4-6.259,1.109-.27.436-1.734,3.36-2.632,4.005C9659.555,2243.235,9655.132,2242.981,9654.826,2245.854Z" transform="translate(-9624.113 -2093.1)" fill="#0d57aa"/>
    <path id="Path_2866" data-name="Path 2866" d="M9703.95,2163.3c-.049.086-.1.177-.149.265-1.2,2.079-7.667,14.029-10.688,19.6,3.5-14.409,1.066-28.818,1.066-28.818Z" transform="translate(-9627.58 -2085.58)" fill="#fc7600"/>
    <path id="Path_2867" data-name="Path 2867" d="M9640.616,2085.281s-.6-6.548,6.717-6.548a8.607,8.607,0,0,0-3.365,1.8s4.667-2.739,9.746,1.47,1.923,14.769,3.468,16.773,7.558,2.406,6.823,8.888-19.088,14.6-17.909,19.963c0,0-7.191-10.572-2.049-15.4,0,0-2.508,2.362-2.764,5.168,0,0-.678-5.479,2.808-7.232,3.086-1.552,5.614-7.224,5.347-8.238S9640.616,2085.281,9640.616,2085.281Z" transform="translate(-9622.825 -2078.733)" fill="#1e2d52"/>
    <path id="Path_2868" data-name="Path 2868" d="M9649.175,2116.171s-10.41,26.27-12.654,25.3-15.465-5.171-15.465-5.171a29.139,29.139,0,0,0,.686,3.913c1.937,1.534,11.669,9.041,17.5,9.424,6.474.424,15.242-18.65,15.242-18.65Z" transform="translate(-9621.056 -2082.123)" fill="#ffae73"/>
    <path id="Path_2869" data-name="Path 2869" d="M9642.064,2084.91c-.1-.4,8.669,3.963,9.113,4.456,4.112,4.562,2.94,10.513.587,10.571-1.509.037-1.217,2.545-1.217,2.545l-16.811-7.111S9635.762,2083.567,9642.064,2084.91Z" transform="translate(-9622.204 -2079.283)" fill="#1e2d52"/>
    <path id="Path_2870" data-name="Path 2870" d="M9648.883,2116.772s-2.239,2.319-2.239,9.258c0,0,3.084,4.869,11.085,6.1C9657.729,2132.132,9650.85,2116.768,9648.883,2116.772Z" transform="translate(-9623.372 -2082.177)" fill="#0d458e"/>
    <path id="Path_2871" data-name="Path 2871" d="M9692.014,2146.8l-.051-2.839c5.654.713,19.5-6.758,19.5-6.758s5.917,3.935,6.726,15.173c.4,5.486,2.9,28.685,3.174,35.611.1,2.511.135,4.3.146,5.019a.011.011,0,0,0,0,.007.984.984,0,0,0,.239.585,32.422,32.422,0,0,1,3.065,4.7c8.63,16.057,4.117,37.875,4.117,37.875l-2-.509s-7.3-22.618-12.065-32.4a20.513,20.513,0,0,0-2.16-3.7c-1.793-2.178-3.685-5.877-5.549-10.328C9703.629,2180.82,9692.014,2146.8,9692.014,2146.8Z" transform="translate(-9627.476 -2084.027)" fill="#ff912b"/>
    <path id="Path_2872" data-name="Path 2872" d="M9719.34,2245.843h15.178a8.335,8.335,0,0,0-.43-4.068c-.76-1.684-1.949-2.45-1.664-4.487a5.464,5.464,0,0,1-4.73,1.81,16.551,16.551,0,0,1-2.635,3.414C9724.068,2243.224,9719.645,2242.97,9719.34,2245.843Z" transform="translate(-9629.955 -2093.089)" fill="#0d57aa"/>
    <path id="Path_2873" data-name="Path 2873" d="M9658.977,2134.473c2.038.348-.333,1.968,2.471,2.272,3.991.436,8.111.734,10.27,1.6a2.315,2.315,0,0,1,1.479,1.2c.936,2.814,5.06,7.155,5.06,7.155,26.428-1.2,29.329-12.257,29.329-12.257-17.153-16.659-32.923-26.483-44.965-27.783-2.061-.223-4.667,1.086-6.523,1.912-4.218,1.878-6.989,7.289-6.989,7.289S9651.23,2133.151,9658.977,2134.473Z" transform="translate(-9623.596 -2081.259)" fill="#0d458e"/>
    <path id="Path_2874" data-name="Path 2874" d="M9662.676,2137.6c3.991.436,8.111.734,10.27,1.6a42.081,42.081,0,0,0-5.337-23.095S9663.55,2132.616,9662.676,2137.6Z" transform="translate(-9624.824 -2082.117)" fill="#0b3563"/>
    <path id="Path_2875" data-name="Path 2875" d="M9658.179,2113.649s10.036-.548,11.819,5.753-3.346,31.451-4.45,34.046c-2.013,4.726-11.81,18.214-11.81,18.214l-2.7-1.388s5.631-20.316,7.09-22.354C9660.415,2144.72,9655.176,2116.39,9658.179,2113.649Z" transform="translate(-9623.771 -2081.893)" fill="#ffae73"/>
    <path id="Path_2876" data-name="Path 2876" d="M9651.428,2173.841a12.425,12.425,0,0,1-2.476,4.6,8.207,8.207,0,0,0-1.46,4.19s-.123.967.3.871.893-2.191,1.643-2.087a14.474,14.474,0,0,1-.8,3c-.4.659-.633,2.7-.068,2.948,1.368.6,3.392-1.978,4.6-3.6s.019-8.187.019-8.187Z" transform="translate(-9623.448 -2087.344)" fill="#ffae73"/>
    <path id="Path_2877" data-name="Path 2877" d="M9672.359,2127.642c-.026.148-9.5,1.743-15.42-1.264,0,0-4.95-15.5,2.123-14.761s11.259,2.969,11.437,6.355A65.18,65.18,0,0,0,9672.359,2127.642Z" transform="translate(-9624.152 -2081.708)" fill="#0d458e"/>
    <path id="Path_2878" data-name="Path 2878" d="M9655.707,2108.233s-2.791,10.411-6.989,7.289c.117-.5-.615-1.963-1.478-3.448-1.1-1.9-2.418-3.834-2.418-3.834l5.681-4.976.338-.3A15.023,15.023,0,0,0,9655.707,2108.233Z" transform="translate(-9623.208 -2080.927)" fill="#ffae73"/>
    <path id="Path_2879" data-name="Path 2879" d="M9644.824,2108.271s1.311,1.934,2.416,3.833c3.529-2.177,3.533-6.547,3.262-8.812Z" transform="translate(-9623.209 -2080.957)" fill="#f99352"/>
    <path id="Path_2880" data-name="Path 2880" d="M9643.729,2109.754s8.572-4.77,5.52-10.063-4-9.473-9.605-6.651-5.49,5.449-4.9,7.463S9641.42,2110.858,9643.729,2109.754Z" transform="translate(-9622.271 -2079.946)" fill="#ffae73"/>
    <path id="Path_2881" data-name="Path 2881" d="M9633.17,2097.345c.393-2.35,1.587-2.575,2.419-2.417a6.856,6.856,0,0,1,8.338-3.192,11.668,11.668,0,0,0,6.756,4.058s-.994,1.852-5.093,3a7,7,0,0,1-4.043-.323,22.884,22.884,0,0,0,5.817,2.192c-5.4.5-10.54-4.443-11.074-4.972a7.689,7.689,0,0,0-.425,3.539c.355,1.592,1.769,4.474.906,4.848C9636.771,2104.075,9632.582,2100.87,9633.17,2097.345Z" transform="translate(-9622.148 -2079.875)" fill="#1e2d52"/>
  </g>
  <path id="Path_2882" data-name="Path 2882" d="M9622.612,2139.342a2.834,2.834,0,0,1-3.089-.909c-.8-.811-2.223-1.251-1.486-1.686s2.7.459,3.164.616S9622.612,2139.342,9622.612,2139.342Z" transform="translate(-9169.997 -1890.395)" fill="#ffae73"/>
  <g id="Group_3282" data-name="Group 3282" transform="translate(509.069 41.402)">
    <path id="Path_2883" data-name="Path 2883" d="M9686.11,1944.861c4.6-17.9,12.389-33.458,33.459-33.458,18.478,0,35.237,16.278,34.02,36.338-1.12,18.445-17.137,34.067-36.744,31.872C9698.481,1977.556,9680.838,1965.352,9686.11,1944.861Z" transform="translate(-9685.163 -1911.403)" fill="#a8ccff"/>
    <g id="Group_3281" data-name="Group 3281" transform="translate(29.436 9.497)" opacity="0.8">
      <path id="Path_2884" data-name="Path 2884" d="M9717.529,1968.575a4.866,4.866,0,0,1,.331-1.813,4.4,4.4,0,0,1,.94-1.463,4.185,4.185,0,0,1,1.5-.976,6.136,6.136,0,0,1,4.076,0,4.2,4.2,0,0,1,1.5.976,4.43,4.43,0,0,1,.941,1.463,4.905,4.905,0,0,1,.33,1.813,4.413,4.413,0,0,1-1.255,3.206,5.541,5.541,0,0,1-7.107,0A4.417,4.417,0,0,1,9717.529,1968.575Zm8.327-10.942h-7.282l-.8-35.788h8.921Z" transform="translate(-9717.529 -1921.845)" fill="#fff"/>
    </g>
  </g>
  <g id="Group_3292" data-name="Group 3292" transform="translate(288.62 36.679)">
    <path id="Path_2885" data-name="Path 2885" d="M9444.891,1981.335c10.339-40.181,27.817-75.125,75.126-75.125,41.491,0,79.124,36.55,76.389,81.592-2.515,41.415-38.479,76.494-82.5,71.564C9472.669,2054.748,9433.053,2027.345,9444.891,1981.335Z" transform="translate(-9442.765 -1906.21)" fill="#a8ccff"/>
    <g id="Group_3288" data-name="Group 3288" transform="translate(45.614 38.931)">
      <path id="Path_2886" data-name="Path 2886" d="M9556.448,1980.59a31.64,31.64,0,0,1-7.2,20.338,26.577,26.577,0,0,0-6.112,16.855v8.88a10.279,10.279,0,0,1-10.248,10.248h-16.4a10.277,10.277,0,0,1-10.246-10.248V2017.8a26.483,26.483,0,0,0-6.082-16.832,31.772,31.772,0,0,1,17.606-51.19c.4-.09.811-.172,1.222-.245.218-.04.436-.077.655-.112a31.777,31.777,0,0,1,36.81,31.172Z" transform="translate(-9492.921 -1949.017)" fill="#fddbba"/>
      <path id="Path_2887" data-name="Path 2887" d="M9535.031,2045.661l-.035.273-.45,3.454-.119.91v.007l-.12.916-.448,3.453-.119.91,0,.008-.118.917-.066.506c-.229,1.753-2.231,3.09-4.626,3.09h-5.4a6.168,6.168,0,0,1-1.623-.214h0a5.262,5.262,0,0,1-1.257-.523l-.029-.017a4.176,4.176,0,0,1-.818-.623,2.958,2.958,0,0,1-.894-1.681l-.19-1.339-.123-.843v0l0-.018v0l-.118-.825-.458-3.2-.12-.84,0-.018-.118-.829-.5-3.469Z" transform="translate(-9495.126 -1957.768)" fill="#fc7600"/>
      <g id="Group_3283" data-name="Group 3283" transform="translate(22.648 87.893)">
        <path id="Path_2888" data-name="Path 2888" d="M9532.939,2045.661h-3.051c-4.922,1.423-9.8,2.83-12.065,3.469l.118.829,0,.018.12.84c1.831-.508,6.23-1.767,16.98-4.884l.035-.273Z" transform="translate(-9517.823 -2045.661)" fill="#ff912b"/>
        <path id="Path_2889" data-name="Path 2889" d="M9518.711,2055.215v0l0,.018v0l.123.843c2.118-.595,6.487-1.849,15.59-4.487l.12-.916v-.007l.119-.91c-5.752,1.666-12.714,3.677-16.072,4.631Z" transform="translate(-9517.893 -2046.032)" fill="#ff912b"/>
        <path id="Path_2890" data-name="Path 2890" d="M9520.87,2060.249l.029.017a5.272,5.272,0,0,0,1.257.523h0c2.5-.716,6.2-1.786,11.712-3.382l.118-.917,0-.008.119-.909c-4.923,1.424-10.568,3.056-14.058,4.053A4.2,4.2,0,0,0,9520.87,2060.249Z" transform="translate(-9518.025 -2046.558)" fill="#ff912b"/>
      </g>
      <g id="Group_3287" data-name="Group 3287" transform="translate(18.477 46.459)">
        <g id="Group_3284" data-name="Group 3284" transform="translate(0 0.677)">
          <rect id="Rectangle_237" data-name="Rectangle 237" width="1.437" height="41.217" transform="translate(0 0.24) rotate(-9.615)" fill="#fc7600"/>
        </g>
        <g id="Group_3285" data-name="Group 3285" transform="translate(17.638 1.308)">
          <rect id="Rectangle_238" data-name="Rectangle 238" width="40.662" height="1.437" transform="matrix(0.18, -0.984, 0.984, 0.18, 0, 39.998)" fill="#fc7600"/>
        </g>
        <g id="Group_3286" data-name="Group 3286" transform="translate(0.696)">
          <path id="Path_2891" data-name="Path 2891" d="M9530.384,2008.27a2.8,2.8,0,0,1-.62-.076.89.89,0,0,1-.7-.77c-.163-.9.542-2.545,1.53-3.94a3.871,3.871,0,0,0-1.928-1.865c-1.066-.324-2.7.661-3.843,1.919a8.49,8.49,0,0,1,.561.913c.585,1.1,1,2.513.43,3.165-.213.241-.647.46-1.51.135a1.79,1.79,0,0,1-1.062-2.5,5.758,5.758,0,0,1,1.021-1.743c-.883-1.151-2.062-2.026-3.225-1.88a3.581,3.581,0,0,0-1.6.6,4.805,4.805,0,0,1,.4,4.082,1.294,1.294,0,0,1-1.728.573c-.549-.195-.835-.949-.729-1.922a4.447,4.447,0,0,1,1.49-2.843,3.694,3.694,0,0,0-.825-.927,2.739,2.739,0,0,0-3.729.186l-.312-.3a3.219,3.219,0,0,1,4.308-.227,4.125,4.125,0,0,1,.905,1.006,4,4,0,0,1,1.765-.658c1.3-.164,2.6.756,3.568,1.979,1.24-1.348,3.007-2.344,4.239-1.972a4.155,4.155,0,0,1,2.074,1.913,7.489,7.489,0,0,1,1.672-1.644c.907-.6,1.5-.463,1.835-.242a3.293,3.293,0,0,1,.881.881,4.892,4.892,0,0,1,.844-.543,2.382,2.382,0,0,1,2.719.108l-.282.332a2.04,2.04,0,0,0-2.243-.051,4.52,4.52,0,0,0-.808.523,4.6,4.6,0,0,1,.434,3.7.918.918,0,0,1-1.229.482,1.633,1.633,0,0,1-1.209-1.49,3.919,3.919,0,0,1,1.438-2.777,2.84,2.84,0,0,0-.784-.806c-.41-.27-.963-.018-1.355.241a7.355,7.355,0,0,0-1.68,1.69,5.665,5.665,0,0,1,.743,3.62A1.409,1.409,0,0,1,9530.384,2008.27Zm.432-4.36c-.86,1.255-1.467,2.675-1.328,3.436a.468.468,0,0,0,.373.424c.852.194,1.375-.055,1.556-.739A5.071,5.071,0,0,0,9530.815,2003.91Zm-6.287-.032a5.169,5.169,0,0,0-.878,1.511,1.354,1.354,0,0,0,.8,1.954c.347.131.808.235,1.029-.015.342-.388.141-1.487-.488-2.674A8.218,8.218,0,0,0,9524.528,2003.878Zm-5.437-1.378a4,4,0,0,0-1.28,2.506c-.081.742.1,1.344.442,1.466a.879.879,0,0,0,1.2-.373A4.35,4.35,0,0,0,9519.092,2002.5Zm16.046.277a3.484,3.484,0,0,0-1.229,2.373,1.223,1.223,0,0,0,.924,1.105.492.492,0,0,0,.692-.269A4.166,4.166,0,0,0,9535.138,2002.777Z" transform="translate(-9514.003 -2000.101)" fill="#fc7600"/>
        </g>
      </g>
      <path id="Path_2892" data-name="Path 2892" d="M9544.854,1962.13c2.612,2.46,2.283,6.987-1.075,7.994a7.4,7.4,0,0,1-8.175-3.487c-1.866-3.232-1.007-5.889,1.284-7.211S9542.137,1959.57,9544.854,1962.13Z" transform="translate(-9496.693 -1949.915)" fill="#ffefe0"/>
    </g>
    <g id="Group_3291" data-name="Group 3291" transform="translate(18.032 16.659)">
      <rect id="Rectangle_239" data-name="Rectangle 239" width="2.325" height="14.538" rx="1.163" transform="translate(57.334 1.761)" fill="#ffefe0"/>
      <g id="Group_3289" data-name="Group 3289" transform="translate(78.306)">
        <path id="Rectangle_240" data-name="Rectangle 240" d="M1.163,0h0A1.162,1.162,0,0,1,2.325,1.162V7.915A1.163,1.163,0,0,1,1.163,9.077h0A1.163,1.163,0,0,1,0,7.915V1.163A1.163,1.163,0,0,1,1.163,0Z" transform="matrix(0.5, 0.866, -0.866, 0.5, 25.4, 25.162)" fill="#ffefe0"/>
        <path id="Path_2893" data-name="Path 2893" d="M9573.322,1977.582h0a1.166,1.166,0,0,1,1.162-1.162H9590a1.167,1.167,0,0,1,1.164,1.162h0a1.167,1.167,0,0,1-1.164,1.163h-15.52A1.166,1.166,0,0,1,9573.322,1977.582Z" transform="translate(-9550.925 -1929.226)" fill="#ffefe0"/>
        <path id="Path_2894" data-name="Path 2894" d="M9549.4,1946.072h0a1.167,1.167,0,0,1-.613-1.525l8.239-19.314a1.166,1.166,0,0,1,1.525-.613h0a1.168,1.168,0,0,1,.613,1.526l-8.238,19.313A1.168,1.168,0,0,1,9549.4,1946.072Z" transform="translate(-9548.695 -1924.527)" fill="#ffefe0"/>
      </g>
      <g id="Group_3290" data-name="Group 3290">
        <path id="Rectangle_241" data-name="Rectangle 241" d="M1.095,0h.136A1.094,1.094,0,0,1,2.325,1.094V7.983A1.094,1.094,0,0,1,1.231,9.078H1.095A1.095,1.095,0,0,1,0,7.983V1.095A1.095,1.095,0,0,1,1.095,0Z" transform="matrix(0.5, -0.866, 0.866, 0.5, 13.679, 27.176)" fill="#ffefe0"/>
        <path id="Path_2895" data-name="Path 2895" d="M9480.438,1977.582h0a1.165,1.165,0,0,0-1.162-1.162h-15.52a1.165,1.165,0,0,0-1.163,1.162h0a1.166,1.166,0,0,0,1.163,1.163h15.52A1.166,1.166,0,0,0,9480.438,1977.582Z" transform="translate(-9462.593 -1929.226)" fill="#ffefe0"/>
        <path id="Path_2896" data-name="Path 2896" d="M9505.084,1946.072h0a1.167,1.167,0,0,0,.613-1.525l-8.239-19.314a1.166,1.166,0,0,0-1.525-.613h0a1.168,1.168,0,0,0-.613,1.526l8.238,19.313A1.167,1.167,0,0,0,9505.084,1946.072Z" transform="translate(-9465.548 -1924.527)" fill="#ffefe0"/>
      </g>
    </g>
  </g>
  <g id="Group_3293" data-name="Group 3293" transform="translate(296.161 161.445)">
    <path id="Path_2897" data-name="Path 2897" d="M9492.921,2048.82c.016-.439.356-5.175,7.569-5.422,0,0-3.547.423-4.16,1.983,0,0,2.415-1.927,4.383-1.307s3.121,4.065,3.132,5.2-1.08,4.787-2.328,5.1a3.81,3.81,0,0,1-1.512,0,16.893,16.893,0,0,1,.968,1.729c2.879,5.909-.09,11.682-2.525,11.044-1.562-.409-2.006,2.257-2.006,2.257l-15.182-12.29S9486.836,2045.573,9492.921,2048.82Z" transform="translate(-9453.792 -2043.398)" fill="#2a3967"/>
    <path id="Path_2898" data-name="Path 2898" d="M9488.27,2230.766l3.226,1.2s14.006-19.426,15.73-36.518a25.972,25.972,0,0,0-.46-8.738s.136-.782.375-2.165c.111-.645.249-1.421.4-2.311.456-2.609,1.083-6.18,1.8-10.245,1.647-9.354,3.782-21.312,5.44-30.1l-.869-.279-9.4-3.033-1.942-6.172-7-1.843s-1.563,3.059-2.961,17.51c-.259,1.9-.493,3.985-.67,6.253a123.721,123.721,0,0,0,.667,25.314q.48,3.768,1.229,7.769a34.64,34.64,0,0,1,.268,7.672C9493.4,2209.052,9488.27,2230.766,9488.27,2230.766Z" transform="translate(-9454.427 -2051.29)" fill="#0d458e"/>
    <path id="Path_2899" data-name="Path 2899" d="M9492.3,2154.006l15.2,30.221c.111-.645.249-1.421.4-2.311.456-2.609,1.083-6.18,1.8-10.245,1.647-9.354,3.782-21.312,5.44-30.1l-.869-.279-9.4-3.033-1.942-6.172-9.091-5.041s0,1.408-.792,16.782C9492.8,2145.722,9492.481,2151.739,9492.3,2154.006Z" transform="translate(-9454.792 -2050.972)" fill="#0b3563"/>
    <path id="Path_2900" data-name="Path 2900" d="M9499.659,2133.951l.352-3.018c5.9,1.566,22.331-5.758,22.331-5.758s5.029,6.4,4.278,18.438c-.365,5.873-1.034,30.834-1.731,38.221-.253,2.677-.475,4.582-.564,5.343v.007a1.048,1.048,0,0,0,.17.654,34.585,34.585,0,0,1,2.577,5.42c6.854,18.263-1.056,40.756-1.056,40.756l-2.052-.828s-4.5-25.031-8.158-36.089a21.816,21.816,0,0,0-1.762-4.23c-1.59-2.566-3.066-6.76-4.4-11.747a288.548,288.548,0,0,1-5.925-31.164A92.919,92.919,0,0,0,9499.659,2133.951Z" transform="translate(-9455.458 -2050.802)" fill="#0d458e"/>
    <path id="Path_2901" data-name="Path 2901" d="M9453.613,2119.622l-.458,3.469s2.09-.279,2.432-.3c1.072-.073,4.25-.279,7.2-.6,4.442-.438,7.66-.541,9.76-1.834,3.2-1.952,8.444-7.931,11.86-13.91a3.785,3.785,0,0,0,.243-.439c1.782-3.173,3.027-6.321,3.124-8.834a12.584,12.584,0,0,0-.415-4,10.2,10.2,0,0,0-1.806-3.611,1.8,1.8,0,0,0-.341-.415,8.416,8.416,0,0,0-2.318-1.977c-.587-.244-2.531,2.115-3.191,2.824l-.55,1.635c-.537.561-6.432,19.513-9.092,22.466-1.147,1.269-6.49,3.263-11.357,4.612A23.046,23.046,0,0,1,9453.613,2119.622Z" transform="translate(-9451.247 -2047.359)" fill="#ff9c60"/>
    <path id="Path_2902" data-name="Path 2902" d="M9487.274,2092.392a18.343,18.343,0,0,0,6.79,1.591c10.136.556,12.437-8.33,12.855-14.228a8.511,8.511,0,0,0-3.478-.44c-.588.033-1.2.088-1.739.148a.976.976,0,0,1-.715-.2c-1.275-1-3.22-4.035-4.388-8.815l-.438.2-7.313,3.439s.777,2.38,1.351,4.657a23.917,23.917,0,0,1,.549,2.706,1.6,1.6,0,0,1-.97,1.662h0l0,.007A50.329,50.329,0,0,0,9487.274,2092.392Z" transform="translate(-9454.337 -2045.847)" fill="#ffae73"/>
    <path id="Path_2903" data-name="Path 2903" d="M9523,2124.383c-.083,3.75-26.484,7.073-31.027,4.556,0,0-1.179-5.682-2.679-12.07-.451-1.922-.934-3.9-1.418-5.818a76.331,76.331,0,0,0-3.222-10.542c-.094-.2-.175-.4-.252-.6-2.024-5.363,1.764-11.1-.853-12.794,0,0,1.551-1.429,5.891-3.133l0,.008c-.069.253-.454,3.813.289,5.207,1.467,2.753,7.2,1.313,9.818-2.084a18.5,18.5,0,0,0,3.26-5.879l.3-1.052s4.838-.655,7.556.447a20.842,20.842,0,0,0-1.469,4.9c-.038.246-.068.49-.094.736a9.837,9.837,0,0,0-.038,1.542,2.955,2.955,0,0,0,.934,1.842,14.345,14.345,0,0,0,1.949,1.616c.5.364,1.044.744,1.6,1.159a131.026,131.026,0,0,0,.4,13.323,8.968,8.968,0,0,0,1.294,3.781,9.267,9.267,0,0,0,.959,1.291C9519.05,2114.02,9523.1,2123.945,9523,2124.383Z" transform="translate(-9454 -2046.711)" fill="#ff912b"/>
    <path id="Path_2904" data-name="Path 2904" d="M9489,2074.112s.777,2.377,1.351,4.657c4.275-1.193,5.573-5.687,5.964-8.1Z" transform="translate(-9454.493 -2045.868)" fill="#f99352"/>
    <path id="Path_2905" data-name="Path 2905" d="M9487.368,2075.37s10.228-2.367,8.656-8.713-1.312-10.927-7.908-9.684-7.261,3.978-7.251,6.223S9484.667,2075.822,9487.368,2075.37Z" transform="translate(-9453.757 -2044.609)" fill="#ffae73"/>
    <path id="Path_2906" data-name="Path 2906" d="M9480.187,2059.478c1.1-2.3,2.394-2.177,3.2-1.77a7.337,7.337,0,0,1,9.52-.814,12.488,12.488,0,0,0,5.746,6.174s-1.57,1.609-6.125,1.573a7.494,7.494,0,0,1-4.062-1.53,24.485,24.485,0,0,0,5.333,3.978c-5.7-1.091-9.523-7.691-9.916-8.391a8.222,8.222,0,0,0-1.484,3.513c-.105,1.741.494,5.125-.5,5.253C9481.9,2067.464,9478.537,2062.927,9480.187,2059.478Z" transform="translate(-9453.654 -2044.493)" fill="#2a3967"/>
    <path id="Path_2907" data-name="Path 2907" d="M9483.295,2087.819s-.908.522-2.568,5.595c0,0,1.9,2.361,4.221,2.14C9484.947,2095.554,9485.256,2088.4,9483.295,2087.819Z" transform="translate(-9453.744 -2047.42)" fill="#ff912b"/>
    <path id="Path_2908" data-name="Path 2908" d="M9515.519,2245.784h16.242a8.915,8.915,0,0,0-.459-4.354c-.813-1.8-2.086-2.621-1.781-4.8a5.848,5.848,0,0,1-5.062,1.937,17.784,17.784,0,0,1-2.818,3.653C9520.579,2242.981,9515.846,2242.709,9515.519,2245.784Z" transform="translate(-9456.895 -2060.894)" fill="#0d57aa"/>
    <path id="Path_2909" data-name="Path 2909" d="M9477.173,2245.856h16.242a6.751,6.751,0,0,0-.459-4.354c-.944-1.56-.583-2.448.117-3.739a6.322,6.322,0,0,1-2.735.516,5.727,5.727,0,0,1-2.416-.85,58.941,58.941,0,0,1-4.627,4.861C9482.233,2243.053,9477.5,2242.782,9477.173,2245.856Z" transform="translate(-9453.422 -2060.967)" fill="#0d57aa"/>
    <path id="Path_2910" data-name="Path 2910" d="M9460.139,2109.828a9.963,9.963,0,0,0-2.314-2.322c-.891-.4-1.733-2.88-2.226-2.124-.3.462.459,2.178.265,2.565s-2.158-.431-2.5-.982c-.229-.369-2.255-2.813-2.3-1.686s1.723,5.448,2.595,6a23.133,23.133,0,0,0,4.171,1.293Z" transform="translate(-9451.058 -2048.974)" fill="#ffae73"/>
    <path id="Path_2911" data-name="Path 2911" d="M9507.777,2098.729c-3.672,8.984-17.807,20.113-17.807,20.113l-.246-.275c-.451-1.922-.934-3.9-1.418-5.818l15.059-14.019Z" transform="translate(-9454.431 -2048.408)" fill="#fc7600"/>
    <path id="Path_2912" data-name="Path 2912" d="M9458.958,2107.863l-.46,2.563s8.079,1.847,9.86,2.238l.022.01c3.077.611,6.548,1.241,9.571,1.559a25.657,25.657,0,0,0,5.451.066,2.976,2.976,0,0,0,.412-.079c3.461-.69,9.095-4.813,14.224-9.652.71-.667,1.4-1.344,2.076-2a66.8,66.8,0,0,0,6.405-7.261,26.225,26.225,0,0,0,2.446-3.736,11.151,11.151,0,0,0,.542-1.12c2.916-6.449.132-8.806.132-8.806-.057-.052-.112-.105-.19-.168-.515-.344-1.264-.233-2.2.223a22.2,22.2,0,0,0-4.3,3.1c-2.58,2.278-18.056,21.118-21.668,21.836C9478.146,2107.255,9458.958,2107.863,9458.958,2107.863Z" transform="translate(-9451.731 -2046.828)" fill="#ffae73"/>
    <path id="Path_2913" data-name="Path 2913" d="M9511.815,2080.533a4.912,4.912,0,0,1,3.43,4.189c.275,3.3-.154,13.528-.154,13.528s-10.309-2.956-14.508-9.261C9500.583,2088.989,9508.154,2080.615,9511.815,2080.533Z" transform="translate(-9455.542 -2046.76)" fill="#ff912b"/>
  </g>
  <rect id="Rectangle_242" data-name="Rectangle 242" width="753.123" height="3.111" rx="1.555" transform="translate(0 346.334)" fill="#2d3554"/>
</svg>
