<svg xmlns="http://www.w3.org/2000/svg" width="22.609" height="23.491" viewBox="0 0 22.609 23.491">
  <g id="Group_321" data-name="Group 321" transform="translate(-243.896 -322.399) rotate(9)">
    <path id="Path_1418" data-name="Path 1418" d="M309.074,293.2a1.451,1.451,0,0,1,2.05.079l2.628,2.838a1.45,1.45,0,0,1-.079,2.05l-1.715,1.588a2.711,2.711,0,0,1-1.809.678,9.738,9.738,0,0,1-1.623-.057,18.124,18.124,0,0,1-8.605-5.618,21.172,21.172,0,0,1-5.306-9.409,11.349,11.349,0,0,1-.085-1.995,2.05,2.05,0,0,1,.664-1.529,1.071,1.071,0,0,0,.122-.13l1.188-1.124.494-.416a1.451,1.451,0,0,1,2.05.079l2.628,2.838a1.451,1.451,0,0,1-.079,2.05L299.46,287.1a22.38,22.38,0,0,0,3.447,4.891,20.237,20.237,0,0,0,3.906,3.3Z" transform="translate(0)" fill="#fff"/>
  </g>
</svg>
