<svg xmlns="http://www.w3.org/2000/svg" xmlns:xlink="http://www.w3.org/1999/xlink" width="232.951" height="43.816" viewBox="0 0 232.951 43.816">
  <defs>
    <filter id="Path_1049" x="0" y="0" width="232.951" height="43.816" filterUnits="userSpaceOnUse">
      <feOffset dy="3" input="SourceAlpha"/>
      <feGaussianBlur stdDeviation="3" result="blur"/>
      <feFlood flood-opacity="0.161"/>
      <feComposite operator="in" in2="blur"/>
      <feComposite in="SourceGraphic"/>
    </filter>
  </defs>
  <g id="Search" transform="translate(14 10.989)">
    <g transform="matrix(1, 0, 0, 1, -14, -10.99)" filter="url(#Path_1049)">
      <path id="Path_1049-2" data-name="Path 1049" d="M254.525,188.775H81.558c-8.832,0-15.992-1.013-15.992,7.818h0c0,8.832,7.16,7.959,15.992,7.959h171.67c8.832,0,17.289.874,17.289-7.959h0C270.517,187.762,263.357,188.775,254.525,188.775Z" transform="translate(-51.57 -177.75)" fill="#fff" stroke="#fff" stroke-miterlimit="10" stroke-width="10"/>
    </g>
    <path id="Path_1050" data-name="Path 1050" d="M354.737,180.6H334.531v15.2h20.206a7.6,7.6,0,0,0,7.6-7.6h0A7.6,7.6,0,0,0,354.737,180.6Z" transform="translate(-157.385 -180.348)" fill="#5e6ab3"/>
    <path id="Path_1051" data-name="Path 1051" d="M376.4,200.938a.884.884,0,0,1-1.25,0l-1.56-1.56a4.143,4.143,0,1,1,1.25-1.25l1.56,1.56A.884.884,0,0,1,376.4,200.938Zm-5.028-7.975a2.946,2.946,0,1,0,2.946,2.947A2.947,2.947,0,0,0,371.376,192.963Z" transform="translate(-181.639 -188.637)" fill="#fff"/>
  </g>
</svg>
