<svg xmlns="http://www.w3.org/2000/svg" width="749.415" height="767.397" viewBox="0 0 749.415 767.397">
  <g id="Group_8622" data-name="Group 8622" transform="translate(-6000.862 -11801.559)">
    <g id="Group_8584" data-name="Group 8584" transform="translate(6000.887 11981.469)">
      <g id="Group_8579" data-name="Group 8579" transform="translate(221.008)">
        <path id="Path_11752" data-name="Path 11752" d="M6821.831,12254.064v399.395c0,105.018,10.066,109.2-62.59,109.2H6532.15c-26.638,0-25-28.844-25-28.844V12248.6s-6.227-35.068,33.974-35.068h212.157C6787.7,12213.533,6821.831,12207.229,6821.831,12254.064Z" transform="translate(-6506.805 -12213.25)" fill="#fff" stroke="#57607f" stroke-miterlimit="10" stroke-width="1"/>
        <path id="Path_11753" data-name="Path 11753" d="M6826.171,12387.512v384.065a20.356,20.356,0,0,1-.394,4.421,35.2,35.2,0,0,1-.881,4.062c-.729,2.713-2.441,4.46-4.49,6.433a10.636,10.636,0,0,1-7.389,3.253c-2.231.1-4.4.644-6.6.667a20.527,20.527,0,0,1-3.11-.388,8.964,8.964,0,0,0-3.276-.091H6553.817a15.91,15.91,0,0,1-5.755-.786c-1.09-.474-2.207-.827-3.3-1.341-3.627-1.713-5.205-6-5.794-9.66-.293-1.826-.181-3.726-.477-5.539a29.293,29.293,0,0,1-.321-5.047v-369.879c0-4.258-.72-8.69-.466-12.916.322-5.352,2.887-8.846,8.026-10.738a11.554,11.554,0,0,1,4.414-1l.6-.145H6810.4c1.379,0,12.974-1.529,15.8,8.223" transform="translate(-6524.178 -12303.099)" fill="#74c1e3" stroke="#57607f" stroke-miterlimit="10" stroke-width="1"/>
        <path id="Path_11754" data-name="Path 11754" d="M6824.816,13341.859c-10.928,2.342-16.039,14.807-17,21.246-1.657,11.158,2.585,18.82,13.043,23.113,10.515,4.315,21.417,4.628,30.443-2.158,8.705-6.544,11.123-17.91,7.055-28.86-4.922-13.249-19.69-17.536-32.57-13.536" transform="translate(-6676.127 -12847.912)" fill="none" stroke="#57607f" stroke-miterlimit="10" stroke-width="1"/>
        <path id="Path_11755" data-name="Path 11755" d="M6847.153,12300.621c-28,0-58.467-1.056-86.45,0-10.343.391-9.855-1.171-9.855-4.117,0-4.079,9.855-4.079,9.855-4.079h71.621c4.716,0,9.431-.487,14.146-.487,0,0,6.659-.244,6.659,4.586C6853.129,12300.354,6847.153,12300.621,6847.153,12300.621Z" transform="translate(-6644.237 -12257.563)" fill="none" stroke="#57607f" stroke-miterlimit="10" stroke-width="1"/>
        <path id="Path_11756" data-name="Path 11756" d="M6683.884,12291.024c-5.5,4.046-.1,12.153,5.937,10.251,8.781-2.766,4.564-13.975-3.833-11.869" transform="translate(-6605.24 -12255.99)" fill="none" stroke="#57607f" stroke-miterlimit="10" stroke-width="1"/>
      </g>
      <g id="Group_8583" data-name="Group 8583" transform="translate(246.845 114.997)">
        <path id="Path_11757" data-name="Path 11757" d="M6837.326,12739.9q.224-43.417.256-86.836.132-78.855.081-157.715a2.168,2.168,0,0,0-3.128-1.917,9.923,9.923,0,0,0-3.867-1.319,1.731,1.731,0,0,0-1.674-2.115c-39.9-1.48-80.084-.114-120.009-.1l-61.909.018c-21.258.006-43.427-1.779-64.546.652a1.23,1.23,0,0,0-1.174,1.259c-1.451.172-2.685.535-2.927,1.261a43.158,43.158,0,0,0-1.079,6.553v2.388a.982.982,0,0,0-1.021.987c-1.665,54.318-.595,108.82-.626,163.162q-.024,40.31.03,80.621c.041,27.135-1.039,54.583.535,81.669a1.079,1.079,0,0,0,1.869.7,1.294,1.294,0,0,0,.94.525c20.77,2.357,42.533.646,63.436.652l65.357.018c41.876.011,84.024,1.415,125.872-.1a1.771,1.771,0,0,0,1.547-2.562,1,1,0,0,0,1.2-.956C6838.708,12798.021,6837.177,12768.7,6837.326,12739.9Z" transform="translate(-6571.268 -12483.698)" fill="#e1e0e7" style="mix-blend-mode: multiply;isolation: isolate"/>
        <path id="Path_11758" data-name="Path 11758" d="M6573.273,12650.282s-6.421-2.1-6.421,5.5v207.077s-4.1,4.748,5.18,5.612,246.888-.433,246.888-.433,6.05,3.237,6.05-4.748v-206.753s3.238-6.793-6.474-6.525S6573.273,12650.282,6573.273,12650.282Z" transform="translate(-6565.95 -12574.209)" fill="#74c1e3"/>
        <path id="Path_11759" data-name="Path 11759" d="M6577.488,12476.815s-7.769-.647-8.417,1.295a43.076,43.076,0,0,0-1.08,6.554v63.856s-.7,4.046,6.42,4.046h238.964s12.733,1.619,12.733-3.453v-68.737s1.4-3.12-8.74-3.665S6577.488,12476.815,6577.488,12476.815Z" transform="translate(-6567.089 -12476.494)" fill="#fff"/>
        <path id="Path_11760" data-name="Path 11760" d="M6577.488,13149.3s-7.769-.366-8.417.732a14.914,14.914,0,0,0-1.08,3.707v36.115s-.7,2.289,6.42,2.289h238.964s12.733.915,12.733-1.953v-38.877s1.4-1.764-8.74-2.072S6577.488,13149.3,6577.488,13149.3Z" transform="translate(-6567.089 -12855.286)" fill="#fff"/>
        <path id="Path_11761" data-name="Path 11761" d="M6568.016,12502.919v325.452" transform="translate(-6567.114 -12491.375)" fill="none" stroke="#57607f" stroke-miterlimit="10" stroke-width="1"/>
        <path id="Path_11762" data-name="Path 11762" d="M6571.969,13247.927h254.665" transform="translate(-6569.339 -12910.931)" fill="none" stroke="#57607f" stroke-miterlimit="10" stroke-width="1"/>
        <path id="Path_11763" data-name="Path 11763" d="M6571.969,13149.119h254.665" transform="translate(-6569.339 -12855.286)" fill="none" stroke="#57607f" stroke-miterlimit="10" stroke-width="1"/>
        <path id="Path_11764" data-name="Path 11764" d="M6579.873,12477.23h246.464" transform="translate(-6573.791 -12476.909)" fill="none" stroke="#57607f" stroke-miterlimit="10" stroke-width="1"/>
        <path id="Path_11765" data-name="Path 11765" d="M7158.884,12816.769v-331.388" transform="translate(-6899.864 -12481.499)" fill="none" stroke="#57607f" stroke-miterlimit="10" stroke-width="1"/>
        <path id="Path_11766" data-name="Path 11766" d="M6570.487,12650.636h257.686" transform="translate(-6568.505 -12574.563)" fill="none" stroke="#57607f" stroke-miterlimit="10" stroke-width="1"/>
        <path id="Path_11767" data-name="Path 11767" d="M6608.458,12704.139s-4.316,3.24-4.316,6.159-2.158,8.8,2.805,11.385c1.7.884,177.438,2.439,183.571.431s3.795-14.35,0-16.359-36.973-2.582-90.956-2.869S6614.068,12702.523,6608.458,12704.139Z" transform="translate(-6587.195 -12603.896)" fill="#6eb5ce"/>
        <path id="Path_11768" data-name="Path 11768" d="M6608.458,12786.123s-4.316,3.24-4.316,6.158-2.158,8.8,2.805,11.386c1.7.884,149.614,2.439,155.747.431s3.795-14.35,0-16.358-9.148-2.583-63.132-2.87S6614.068,12784.508,6608.458,12786.123Z" transform="translate(-6587.195 -12650.065)" fill="#6eb5ce"/>
        <path id="Path_11769" data-name="Path 11769" d="M6608.458,12868.107s-4.316,3.239-4.316,6.158-2.158,8.8,2.805,11.385c1.7.885,177.438,2.439,183.571.432s3.795-14.35,0-16.359-36.973-2.582-90.956-2.869S6614.068,12866.492,6608.458,12868.107Z" transform="translate(-6587.195 -12696.235)" fill="#6eb5ce"/>
        <path id="Path_11770" data-name="Path 11770" d="M6608.458,12950.092s-4.316,3.238-4.316,6.158-2.158,8.8,2.805,11.385c1.7.885,177.438,2.439,183.571.43s3.795-14.349,0-16.357-36.973-2.583-90.956-2.87S6614.068,12948.475,6608.458,12950.092Z" transform="translate(-6587.195 -12742.405)" fill="#6eb5ce"/>
        <path id="Path_11771" data-name="Path 11771" d="M6608.458,13032.076s-4.316,3.239-4.316,6.158-2.158,8.8,2.805,11.385c1.7.885,213.786,2.439,219.918.43s3.795-14.349,0-16.357-73.32-2.584-127.3-2.87S6614.068,13030.459,6608.458,13032.076Z" transform="translate(-6587.195 -12788.575)" fill="#6eb5ce"/>
        <g id="Group_8580" data-name="Group 8580" transform="translate(18.767 302.405)">
          <path id="Path_11772" data-name="Path 11772" d="M6621.229,13179.178s-2.373-6.589-9.592-3.258c-6.456,2.978-.724,17.012,9.592,19.363,0,0,10.315-3.619,12.125-12.486S6624.667,13174.109,6621.229,13179.178Z" transform="translate(-6608.91 -13172.255)" fill="#e57a9e"/>
          <path id="Path_11773" data-name="Path 11773" d="M6740.054,13173.129c-1.942-1.373-26.649-3.651-24.811,3.574,0,0-.854,12.535,0,14.244.233.492,2.124.8,4.739,1.035.337,1.969.622,6.139-2.59,6.631,0,0,7.873.7,9.168-6.294,6.164.155,12.716.052,13.493-.077C6741.582,13192.035,6742,13174.476,6740.054,13173.129Zm-18.491,12.225a2.111,2.111,0,1,1,2.1-2.124A2.111,2.111,0,0,1,6721.563,13185.354Zm7.122,0a2.111,2.111,0,1,1,0-4.222,2.111,2.111,0,0,1,0,4.222Zm7.122,0a2.111,2.111,0,1,1,2.1-2.124A2.112,2.112,0,0,1,6735.807,13185.354Z" transform="translate(-6668.578 -13170.393)" fill="#d1d3d3"/>
          <path id="Path_11774" data-name="Path 11774" d="M6853.043,13186.945c-1.015-2.054-6.249-2.059-7.462,1.234l-10.269-3.49a5.583,5.583,0,0,0-.229-2.908,2.673,2.673,0,0,0-.245-.5l4.8-4.192a3.428,3.428,0,0,0,3.667.616c3.9-1.414,3.421-4.969,2.148-7.544s-9.207-1.945-7.481,4.4c0,0,.04.111.1.27l-4.957,5.209c-2.671-.627-6.659,1.9-4.692,5.931,0,0,1.758,1.99,3.5,2.017a3.37,3.37,0,0,0,2.368-1.227l11.211,4.283c.023.1.028.2.058.3,0,0,1.431,4.559,5.333,3.146S6854.316,13189.521,6853.043,13186.945Z" transform="translate(-6732.236 -13168.742)" fill="#d1d3d3"/>
        </g>
        <g id="Group_8582" data-name="Group 8582" transform="translate(12.968 7.631)">
          <g id="Group_8581" data-name="Group 8581">
            <path id="Path_11775" data-name="Path 11775" d="M6655.87,12525.308a30.051,30.051,0,0,1-10.457,22.817,30.58,30.58,0,0,1-4.805,3.393,30.1,30.1,0,0,1-12.456,3.815c-.788.067-1.6.1-2.4.1a30.117,30.117,0,1,1,30.122-30.121Z" transform="translate(-6595.636 -12494.656)" fill="#ffcd80"/>
            <path id="Path_11776" data-name="Path 11776" d="M6656.424,12515.349a9.573,9.573,0,1,0,9.573,9.573A9.574,9.574,0,0,0,6656.424,12515.349Zm.049,20.29c-8.247,0-14.9,8.994-14.9,20.1v7.141a22.249,22.249,0,0,0,24.9-.008,30.75,30.75,0,0,0,4.8-3.393v-3.74C6671.283,12544.633,6664.718,12535.639,6656.474,12535.639Z" transform="translate(-6621.507 -12506.007)" fill="#d1d3d4" style="mix-blend-mode: multiply;isolation: isolate"/>
            <path id="Path_11777" data-name="Path 11777" d="M6645.478,12535.64c-8.246,0-14.892,9-14.892,20.1v7.136a30.162,30.162,0,0,0,29.7-.007v-7.129C6660.285,12544.637,6653.723,12535.64,6645.478,12535.64Zm-.046-20.289a9.571,9.571,0,1,0,9.57,9.571A9.574,9.574,0,0,0,6645.432,12515.351Z" transform="translate(-6615.318 -12506.008)" fill="#fff"/>
            <path id="Path_11778" data-name="Path 11778" d="M6668.126,12564.661c-3.508,1.99-7.223,1.713-11.65,1.944a30.242,30.242,0,0,0,18.079-3.73v-7.141c0-11.1-6.65-20.1-14.9-20.1a11.31,11.31,0,0,0-3.229.47c6.689,1.989,11.668,10.017,11.668,19.626Zm-11.65-30.734a9.452,9.452,0,0,0,3.229.567,9.573,9.573,0,0,0,0-19.146,9.476,9.476,0,0,0-3.229.567,9.563,9.563,0,0,1,0,18.011Z" transform="translate(-6629.872 -12506.007)" fill="#d1d3d4" style="mix-blend-mode: multiply;isolation: isolate"/>
            <path id="Path_11779" data-name="Path 11779" d="M6602.5,12505.617a48.729,48.729,0,0,0-3.417,7.283c-.623,1.517-1.529,2.854-2.066,4.387a23.268,23.268,0,0,0-1,4.6,22.725,22.725,0,0,0,.619,8.454c.366,1.513.458,3.075.925,4.579.433,1.4,1.062,2.773,1.536,4.182,1.146,3.406,4.08,5.572,6.641,7.879a25.067,25.067,0,0,0,6.841,4.482,42.384,42.384,0,0,0,8.615,2.475c1.451.3,2.988.35,4.471.621a7.567,7.567,0,0,0,4.285-.461,11.679,11.679,0,0,1,2.487-.956c.7-.094,1.444.069,2.147-.024a22.368,22.368,0,0,0,4.235-1.351c.692-.252,1.462-.483,2.137-.745a13.846,13.846,0,0,0,2.25-1.543c.648-.43,1.357-.736,2-1.147a10.564,10.564,0,0,0,2.013-2.127,40.97,40.97,0,0,0,5.516-8.54,20.917,20.917,0,0,0,1.81-4.53,30.947,30.947,0,0,0,.476-4.229,40.244,40.244,0,0,0,.26-9.2,24.339,24.339,0,0,0-2.688-8.535,20.646,20.646,0,0,0-1.015-2.264c-.479-.669-.941-1.3-1.354-2.008a12.456,12.456,0,0,0-3.049-3.379c-1.33-1.08-2.118-2.691-3.514-3.684a29.889,29.889,0,0,0-4.336-2.717,21.8,21.8,0,0,0-4.41-1.611c-1.454-.334-2.771-1.047-4.285-1.137s-2.886-.4-4.406-.4a34.064,34.064,0,0,0-4.31.49,34.912,34.912,0,0,0-15.436,6.775,21.582,21.582,0,0,0-2.605,2.932" transform="translate(-6595.759 -12493.963)" fill="none" stroke="#57607f" stroke-miterlimit="10" stroke-width="2"/>
            <path id="Path_11780" data-name="Path 11780" d="M6611.3,12519.53a.88.88,0,0,1-.243.323" transform="translate(-6604.322 -12508.361)" fill="none" stroke="#57607f" stroke-miterlimit="10" stroke-width="1"/>
            <path id="Path_11781" data-name="Path 11781" d="M6630.821,12588.515c-.378-.75-.081-2.479-.081-3.4,0-1.172-.081-2.3-.081-3.481a29.579,29.579,0,0,1,.686-7.242,21.415,21.415,0,0,1,3.057-7.226,13.826,13.826,0,0,1,2.985-2.895,18.559,18.559,0,0,1,3.063-2.224,12.066,12.066,0,0,1,3.161-.462,9.281,9.281,0,0,1,2.951-.1,7.141,7.141,0,0,1,3.121.746c.9.6,1.837,1.166,2.68,1.764a15.412,15.412,0,0,1,4.058,4.773,18.069,18.069,0,0,1,2.851,6.042,37.292,37.292,0,0,1,.873,5.789c.108,2.272.27,4.446.163,6.724-.023.481.02,1.116,0,1.6" transform="translate(-6615.343 -12531.943)" fill="none" stroke="#57607f" stroke-miterlimit="10" stroke-width="1"/>
            <path id="Path_11782" data-name="Path 11782" d="M6650.6,12515.666a14.278,14.278,0,0,1,3.99-.067,10.89,10.89,0,0,1,3.186,1.136,8.093,8.093,0,0,1,3.413,4.555,11.9,11.9,0,0,1,.309,5.181,6.107,6.107,0,0,1-.967,2.483,16.208,16.208,0,0,1-2.129,2.574,8.112,8.112,0,0,1-5.009,2.332,8.37,8.37,0,0,1-5.421-.927c-1.805-1.085-3.926-2.284-4.7-4.387a10.719,10.719,0,0,1-.4-5.271,10.137,10.137,0,0,1,1.156-2.536,11.774,11.774,0,0,1,1.6-2.534,13.891,13.891,0,0,1,4.847-2.537" transform="translate(-6622.146 -12506.089)" fill="none" stroke="#57607f" stroke-miterlimit="10" stroke-width="1"/>
          </g>
          <path id="Path_11783" data-name="Path 11783" d="M6754.762,12519.716h81.579" transform="translate(-6685.249 -12508.466)" fill="none" stroke="#57607f" stroke-miterlimit="10" stroke-width="1"/>
          <path id="Path_11784" data-name="Path 11784" d="M6963.739,12519.222h7.986" transform="translate(-6802.935 -12508.188)" fill="none" stroke="#57607f" stroke-miterlimit="10" stroke-width="1"/>
          <path id="Path_11785" data-name="Path 11785" d="M7006.721,12520.58l.863-.864" transform="translate(-6827.141 -12508.466)" fill="none" stroke="#57607f" stroke-miterlimit="10" stroke-width="1"/>
          <path id="Path_11786" data-name="Path 11786" d="M6757.232,12561.71h43.056" transform="translate(-6686.64 -12532.115)" fill="none" stroke="#57607f" stroke-miterlimit="10" stroke-width="1"/>
          <path id="Path_11787" data-name="Path 11787" d="M6869.132,12562.451h7.122" transform="translate(-6749.657 -12532.532)" fill="none" stroke="#57607f" stroke-miterlimit="10" stroke-width="1"/>
          <path id="Path_11788" data-name="Path 11788" d="M6754.268,12599.5H6847.5" transform="translate(-6684.971 -12553.398)" fill="none" stroke="#57607f" stroke-miterlimit="10" stroke-width="1"/>
          <path id="Path_11789" data-name="Path 11789" d="M6980.29,12598.021" transform="translate(-6812.256 -12552.564)" fill="none" stroke="#57607f" stroke-miterlimit="10" stroke-width="1"/>
        </g>
      </g>
      <path id="Path_11790" data-name="Path 11790" d="M6461.638,13499.885h345.74" transform="translate(-6260.361 -12937.824)" fill="none" stroke="#e1e0e7" stroke-miterlimit="10" stroke-width="1"/>
      <path id="Path_11791" data-name="Path 11791" d="M6436.6,13526.563h376.386" transform="translate(-6246.262 -12952.849)" fill="none" stroke="#e1e0e7" stroke-miterlimit="10" stroke-width="1"/>
      <path id="Path_11792" data-name="Path 11792" d="M6000.887,13556.946H6578.9" transform="translate(-6000.887 -12969.959)" fill="none" stroke="#e1e0e7" stroke-miterlimit="10" stroke-width="1"/>
    </g>
    <g id="Group_8590" data-name="Group 8590" transform="translate(6297.625 12144.94)">
      <path id="Path_11793" data-name="Path 11793" d="M6902.822,12687.367c.318-4.013-4.649-8.328-7.073-10.854-4.1-4.275-8.263-8.5-12.189-12.945-.338-.383-.691-.755-1.033-1.136,2.58-4.4,3.644-7.065,2-12.173-1.985-6.184-5.66-9.965-10.288-14.482-7.063-6.9-16-15.587-25.151-7.721a1.762,1.762,0,0,0-.851.105c-4.457-5.221-9.5-9.952-14.424-14.723-2.792-2.707-7.59-8.078-12.158-6.482-6.021,2.1-7.913,12.886-8.5,17.891-.76,6.466-.551,13-1.27,19.476a56.028,56.028,0,0,1-2.5,12.452c-1.905,5.43-4.308,7.129-7.625,11.027-12.742-.832-25.9,10.071-29.394,22.549a1.013,1.013,0,0,0-.648.677c-2.208,6.644-1.137,12.022,1.82,17.245-2.793,1.2-3.241,6.173-3.76,8.723-1.07,5.262.671,9.7,3.923,13.723,3.034,3.75,7.122,8.027,12.129,8.933,5.055.915,9.239-1.282,13.5-3.408.643.487,1.285.993,1.926,1.442a18.65,18.65,0,0,0,17.434,2.222,15.216,15.216,0,0,0-4.636,5.029c-1.472,3.13-.264,7.788-.187,11.078.13,5.556-1.847,7.923-5.7,11.622-1.819,1.744-3.721,3.4-5.623,5.06a28.486,28.486,0,0,0-2.332-1.757,1.212,1.212,0,0,0-1.156-.127,1.229,1.229,0,0,0-.395-.02c-2.561.361-5.164,2.779-7.153,4.318a24.756,24.756,0,0,0-5.591,5.438,9.085,9.085,0,0,0-1.165-.529c-6.026-2.187-15.222,9.121-19.13,12.607-10.869,9.7-21.681,19.465-32.622,29.086-7.8,6.855-19.091,21.438-17.962,20.729,5.287.093,74.27-.683,74.27-.683s6.219-.093,6.474-.081c-.147.123,3.906-3.159,8.163-6.51,4.438-3.494,9.893-6.98,13.4-11.465a1.716,1.716,0,0,0,.388-1.211,1.669,1.669,0,0,0,.24-1.955c-.3-.545-.637-1.077-.957-1.616a43.371,43.371,0,0,0,5.935-4.72,56.762,56.762,0,0,0,5.719-5.709c1.165-.322,2.036-1.486,1.122-2.727-1.866-2.529-3.8-5.016-5.737-7.5a1.125,1.125,0,0,0,.551-.336c3.5-3.848,8.6-10.059,14.14-9.469,3.882.412,6.551,1.51,10.39-.275a42.647,42.647,0,0,0,9.093-6.465,1.047,1.047,0,0,0,.392-.924q2.11-1.887,4.137-3.92c3.487,1.338,7.219,1.019,11.455-2.582,5.17-4.395,5.828-9.843,4.045-14.961.034-.04.068-.08.1-.121,2.4-2.861,4.588-5.535,3.7-9.587-.553-2.519-2.372-5.187-4.884-5.718a.72.72,0,0,0-.642-.607,7.165,7.165,0,0,0-8.158-6.338c.262-3.648-1.725-6.9-5.75-7.607-.513-.091-1.266.1-1.662-.094a3.267,3.267,0,0,0-.865-.338c.1-.137.132-.565-.341-1.743-.713-1.776-.748-3.249-2.591-4.376a4.861,4.861,0,0,0-2.613-.733,10.027,10.027,0,0,0-4.066-8.462c-2.152-1.307-4.348-.307-6.173,1.1a26.774,26.774,0,0,0-2.067,1.734,18.183,18.183,0,0,0-.447-9.395c10.3-9.373,25.7-8.354,38.729-9.9C6886.423,12696.45,6902.135,12696.025,6902.822,12687.367Z" transform="translate(-6699.76 -12598.275)" fill="#e1e0e7" style="mix-blend-mode: multiply;isolation: isolate"/>
      <g id="Group_8587" data-name="Group 8587" transform="translate(61.901)">
        <g id="Group_8585" data-name="Group 8585">
          <path id="Path_11794" data-name="Path 11794" d="M7031.732,12652.029a15.206,15.206,0,0,1-.431,21.5h0a15.209,15.209,0,0,1-21.5-.429l-12.107-12.6a15.2,15.2,0,0,1,.431-21.5h0a15.2,15.2,0,0,1,21.5.425Z" transform="translate(-6918.493 -12614.096)" fill="#ffcd80"/>
          <path id="Path_11795" data-name="Path 11795" d="M7039.728,12660.687l5.715,5.948a15.212,15.212,0,0,1-21.938,21.08l-5.715-5.947a15.213,15.213,0,0,0,21.938-21.081Z" transform="translate(-6932.199 -12628.697)" fill="#f6b750" opacity="0.5" style="mix-blend-mode: multiply;isolation: isolate"/>
          <path id="Path_11796" data-name="Path 11796" d="M6960.986,12676.437c-14.514,1.8-36.626,3.97-43.905,7.163-11.6,5.086-35.275,30.191-35.275,30.191l-19.169-19.95-18.5-19.249s24.833-21.459,30.153-31.667c4.06-7.784,5.223-33.76,9.075-48.017,3.839-14.2,12.557-3.732,12.557-3.732l69.276,72.1S6979.06,12674.191,6960.986,12676.437Z" transform="translate(-6834.408 -12587.459)" fill="#fff"/>
          <path id="Path_11797" data-name="Path 11797" d="M6995.234,12763.934c-14.519,1.808-36.62,3.979-43.889,7.168-11.619,5.082-35.287,30.192-35.287,30.192l-11.1-11.548s23.679-25.1,35.273-30.207c7.283-3.174,29.382-5.347,43.9-7.157,11.246-1.382,10.121-6.142,7.692-9.542l7.626,7.937S7013.312,12761.694,6995.234,12763.934Z" transform="translate(-6868.661 -12674.963)" fill="#e1e0e7" opacity="0.5" style="mix-blend-mode: multiply;isolation: isolate"/>
          <path id="Path_11798" data-name="Path 11798" d="M6961.312,12594.541l-1.063-1.106C6960.909,12594.068,6961.312,12594.541,6961.312,12594.541Z" transform="translate(-6899.795 -12590.824)" fill="#cc423b" opacity="0.3" style="mix-blend-mode: multiply;isolation: isolate"/>
          <path id="Path_11799" data-name="Path 11799" d="M7099.335,12738.184l-3.471-3.613A20.645,20.645,0,0,1,7099.335,12738.184Z" transform="translate(-6976.167 -12670.305)" fill="#cc423b" opacity="0.3" style="mix-blend-mode: multiply;isolation: isolate"/>
          <path id="Path_11800" data-name="Path 11800" d="M6853.62,12823.18a17.149,17.149,0,0,1-.481,24.249h0a17.153,17.153,0,0,1-24.251-.483l-2.243-2.334a17.152,17.152,0,0,1,.486-24.25h0a17.146,17.146,0,0,1,24.246.484Z" transform="translate(-6821.862 -12715.926)" fill="#fff"/>
          <path id="Path_11801" data-name="Path 11801" d="M6854.772,12824.727l2.232,2.324a17.152,17.152,0,1,1-24.735,23.769l-2.233-2.325a16.757,16.757,0,0,1-2.154-2.748,17.164,17.164,0,0,0,24.234-23.287A17.335,17.335,0,0,1,6854.772,12824.727Z" transform="translate(-6825.252 -12719.801)" fill="#e1e0e7" opacity="0.5" style="mix-blend-mode: multiply;isolation: isolate"/>
          <path id="Path_11802" data-name="Path 11802" d="M6995.928,12889.5c3.344,3.479,2.239,9.963-2.465,14.482h0c-4.709,4.525-11.23,5.369-14.573,1.889l-41.78-43.48c-3.347-3.482-2.244-9.965,2.465-14.49h0c4.7-4.52,11.228-5.364,14.574-1.881Z" transform="translate(-6885.674 -12731.86)" fill="#fff"/>
          <path id="Path_11803" data-name="Path 11803" d="M6993.231,12902a11.769,11.769,0,0,0,3.379-.953,15.262,15.262,0,0,1-3.154,4.293,14.006,14.006,0,0,1-7.795,3.935,7.718,7.718,0,0,1-6.778-2.046l-41.779-43.48c-3.353-3.488-2.252-9.959,2.464-14.49a15.254,15.254,0,0,1,4.417-2.978c-1.818,3.714-1.687,7.714.692,10.19l41.779,43.48A7.723,7.723,0,0,0,6993.231,12902Z" transform="translate(-6885.669 -12733.216)" fill="#e1e0e7" opacity="0.5" style="mix-blend-mode: multiply;isolation: isolate"/>
          <path id="Path_11804" data-name="Path 11804" d="M6891.008,12765.354a19.415,19.415,0,0,1-.548,27.449l-10.734,10.314a19.415,19.415,0,0,1-27.45-.548l-22.868-23.8a19.414,19.414,0,0,1,.547-27.45l10.733-10.314a19.415,19.415,0,0,1,27.45.549Z" transform="translate(-6823.063 -12670.881)" fill="#ffcd80"/>
          <path id="Path_11805" data-name="Path 11805" d="M6904.366,12779.687l10.088,10.5a19.423,19.423,0,0,1-.548,27.449l-10.738,10.318a19.424,19.424,0,0,1-27.452-.545l-10.089-10.5a19.426,19.426,0,0,0,27.453.544l10.737-10.317A19.423,19.423,0,0,0,6904.366,12779.687Z" transform="translate(-6846.509 -12695.713)" fill="#f6b750" opacity="0.5" style="mix-blend-mode: multiply;isolation: isolate"/>
        </g>
        <g id="Group_8586" data-name="Group 8586" transform="translate(7.128 81.514)">
          <path id="Path_11806" data-name="Path 11806" d="M6851.7,12801.242a3.635,3.635,0,0,1-4.62.344c-.332-.236-8.134-5.859-8.848-14.016-.389-4.453,1.317-8.635,5.068-12.434l.069-.07a3.636,3.636,0,0,1,5.1,5.18c-2.216,2.242-3.193,4.431-3,6.691.352,4,4.415,7.723,5.812,8.715a3.638,3.638,0,0,1,.86,5.072A3.9,3.9,0,0,1,6851.7,12801.242Z" transform="translate(-6838.18 -12774.056)" fill="#fff"/>
        </g>
        <path id="Path_11807" data-name="Path 11807" d="M6825.113,12757.219a23.309,23.309,0,0,0-.723,11.051c.687,3.313,2.806,6.1,4.679,8.789,1.827,2.62,3.711,5.5,6.256,7.466a54.473,54.473,0,0,1,7.183,7.458,82.208,82.208,0,0,0,7.292,7.587c2.455,2.177,4.771,4.683,7.762,6.093a19.652,19.652,0,0,0,4.555,1.84c1.926.332,4.2-.2,6.123-.347,3.679-.272,7.252-2.454,10.377-4.22,2.751-1.553,4.961-4.629,7.233-6.8,1.375-1.316,2.372-2.879,3.764-4.217a34.459,34.459,0,0,0,3.3-3.217,9.615,9.615,0,0,0,2.4-4.735,27.6,27.6,0,0,0,.651-6.11,24.652,24.652,0,0,0-.771-5.672c-.487-1.58-1.949-3.027-2.875-4.333-1.022-1.44-1.734-3.1-2.906-4.444-1.213-1.395-2.478-2.738-3.769-4.078-2.344-2.436-4.306-5.261-6.7-7.751-2.67-2.778-5.459-5.37-8.139-8.159-2.489-2.59-5.025-5.872-8.415-7.139-1.7-.636-3.184-1.709-5.027-2.014a21.148,21.148,0,0,0-5.979-.039,22.007,22.007,0,0,0-10.047,4.105,68.513,68.513,0,0,0-8.608,7.676,50.249,50.249,0,0,0-5.544,7.27,11.542,11.542,0,0,0-1.625,4.105" transform="translate(-6823.084 -12670.002)" fill="none" stroke="#57607f" stroke-miterlimit="10" stroke-width="1"/>
        <path id="Path_11808" data-name="Path 11808" d="M6825.832,12829.827c-1.646.194-1.973,3.125-2.3,4.3-.472,1.691-1.381,3.047-1.544,4.934-.33,3.815.271,7.66,2.651,10.7a34.781,34.781,0,0,0,6.2,6.608,23.985,23.985,0,0,0,4.251,2.751,9.02,9.02,0,0,0,5.7.922,20.248,20.248,0,0,0,6.037-1.346c.853-.34,1.544-.928,2.355-1.294.717-.325,1.559-.251,2.061-.97" transform="translate(-6821.885 -12723.95)" fill="none" stroke="#57607f" stroke-miterlimit="10" stroke-width="1"/>
        <path id="Path_11809" data-name="Path 11809" d="M6946.155,12870.379a13.946,13.946,0,0,1,1.961,3.011,16.776,16.776,0,0,0,2.354,2.728c1.583,1.646,3.3,3.08,4.863,4.749,3.632,3.866,7.444,7.591,11.146,11.444,3.514,3.658,6.75,7.469,10.389,10.961a46.257,46.257,0,0,0,5.16,4.279c1.635,1.17,2.835,3.017,4.514,4.121,1.627,1.07,5.217.816,6.927-.106.466-.251.855-.629,1.349-.854.561-.257,1.169-.159,1.694-.383.779-.333,1.446-1.308,2.093-1.872,1.656-1.444,2.706-2.551,3.206-4.742.252-1.106.824-2.211,1.022-3.273a8.284,8.284,0,0,0-.332-3.543c-.632-2.669-1.11-4.7-3.008-6.83-1.762-1.977-3.6-3.8-5.5-5.6-2.034-1.926-3.985-3.9-6.165-5.637a32.011,32.011,0,0,1-5.121-5.571c-5.2-6.579-12.606-11.323-17.473-18.229-.55-.78-.894-2.1-1.7-2.544" transform="translate(-6891.858 -12736.71)" fill="none" stroke="#57607f" stroke-miterlimit="10" stroke-width="1"/>
        <path id="Path_11810" data-name="Path 11810" d="M6987.913,12720.912c.419-1.279,2.858-2.206,3.972-3.067a36.2,36.2,0,0,1,4.738-3.169,27.627,27.627,0,0,1,3.276-1.494,15.466,15.466,0,0,1,3.134-.669c2.215-.4,11.405-1.158,13.776-1.591,2.311-.423,12.018-1.3,14.629-1.752,2.506-.43,11.965-1.807,13.794-2.78a11.372,11.372,0,0,0,2.541-1.993c.664-.637,1.665-1.184,2.227-1.836,1.879-2.187-1.567-6.136-2.792-7.811-1.552-2.125-3.447-3.549-5.243-5.424-2.03-2.117-9.837-10.446-11.649-12.594a124.5,124.5,0,0,0-9.224-10.062c-1.47-1.393-2.562-2.979-3.955-4.428-1.75-1.821-3.652-3.488-5.427-5.336-3.2-3.334-6.358-7.229-9.942-10.024-.614-.479-4.228-4.093-5.451-5.295" transform="translate(-6915.375 -12617.941)" fill="none" stroke="#57607f" stroke-miterlimit="10" stroke-width="1"/>
        <path id="Path_11811" data-name="Path 11811" d="M6897.969,12652.257c.607-1.132,2.118-1.925,2.924-2.958a22.98,22.98,0,0,0,2.119-3.2,38.358,38.358,0,0,0,3.983-9.556c2.028-8.7,2.1-17.831,2.959-26.71a50.39,50.39,0,0,1,2.772-13.542,30.765,30.765,0,0,1,4.031-6.5c.848-1.019,3.46-3.356,12.016,4.926,2.175,2.105,13.981,14.524,16.086,16.716" transform="translate(-6864.722 -12588.152)" fill="none" stroke="#57607f" stroke-miterlimit="10" stroke-width="1"/>
        <path id="Path_11812" data-name="Path 11812" d="M7008.649,12635.943c2.653-2.846,6.633-4.73,10.336-3.3,2.016.779,3.935,2.191,5.95,3.119a17.594,17.594,0,0,1,5.07,4.184c2.759,2.871,5.795,5.279,8.4,8.273,2.518,2.9,4.756,5.658,5.918,9.274a10.1,10.1,0,0,1,.092,7.106c-.924,2.24-1.972,3.126-3.267,5.12" transform="translate(-6927.052 -12612.629)" fill="none" stroke="#57607f" stroke-miterlimit="10" stroke-width="1"/>
        <path id="Path_11813" data-name="Path 11813" d="M6944.942,12611.975c5.328-5.162,31.971,28.133,35.764,32.08" transform="translate(-6891.175 -12600.96)" fill="none" stroke="#57607f" stroke-miterlimit="10" stroke-width="1"/>
        <path id="Path_11814" data-name="Path 11814" d="M7019.59,12651.284a3.15,3.15,0,0,1,5.511-.806" transform="translate(-6933.213 -12622.219)" fill="none" stroke="#57607f" stroke-miterlimit="10" stroke-width="1"/>
        <path id="Path_11815" data-name="Path 11815" d="M6840.176,12872.639c3.424,3.563,11.366,11.637,16.153,5.131" transform="translate(-6832.176 -12748.06)" fill="none" stroke="#57607f" stroke-miterlimit="10" stroke-width="1"/>
      </g>
      <g id="Group_8588" data-name="Group 8588" transform="translate(94.154 111.105)">
        <path id="Path_11816" data-name="Path 11816" d="M7002.246,12848.6a4.289,4.289,0,0,1-1.316,3.211.14.14,0,0,0-.1.109c-.166.18-.331.36-.5.515a1.345,1.345,0,0,1-.376.293.075.075,0,0,0-.043.038,3.027,3.027,0,0,1-.24.2,14.223,14.223,0,0,1-2.211,1.336c-.019.031-.019.031-.043.039-1.086.541-1.976.921-1.976.921s-.761-.812-1.755-1.88a38.069,38.069,0,0,1-3.15-3.725,2.891,2.891,0,0,1,.257-3.645s-.072-1.135,4.068-3.459c4.134-2.351,6,2.454,6.992,4.6A4.178,4.178,0,0,1,7002.246,12848.6Z" transform="translate(-6948.792 -12841.865)" fill="#ffcd80"/>
        <path id="Path_11817" data-name="Path 11817" d="M6976.481,12899.236c-2.277,2.456-12.785,15-12.785,15s-10.884,11.28-15.212,13.9c-4.36,2.6-6.076,2.806-11.916,2.188-5.864-.611-8.026,1.973-11.893,5.189a35.592,35.592,0,0,0-5.885,6.031s-18.349-21.506-20-23.389c-1.641-1.858,2.508-4.347,2.508-4.347s.045.552,2.808-2.387l-.007-.024c.441-.444.955-1.017,1.53-1.658,4.244-4.771,5.344-8.864,5.162-15.853s3.347-12.987,7.421-13.9c2.075-.465,3.939,1.035,5.266,2.631a16.783,16.783,0,0,1,2.106,3.152s13.865-14.01,20.255-18.891c.025-.006.025-.006.042-.038a14.652,14.652,0,0,1,2.208-1.442.862.862,0,0,1,.243-.094.087.087,0,0,1,.043-.039c4.083-1.853,5.982-1.007,7.251.281,1.283,1.34,1.2,5.607,1.2,5.607s3.857-.822,6.61,1.561a5.9,5.9,0,0,1,1.64,5.941s2.879-1.734,5.98,1.225a7.848,7.848,0,0,1,2.7,6.186,4.772,4.772,0,0,1,2.19.148c1.426.492,1.864,1.983,3.163,3.963C6980.938,12892.9,6978.783,12896.773,6976.481,12899.236Z" transform="translate(-6897.224 -12854.41)" fill="#ffcd80"/>
        <path id="Path_11818" data-name="Path 11818" d="M6976.481,12927.627c-2.277,2.455-12.785,15-12.785,15s-10.884,11.28-15.212,13.9c-4.36,2.6-6.076,2.807-11.916,2.188-5.864-.611-8.026,1.973-11.893,5.19a35.568,35.568,0,0,0-5.885,6.03s-18.349-21.506-20-23.389c-1.641-1.858,2.508-4.347,2.508-4.347s.045.553,2.808-2.387c2.132,2.418,4.694,5.354,7.158,8.146a14.017,14.017,0,0,0,15.634,3.524,13.263,13.263,0,0,1,2.488-.674c6.188-1.037,13.491,1.084,19.272-1.721,5.774-2.83,24.474-21.612,25.866-25.328,1.379-3.766,2.632-5.455,1.451-9.052l-.028-.1c1.426.493,1.864,1.983,3.163,3.963C6980.938,12921.291,6978.783,12925.164,6976.481,12927.627Z" transform="translate(-6897.224 -12882.8)" fill="#f6b750" opacity="0.5" style="mix-blend-mode: multiply;isolation: isolate"/>
        <path id="Path_11819" data-name="Path 11819" d="M6980.127,12859.707a.141.141,0,0,0-.1.109c-.284.24-.553.529-.879.808a.08.08,0,0,0-.043.038c-.062.07-.154.123-.24.2-.553.528-1.187,1.053-1.833,1.634-2.873,2.539-22.658,20.6-22.658,20.6s-2.91-1.587-.125-5.123a16.783,16.783,0,0,1,2.106,3.152s13.864-14.01,20.255-18.89c-1.086.542-1.976.921-1.976.921s-.761-.811-1.754-1.879c1.055-1.044,1.852-1.855,2.3-2.273,1.887-1.73,5.234-4.105,6.252-2.56l.014.05C6982.037,12857.38,6981.366,12858.452,6980.127,12859.707Z" transform="translate(-6927.99 -12849.764)" fill="#f6b750"/>
        <path id="Path_11820" data-name="Path 11820" d="M6987.871,12848.1c1.247-1.924,5.418-6.543,8.171-6.3,2.82.248,7.368,7.664,3.524,11.075" transform="translate(-6947.605 -12841.794)" fill="none" stroke="#57607f" stroke-miterlimit="10" stroke-width="1"/>
        <path id="Path_11821" data-name="Path 11821" d="M6951.352,12889.216c5.953-6.009,11.354-11.395,17.428-16.957,2.928-2.682,7.712-6.976,11.344-8.784,3.027-1.508,7.117,1.65,6.094,7.273,3.952-2.243,10.879,1.7,8.768,7.654,4.833-2.047,9.456,3.211,8.587,7.061,3.048-1.429,8.33,5.845,4.622,11.216-2.287,3.313-20.4,23.513-23.576,26.146" transform="translate(-6927.039 -12853.792)" fill="none" stroke="#57607f" stroke-miterlimit="10" stroke-width="1"/>
        <path id="Path_11822" data-name="Path 11822" d="M6895.7,12936.639s11.435-9.705,13.1-13.019c1.871-3.733-.8-16.173.981-18.021a44.662,44.662,0,0,1,8.1-7.184" transform="translate(-6895.696 -12873.681)" fill="none" stroke="#57607f" stroke-miterlimit="10" stroke-width="1"/>
        <path id="Path_11823" data-name="Path 11823" d="M6947.629,13016.644s10.681-11.845,14.957-10.454c4.007,1.3,7.377,1.906,11.071.008a49.613,49.613,0,0,0,5.093-3.63,22.3,22.3,0,0,0,3.772-2.747" transform="translate(-6924.942 -12930.787)" fill="none" stroke="#57607f" stroke-miterlimit="10" stroke-width="1"/>
        <path id="Path_11824" data-name="Path 11824" d="M7024.436,12883.972c1.031-1.013,2.2-3.063,3.567-3.5" transform="translate(-6968.196 -12863.573)" fill="none" stroke="#57607f" stroke-miterlimit="10" stroke-width="1"/>
        <path id="Path_11825" data-name="Path 11825" d="M7042.754,12900.858a21.731,21.731,0,0,0,4.416-4.073" transform="translate(-6978.512 -12872.763)" fill="none" stroke="#57607f" stroke-miterlimit="10" stroke-width="1"/>
        <path id="Path_11826" data-name="Path 11826" d="M7062.106,12916.546c1.151-1.722,3.418-2.345,4.729-4.16" transform="translate(-6989.411 -12881.548)" fill="none" stroke="#57607f" stroke-miterlimit="10" stroke-width="1"/>
      </g>
      <g id="Group_8589" data-name="Group 8589" transform="translate(0 170.861)">
        <path id="Path_11827" data-name="Path 11827" d="M6686.527,13064.174s-2.914,1.536.317,1.645,77.263-.108,77.263-.108,3.534.435,5.921-1.536,22.442-18.943,21.863-20.877-19.6-26.5-19.6-26.5-11.728-15.933-17.68-12.924S6686.527,13064.174,6686.527,13064.174Z" transform="translate(-6683.068 -12992.614)" fill="#4c6ca5"/>
        <path id="Path_11828" data-name="Path 11828" d="M6861.374,12986.294s-5.856,3.173-3.42,5.669,12.845,15.6,15.212,17.895,11.705,16.682,13.632,17.543,4.081-2.666,7.9-5.232,7.439-5.562,5.133-8.566-26.364-32.421-26.364-32.421a3.4,3.4,0,0,0-4.372-.579C6866.667,12982.191,6861.374,12986.294,6861.374,12986.294Z" transform="translate(-6779.953 -12979.392)" fill="#fff"/>
        <path id="Path_11829" data-name="Path 11829" d="M6890.041,12979.271c4.436,3.17,8.744,9.608,12.306,13.895,4.833,5.816,12.844,15.926,17.376,21.985" transform="translate(-6798.357 -12978.971)" fill="none" stroke="#57607f" stroke-miterlimit="10" stroke-width="1"/>
        <path id="Path_11830" data-name="Path 11830" d="M6858.719,12988.93c3.578-4.186,8.917-7.9,13.152-10.347" transform="translate(-6780.718 -12978.583)" fill="none" stroke="#57607f" stroke-miterlimit="10" stroke-width="1"/>
        <path id="Path_11831" data-name="Path 11831" d="M6927.675,13073.456a95.1,95.1,0,0,0,13.241-12.052" transform="translate(-6819.55 -13025.224)" fill="none" stroke="#57607f" stroke-miterlimit="10" stroke-width="1"/>
        <path id="Path_11832" data-name="Path 11832" d="M6867.917,13120.9c4.305-3.115,22.985-17.472,27.051-21.891" transform="translate(-6785.897 -13046.401)" fill="none" stroke="#57607f" stroke-miterlimit="10" stroke-width="1"/>
        <path id="Path_11833" data-name="Path 11833" d="M6680.163,13065.861c8.015-6.492,62.754-56.256,70.541-62.346,0,0,3.324-3.42,5.049-1.806a55.181,55.181,0,0,1,5.161,5.061,148.073,148.073,0,0,1,12.047,14.476c6.861,9.663,9.575,11.863,16.53,21.5" transform="translate(-6680.163 -12991.363)" fill="none" stroke="#57607f" stroke-miterlimit="10" stroke-width="1"/>
        <path id="Path_11834" data-name="Path 11834" d="M6922.816,13050.946c-1.779-1.548-2.812,2.936-2.589,4.216.46,2.652,3.425,3.348,5.6,2.354,5.537-2.524,1.175-10.731-2.852-6.895" transform="translate(-6815.339 -13018.586)" fill="none" stroke="#57607f" stroke-miterlimit="10" stroke-width="1"/>
      </g>
    </g>
    <g id="Group_8591" data-name="Group 8591" transform="translate(6101.776 12390.276)">
      <path id="Path_11835" data-name="Path 11835" d="M6369.829,13184.105c-.162,1.514-.27,3.541-1.649,4.461-1.3.892-3.568.945-5.055,1.352,4.7.918,4.92,4.622,4.7,5.973-.892,5.867-5.623,5.191-6.92,4.947,1.784.757,2.838,5.217,2.541,6.38-.784,3.189-4.271,4.378-6.92,4.622,1.162.433,1.676.541,2.054,1.812a4.589,4.589,0,0,1,.108,2.946c-.648,1.783-3.757,2.973-5.46,3.486-3.919,1.136-8.244,1.163-12.272,1.622-4.379.46-9.163,1.487-13.542.784a11,11,0,0,1-5.623-2.433,21.51,21.51,0,0,0-4.974-3.3,17.9,17.9,0,0,0-6-.973c-1.919-.027-2.325.27-4.433.378l-.055-5.758-.216-27.464c1.378.271,1.676-.135,3.027-.189,1.379-.055,2.352.082,3.73-.027a7.272,7.272,0,0,0,4.271-1.541,4.77,4.77,0,0,0,1.244-2.918c.756-3.866,2.026-5.947,4.946-8.137,2.6-1.947,4.325-2.947,4.379-6.7.027-2.892-.054-5.974.189-8.947.243-3.19,1.352-5.731,4.622-5.38.216.027.433.055.676.107,3.027.623,4.812.3,7.218,4.894,1.568,3,1.486,5.19,1.459,8.462-.082,5.541-2.541,10.271-5.028,15.029a17.1,17.1,0,0,0-.757,1.594,18.687,18.687,0,0,1,3.325-.621c2.352-.271,4.946-.324,6.865-.567a84.22,84.22,0,0,1,8.894-.567c1.974-.055,3.839-.136,5.731-.055h.027a26.708,26.708,0,0,1,3.838.379c1.6.27,2.919.352,3.92,1.838C6370.424,13182.133,6370.019,13182.457,6369.829,13184.105Z" transform="translate(-6273.668 -13149.067)" fill="#fff"/>
      <path id="Path_11836" data-name="Path 11836" d="M6370.107,13220.6c-.162,1.514-.27,3.541-1.649,4.461-1.3.892-3.568.945-5.055,1.352,4.7.918,4.919,4.622,4.7,5.973-.893,5.867-5.623,5.191-6.92,4.947,1.784.757,2.838,5.217,2.541,6.38-.784,3.189-4.271,4.378-6.92,4.622,1.162.433,1.676.541,2.054,1.812a4.586,4.586,0,0,1,.108,2.946c-.648,1.783-3.758,2.973-5.46,3.486-3.919,1.136-8.245,1.163-12.272,1.622-4.379.46-9.164,1.487-13.542.784a11,11,0,0,1-5.623-2.433,21.5,21.5,0,0,0-4.973-3.3,17.906,17.906,0,0,0-6-.973c-1.919-.027-2.324.27-4.433.378l-.054-5.758.838-.919s9.813-1.946,14.543,0,4.568,5.271,9.975,6.218c5.406.973,16.381-.7,18.408-1.217s2.541-3.946,1.514-5.866c-1-1.92,4.73-3.434,3.568-7.487-1.189-4.056,6.407-6.407,4.379-9.623s3.379-5.083,3.729-7.7c.325-2.6,1-5.163-2.351-6.434a26.715,26.715,0,0,1,3.838.379c1.595.27,2.919.352,3.92,1.838C6370.7,13218.625,6370.3,13218.949,6370.107,13220.6Z" transform="translate(-6273.947 -13185.56)" fill="#f2f2f2"/>
      <path id="Path_11837" data-name="Path 11837" d="M6370.9,13177.633a17.372,17.372,0,0,0-.757,1.595,18.692,18.692,0,0,1,3.325-.622c-.892.973-1.676,1.568-2.325,1.541-3.541-.162-4.487-1.865-3.3-6.434,1.19-4.541,4.655-13.6,3.412-18.489-.6-2.216-3.412-4.758-4.682-6.083.217.027.433.055.676.108,3.027.622,4.812.3,7.217,4.894,1.568,3,1.487,5.189,1.46,8.461C6375.842,13168.145,6373.383,13172.875,6370.9,13177.633Z" transform="translate(-6307.713 -13149.108)" fill="#f2f2f2"/>
      <path id="Path_11838" data-name="Path 11838" d="M6306.111,13182.938c1.388.264,1.666-.127,3.042-.177s2.347.073,3.718-.04a7.179,7.179,0,0,0,4.284-1.534,4.893,4.893,0,0,0,1.229-2.914c.75-3.872,2.022-5.95,4.953-8.15,2.577-1.936,4.317-2.95,4.371-6.7.041-2.891-.042-5.956.188-8.936.264-3.4,1.507-6.059,5.294-5.278,3.045.628,4.807.289,7.214,4.89,1.571,3,1.5,5.194,1.463,8.463-.065,5.543-2.534,10.271-5.009,15.035a17.491,17.491,0,0,0-.758,1.6c2.815-.887,7.283-.849,10.188-1.187a77.694,77.694,0,0,1,8.9-.575,46.434,46.434,0,0,1,9.59.325c1.586.277,2.9.335,3.909,1.819,1.726,2.551,1.333,2.89,1.156,4.518-.167,1.534-.291,3.54-1.664,4.474-1.306.887-3.574.934-5.062,1.353,4.719.907,4.927,4.606,4.719,5.976-.887,5.871-5.617,5.2-6.923,4.932,1.771.771,2.833,5.221,2.542,6.38-.8,3.192-4.277,4.4-6.913,4.644,1.159.414,1.675.525,2.057,1.8a4.813,4.813,0,0,1,.105,2.951c-.657,1.772-3.756,2.969-5.479,3.472-3.913,1.138-8.227,1.176-12.268,1.619-4.369.479-9.161,1.507-13.551.8a11.023,11.023,0,0,1-5.6-2.449,21.77,21.77,0,0,0-4.993-3.289,17.629,17.629,0,0,0-6-.969c-1.917-.029-2.307.26-4.432.389" transform="translate(-6273.665 -13149.068)" fill="none" stroke="#57607f" stroke-miterlimit="10" stroke-width="1.044"/>
      <path id="Path_11839" data-name="Path 11839" d="M6279.525,13219.826c1.915-.037,3.771-.6,5.7-.734,1.9-.131,3.854-.009,5.747-.018a125.286,125.286,0,0,1,.025,15.127c-.145,2.738.439,5.518.271,8.26a57.183,57.183,0,0,0-.021,8.1,46.9,46.9,0,0,1-.537,8.078c-1.457-.355-3.049.4-4.566.408a47.836,47.836,0,0,1-5.652-.33" transform="translate(-6258.693 -13188.468)" fill="#4e67ae" stroke="#57607f" stroke-miterlimit="10" stroke-width="1.044"/>
      <path id="Path_11840" data-name="Path 11840" d="M6253,13222.209c.071,2.855.122,5.467.209,8.328.183,6.008-.387,12.086.189,18.091a45.4,45.4,0,0,1,.066,4.892c-.021,1.4.289,3.262-.115,4.6-2.005-.086-3.894.8-5.951.684-2.006-.111-4.029.042-6.033-.074-1.776-.1-8.312.441-8.789.084-.575-.43-.12-2.811-.042-3.737.008-.094-.012-14.384-.278-22.638-.113-3.5-.528-8.043-.331-10.474.168-2.073-.344-4.1.093-6.118a36.279,36.279,0,0,0,6.642-.158,11.907,11.907,0,0,1,2.426-.451c.85.012,1.6-.029,2.437-.065,2.964-.125,4.276.4,7.262.249C6250.785,13215.424,6252.815,13214.768,6253,13222.209Z" transform="translate(-6231.838 -13186.285)" fill="#4c6ca5" stroke="#57607f" stroke-miterlimit="10" stroke-width="1.044"/>
      <path id="Path_11841" data-name="Path 11841" d="M6289.1,13288.513c-.952.178-1.628,1.715-1.68,2.577a2.606,2.606,0,0,0,1.78,2.559c2.868,1.162,3.847-2.441,2.847-4.52-.5-1.032-2.115-1.816-3.009-.809" transform="translate(-6263.134 -13227.225)" fill="#fff" stroke="#57607f" stroke-miterlimit="10" stroke-width="0.522"/>
    </g>
    <g id="Group_8599" data-name="Group 8599" transform="translate(6642.209 11915.768)">
      <path id="Path_11842" data-name="Path 11842" d="M7576.434,12091.636c-.124,1.152-.207,2.7-1.255,3.4-.988.68-2.717.721-3.849,1.029,3.581.7,3.745,3.52,3.581,4.549-.679,4.465-4.281,3.951-5.268,3.766,1.358.576,2.161,3.973,1.935,4.857-.6,2.428-3.252,3.334-5.269,3.52.885.329,1.275.411,1.563,1.379a3.491,3.491,0,0,1,.083,2.242c-.494,1.359-2.861,2.265-4.158,2.656-2.983.863-6.276.885-9.343,1.234-3.334.35-6.977,1.132-10.311.6a8.379,8.379,0,0,1-4.28-1.853,16.384,16.384,0,0,0-3.787-2.511,13.653,13.653,0,0,0-4.569-.741c-1.461-.02-1.77.206-3.375.289l-.041-4.385-.165-20.91c1.05.207,1.276-.1,2.306-.144,1.049-.041,1.79.062,2.84-.021a5.542,5.542,0,0,0,3.252-1.173,3.637,3.637,0,0,0,.947-2.223,8.845,8.845,0,0,1,3.766-6.194c1.976-1.482,3.293-2.244,3.334-5.1.021-2.2-.041-4.548.145-6.812.185-2.429,1.028-4.362,3.519-4.095a5,5,0,0,1,.514.082c2.305.473,3.663.226,5.5,3.725,1.193,2.285,1.132,3.951,1.111,6.441-.062,4.219-1.935,7.82-3.828,11.443a12.915,12.915,0,0,0-.577,1.215,14.182,14.182,0,0,1,2.531-.474c1.791-.206,3.767-.247,5.228-.433a64.42,64.42,0,0,1,6.771-.432c1.5-.041,2.922-.1,4.363-.041h.021a20.423,20.423,0,0,1,2.922.287c1.214.206,2.223.268,2.984,1.4C7576.887,12090.133,7576.578,12090.381,7576.434,12091.636Z" transform="translate(-7502.168 -12064.039)" fill="#fff"/>
      <path id="Path_11843" data-name="Path 11843" d="M7576.646,12119.42c-.124,1.152-.207,2.7-1.255,3.395-.988.68-2.717.721-3.849,1.029,3.581.7,3.745,3.52,3.581,4.549-.679,4.466-4.281,3.951-5.268,3.767,1.358.575,2.161,3.972,1.935,4.856-.6,2.429-3.252,3.334-5.269,3.52.885.33,1.275.412,1.563,1.379a3.493,3.493,0,0,1,.083,2.243c-.494,1.358-2.861,2.265-4.158,2.655-2.983.864-6.276.885-9.343,1.234-3.334.351-6.977,1.133-10.311.6a8.38,8.38,0,0,1-4.28-1.854,16.349,16.349,0,0,0-3.787-2.51,13.629,13.629,0,0,0-4.569-.741c-1.461-.021-1.77.206-3.375.288l-.041-4.384.638-.7s7.47-1.481,11.072,0,3.478,4.014,7.594,4.734c4.116.74,12.472-.535,14.016-.926s1.935-3.006,1.152-4.467c-.762-1.461,3.6-2.613,2.717-5.7-.906-3.086,4.877-4.877,3.334-7.326s2.572-3.869,2.84-5.865c.247-1.977.761-3.932-1.791-4.9a20.564,20.564,0,0,1,2.922.287c1.214.207,2.223.269,2.984,1.4C7577.1,12117.917,7576.79,12118.164,7576.646,12119.42Z" transform="translate(-7502.38 -12091.821)" fill="#f2f2f2"/>
      <path id="Path_11844" data-name="Path 11844" d="M7577.247,12086.707a12.9,12.9,0,0,0-.576,1.215,14.077,14.077,0,0,1,2.531-.473c-.679.74-1.276,1.192-1.77,1.172-2.7-.123-3.417-1.42-2.511-4.9.906-3.457,3.544-10.352,2.6-14.076-.453-1.687-2.6-3.623-3.564-4.631.165.021.329.041.515.082,2.3.473,3.663.227,5.5,3.725,1.193,2.285,1.131,3.952,1.111,6.441C7581.013,12079.483,7579.14,12083.085,7577.247,12086.707Z" transform="translate(-7528.09 -12064.07)" fill="#f2f2f2"/>
      <g id="Group_8592" data-name="Group 8592" transform="translate(24.963 0)">
        <path id="Path_11845" data-name="Path 11845" d="M7526.9,12090.322c2.555.225,7.334.752,9.178-1.647,1.688-2.2.926-5.011,2.966-7.265,1.146-1.266,2.86-1.964,3.869-3.342,2.5-3.417-1.673-15.221,6.164-13.052,7.527,2.084,3.96,17.227.2,21.241a.647.647,0,0,0,.452,1.09c4.187.427,8.9-1.068,13.192-1.211,2.638-.088,5.615-.48,8.192.2,2.175.575,4.226,2.7,3.329,5.119-.736,1.985-2.621,2.236-4.394,2.523-1,.161-.754,1.5,0,1.79,4.607,1.746,2.544,6.984-1.114,6.258-1.062-.21-2.147,1.16-1.161,2,3.155,2.674.266,5.862-2.826,6.31a1.3,1.3,0,0,0-.307,2.35q.309,3.425-2.233,3.857a15.469,15.469,0,0,1-2.895.566c-1.764.273-3.539.365-5.312.543-3.733.375-8.229,1.639-11.944.483-2.621-.815-4.295-3.138-6.886-4.019-2.668-.908-5.545-.58-8.274-.286-1.306.141-1.339,2.194,0,2.074,3.716-.333,6.467-.178,9.727,2.024a17.76,17.76,0,0,0,4.724,2.777c5.058,1.544,11.44-.154,16.583-.713,2.912-.316,7.544-.7,9.443-3.379a4.054,4.054,0,0,0-1.634-6.15q-.153,1.175-.307,2.351c5.45-.853,8.78-6.731,3.588-10.663q-.459,1.09-.919,2.181c7.042,1,9.437-8.6,2.242-10.35v1.79c2.993-.726,4.829-.892,5.575-4.086.54-2.314.07-4.883-2.13-6.2-3.289-1.965-9.232-.958-12.83-.742-3.375.2-8.885-.467-11.75,1.41l.938.721c.527-3.909,3.841-6.979,4.426-11.075a16.381,16.381,0,0,0-.347-7.128c-1.108-3.417-4.475-6.562-8.413-5.674-5.925,1.338-1.7,11.359-4.685,15.045-1.576,1.949-3.494,2.879-4.678,5.221-1.042,2.061-.967,4.06-3.713,5.038-1.3.464-4.539.414-6.039.488a.765.765,0,0,0,0,1.528Z" transform="translate(-7526.108 -12062.85)" fill="#57607f"/>
      </g>
      <g id="Group_8594" data-name="Group 8594" transform="translate(16.353 23.425)">
        <path id="Path_11846" data-name="Path 11846" d="M7507.681,12118.832c1.458-.029,2.872-.459,4.338-.559,1.444-.1,2.934-.008,4.375-.014a95.4,95.4,0,0,1,.019,11.517c-.11,2.085.335,4.2.206,6.288a43.616,43.616,0,0,0-.016,6.172,35.607,35.607,0,0,1-.409,6.149c-1.108-.271-2.32.3-3.476.311a36.653,36.653,0,0,1-4.3-.251" transform="translate(-7507.121 -12117.461)" fill="#4e67ae"/>
        <g id="Group_8593" data-name="Group 8593">
          <path id="Path_11847" data-name="Path 11847" d="M7506.958,12118.415c1.889-.067,3.944-.728,5.793-.4,2.386.419,2.009.521,2.254,3.094.383,4-.051,8.361.018,12.4.057,3.375.465,7.543-.118,10.83-.6,3.389-4.476,2.311-7.213,2-1.427-.16-1.415,2.076,0,2.235,2.792.313,5.022-.1,7.779-.181a1.019,1.019,0,0,0,1-1,260.449,260.449,0,0,0,0-30.127.815.815,0,0,0-.8-.8,55.723,55.723,0,0,0-8.865.82c-.639.1-.483,1.144.152,1.121Z" transform="translate(-7506.398 -12116.474)" fill="#57607f"/>
        </g>
      </g>
      <g id="Group_8596" data-name="Group 8596" transform="translate(0 21.383)">
        <path id="Path_11848" data-name="Path 11848" d="M7487.486,12120.646c.054,2.174.093,4.162.159,6.34.139,4.574-.294,9.2.144,13.773a34.585,34.585,0,0,1,.05,3.725,14.118,14.118,0,0,1-.087,3.506c-1.527-.066-2.965.607-4.531.52-1.527-.085-3.067.032-4.593-.057-1.353-.079-6.328.336-6.691.064-.438-.327-.092-2.141-.033-2.846.006-.071-.009-10.951-.212-17.234-.086-2.662-.4-6.125-.252-7.975.128-1.579-.261-3.126.071-4.658a27.773,27.773,0,0,0,5.057-.121,9.087,9.087,0,0,1,1.847-.344c.646.01,1.215-.022,1.854-.05,2.256-.095,3.256.3,5.529.19C7485.8,12115.48,7487.345,12114.98,7487.486,12120.646Z" transform="translate(-7470.321 -12113.757)" fill="#4c6ca5"/>
        <g id="Group_8595" data-name="Group 8595">
          <path id="Path_11849" data-name="Path 11849" d="M7485.881,12118.62c-1.267,4.106-.659,9.035-.7,13.3-.032,3.041,1.794,11.109-.431,13.181-1.028.956-9.9.817-11.719.417-1.8-.395-1.147.058-1.256-1.922-.052-.937.042-1.9.021-2.834-.169-7.418-.779-14.832-.769-22.254,0-.579-.351-2.682-.055-3.119.47-.7.728-.32,1.718-.445,1.159-.145,2.424-.153,3.6-.246a38.11,38.11,0,0,1,6.651,0,5.355,5.355,0,0,1,1.7.193c.052.043.443,5.449.349,3.806.083,1.46,2.367,1.47,2.283,0-.146-2.571-.091-5.347-2.7-6.321-4.235-1.576-10.037.637-14.413.521a.979.979,0,0,0-.958.958c-.569,6.729.461,13.57.352,20.326-.06,3.7-1.238,9.106-.068,12.691a1.139,1.139,0,0,0,.8.8c4.9.967,11.23-.141,16.119-.55a1.1,1.1,0,0,0,1.04-.792c.611-4.449-.152-9.061-.125-13.539.028-4.6.652-9.768-.934-14.159A.26.26,0,0,0,7485.881,12118.62Z" transform="translate(-7468.964 -12111.799)" fill="#57607f"/>
        </g>
      </g>
      <g id="Group_8598" data-name="Group 8598" transform="translate(19.194 46.686)">
        <path id="Path_11850" data-name="Path 11850" d="M7514.968,12171.127c-.725.136-1.24,1.306-1.279,1.962a1.984,1.984,0,0,0,1.355,1.948c2.184.885,2.929-1.858,2.167-3.441-.378-.785-1.61-1.383-2.29-.615" transform="translate(-7513.343 -12170.229)" fill="#fff"/>
        <g id="Group_8597" data-name="Group 8597">
          <path id="Path_11851" data-name="Path 11851" d="M7514.571,12170.455c-1.4-.192-1.948,2.066-1.536,3.084.518,1.279,2.378,2.148,3.551,1.207a3.29,3.29,0,0,0,.638-3.7,2.212,2.212,0,0,0-1.6-1.3c-.537-.092-1.344.066-1.321.728a.182.182,0,0,0,.177.177c.439.054.825-.2,1.265,0a1.555,1.555,0,0,1,.8,1.119,2.506,2.506,0,0,1-.368,2.071c-.641.771-1.945.331-2.383-.46-.525-.949.173-2,.849-2.641a.17.17,0,0,0-.074-.283Z" transform="translate(-7512.902 -12169.721)" fill="#57607f"/>
        </g>
      </g>
    </g>
    <g id="Group_8604" data-name="Group 8604" transform="translate(6000.886 12148.904)">
      <path id="Path_11852" data-name="Path 11852" d="M6019.142,12807.309v17.509s.485,1.457,2.751,1.618,53.56.811,62.875,0,89.6.635,98.664.4,41.275.613,42.408.027,1.133-7.1.971-9.67-.162-142.422-.162-142.422-.486-68.144-.486-70.572-9.451-4.693-9.451-4.693l-101.886,33.047" transform="translate(-6011.167 -12598.207)" fill="#e0e0e0"/>
      <path id="Path_11853" data-name="Path 11853" d="M6001.975,12598.286v197.241l1.3,19.207h203.947v-218.2H6001.975" transform="translate(-6001.5 -12596.534)" fill="#fff"/>
      <path id="Path_11854" data-name="Path 11854" d="M6012.869,12728.836s-11.978-2.158-11.978,2.7v115.247s-.324,3.345,4.208,3.345h197.473s4.208.647,3.561-5.4,0-112.872,0-112.872,2.1-3.021-4.856-3.021Z" transform="translate(-6000.886 -12670.772)" fill="#74c1e3"/>
      <path id="Path_11855" data-name="Path 11855" d="M6005.434,12729.451h202.275" transform="translate(-6003.447 -12671.387)" fill="none" stroke="#57607f" stroke-miterlimit="10" stroke-width="1"/>
      <path id="Path_11856" data-name="Path 11856" d="M6004.446,13007.1h202.437" transform="translate(-6002.891 -12827.746)" fill="none" stroke="#57607f" stroke-miterlimit="10" stroke-width="1"/>
      <path id="Path_11857" data-name="Path 11857" d="M6001.975,12598.286v197.241l1.3,19.207h203.947v-218.2H6001.975" transform="translate(-6001.5 -12596.534)" fill="none" stroke="#57607f" stroke-miterlimit="10" stroke-width="1"/>
      <g id="Group_8600" data-name="Group 8600" transform="translate(18.52 185.925)">
        <path id="Path_11858" data-name="Path 11858" d="M6055.6,13032.578s-2.372-6.588-9.591-3.258c-6.455,2.979-.724,17.012,9.591,19.365,0,0,10.316-3.62,12.125-12.488S6059.038,13027.511,6055.6,13032.578Z" transform="translate(-6043.281 -13025.654)" fill="#e57a9e"/>
        <path id="Path_11859" data-name="Path 11859" d="M6174.425,13026.529c-1.942-1.373-26.649-3.651-24.81,3.574,0,0-.855,12.535,0,14.244.233.492,2.124.8,4.739,1.035.337,1.969.622,6.139-2.589,6.631,0,0,7.873.7,9.167-6.294,6.164.155,12.716.052,13.493-.077C6175.953,13045.436,6176.367,13027.877,6174.425,13026.529Zm-18.491,12.224a2.111,2.111,0,1,1,2.1-2.123A2.111,2.111,0,0,1,6155.934,13038.753Zm7.122,0a2.111,2.111,0,1,1,0-4.222,2.111,2.111,0,0,1,0,4.222Zm7.122,0a2.111,2.111,0,1,1,2.1-2.123A2.111,2.111,0,0,1,6170.178,13038.753Z" transform="translate(-6102.95 -13023.793)" fill="#d1d3d3"/>
        <path id="Path_11860" data-name="Path 11860" d="M6287.414,13040.346c-1.015-2.054-6.25-2.059-7.463,1.234l-10.269-3.49a5.572,5.572,0,0,0-.229-2.908,2.74,2.74,0,0,0-.244-.5l4.8-4.191a3.431,3.431,0,0,0,3.666.616c3.9-1.414,3.422-4.969,2.148-7.544s-9.208-1.945-7.482,4.4c0,0,.04.112.1.271l-4.958,5.209c-2.671-.627-6.659,1.9-4.692,5.931,0,0,1.758,1.989,3.5,2.017a3.369,3.369,0,0,0,2.368-1.227l11.21,4.283c.023.1.028.194.058.3,0,0,1.431,4.56,5.334,3.146S6288.687,13042.921,6287.414,13040.346Z" transform="translate(-6166.607 -13022.143)" fill="#d1d3d3"/>
      </g>
      <g id="Group_8602" data-name="Group 8602" transform="translate(14.808 7.573)">
        <g id="Group_8601" data-name="Group 8601">
          <path id="Path_11861" data-name="Path 11861" d="M6077.006,12635.841a21.064,21.064,0,0,1-7.33,16,21.524,21.524,0,0,1-3.368,2.379,21.115,21.115,0,0,1-8.731,2.674c-.553.047-1.119.066-1.685.066a21.111,21.111,0,1,1,21.114-21.114Z" transform="translate(-6034.783 -12614.354)" fill="#e57a9e"/>
          <path id="Path_11862" data-name="Path 11862" d="M6077.4,12628.861a6.71,6.71,0,1,0,6.71,6.709A6.71,6.71,0,0,0,6077.4,12628.861Zm.035,14.223c-5.781,0-10.444,6.3-10.444,14.088v5a15.592,15.592,0,0,0,17.457-.006,21.437,21.437,0,0,0,3.368-2.379v-2.62C6087.811,12649.389,6083.209,12643.084,6077.43,12643.084Z" transform="translate(-6052.918 -12622.313)" fill="#d1d3d4" style="mix-blend-mode: multiply;isolation: isolate"/>
          <path id="Path_11863" data-name="Path 11863" d="M6069.721,12643.084c-5.78,0-10.438,6.307-10.438,14.089v5a21.147,21.147,0,0,0,20.818-.006v-5C6080.1,12649.391,6075.5,12643.084,6069.721,12643.084Zm-.032-14.223a6.709,6.709,0,1,0,6.708,6.709A6.711,6.711,0,0,0,6069.689,12628.861Z" transform="translate(-6048.58 -12622.313)" fill="#fff"/>
          <path id="Path_11864" data-name="Path 11864" d="M6085.6,12663.428c-2.459,1.4-5.063,1.2-8.167,1.363a21.181,21.181,0,0,0,12.673-2.614v-5c0-7.783-4.662-14.088-10.442-14.088a7.9,7.9,0,0,0-2.264.33c4.689,1.395,8.18,7.021,8.18,13.758Zm-8.167-21.544a6.619,6.619,0,0,0,2.264.4,6.71,6.71,0,1,0,0-13.42,6.642,6.642,0,0,0-2.264.4,6.7,6.7,0,0,1,0,12.626Z" transform="translate(-6058.782 -12622.313)" fill="#d1d3d4" style="mix-blend-mode: multiply;isolation: isolate"/>
          <path id="Path_11865" data-name="Path 11865" d="M6039.592,12622.039a34.176,34.176,0,0,0-2.4,5.105c-.436,1.063-1.072,2-1.448,3.074a16.331,16.331,0,0,0-.7,3.225,15.931,15.931,0,0,0,.434,5.926c.257,1.061.321,2.156.648,3.211.3.98.745,1.943,1.077,2.93.8,2.389,2.86,3.906,4.655,5.524a17.544,17.544,0,0,0,4.795,3.142,29.717,29.717,0,0,0,6.04,1.734c1.017.213,2.094.246,3.134.436a5.3,5.3,0,0,0,3-.322,8.15,8.15,0,0,1,1.744-.67c.493-.066,1.012.049,1.5-.018a15.686,15.686,0,0,0,2.969-.947c.485-.177,1.024-.339,1.5-.521a9.746,9.746,0,0,0,1.577-1.082c.454-.3.952-.518,1.4-.8a7.377,7.377,0,0,0,1.411-1.49,28.684,28.684,0,0,0,3.867-5.987,14.614,14.614,0,0,0,1.269-3.176,21.59,21.59,0,0,0,.334-2.964,28.226,28.226,0,0,0,.183-6.452,17.1,17.1,0,0,0-1.884-5.983,14.686,14.686,0,0,0-.712-1.586c-.335-.47-.66-.911-.949-1.408a8.768,8.768,0,0,0-2.138-2.368c-.932-.757-1.484-1.888-2.463-2.582a21.028,21.028,0,0,0-3.039-1.905,15.264,15.264,0,0,0-3.092-1.129,18.2,18.2,0,0,0-3-.8c-1.06-.061-2.023-.283-3.088-.283a24.052,24.052,0,0,0-3.021.344,24.484,24.484,0,0,0-10.82,4.75,15.115,15.115,0,0,0-1.827,2.055" transform="translate(-6034.869 -12613.869)" fill="none" stroke="#57607f" stroke-miterlimit="10" stroke-width="1.402"/>
          <path id="Path_11866" data-name="Path 11866" d="M6045.765,12631.791a.61.61,0,0,1-.17.227" transform="translate(-6040.872 -12623.962)" fill="none" stroke="#57607f" stroke-miterlimit="10" stroke-width="0.701"/>
          <path id="Path_11867" data-name="Path 11867" d="M6059.447,12680.148a7.133,7.133,0,0,1-.057-2.385c0-.82-.058-1.615-.058-2.439a20.738,20.738,0,0,1,.481-5.077,15.031,15.031,0,0,1,2.143-5.065,9.755,9.755,0,0,1,2.092-2.029,13.154,13.154,0,0,1,2.147-1.559,8.5,8.5,0,0,1,2.216-.323,6.522,6.522,0,0,1,2.069-.07,5.005,5.005,0,0,1,2.188.522c.634.422,1.288.818,1.879,1.237a10.813,10.813,0,0,1,2.844,3.346,12.656,12.656,0,0,1,2,4.235,26.108,26.108,0,0,1,.612,4.059c.076,1.594.189,3.117.114,4.713-.016.338.014.783,0,1.125" transform="translate(-6048.597 -12640.493)" fill="none" stroke="#57607f" stroke-miterlimit="10" stroke-width="0.701"/>
          <path id="Path_11868" data-name="Path 11868" d="M6073.312,12629.082a10.066,10.066,0,0,1,2.8-.047,7.638,7.638,0,0,1,2.233.8,5.671,5.671,0,0,1,2.393,3.192,8.354,8.354,0,0,1,.217,3.632,4.276,4.276,0,0,1-.678,1.74,11.376,11.376,0,0,1-1.493,1.8,5.688,5.688,0,0,1-3.511,1.635,5.869,5.869,0,0,1-3.8-.649c-1.266-.761-2.752-1.6-3.3-3.075a7.515,7.515,0,0,1-.28-3.693,7.1,7.1,0,0,1,.811-1.779,8.305,8.305,0,0,1,1.124-1.777,9.757,9.757,0,0,1,3.4-1.777" transform="translate(-6053.366 -12622.369)" fill="none" stroke="#57607f" stroke-miterlimit="10" stroke-width="0.701"/>
        </g>
        <path id="Path_11869" data-name="Path 11869" d="M6146.329,12631.922h57.186" transform="translate(-6097.601 -12624.035)" fill="none" stroke="#57607f" stroke-miterlimit="10" stroke-width="0.701"/>
        <path id="Path_11870" data-name="Path 11870" d="M6292.819,12631.575h5.6" transform="translate(-6180.097 -12623.841)" fill="none" stroke="#57607f" stroke-miterlimit="10" stroke-width="0.701"/>
        <path id="Path_11871" data-name="Path 11871" d="M6322.949,12632.527l.6-.605" transform="translate(-6197.065 -12624.035)" fill="none" stroke="#57607f" stroke-miterlimit="10" stroke-width="0.701"/>
        <path id="Path_11872" data-name="Path 11872" d="M6148.06,12661.359h30.182" transform="translate(-6098.576 -12640.613)" fill="none" stroke="#57607f" stroke-miterlimit="10" stroke-width="0.701"/>
        <path id="Path_11873" data-name="Path 11873" d="M6226.5,12661.878h55.956" transform="translate(-6142.75 -12640.905)" fill="none" stroke="#57607f" stroke-miterlimit="10" stroke-width="0.701"/>
        <path id="Path_11874" data-name="Path 11874" d="M6145.983,12687.852h65.355" transform="translate(-6097.406 -12655.532)" fill="none" stroke="#57607f" stroke-miterlimit="10" stroke-width="0.701"/>
        <path id="Path_11875" data-name="Path 11875" d="M6304.421,12686.813" transform="translate(-6186.631 -12654.948)" fill="none" stroke="#57607f" stroke-miterlimit="10" stroke-width="0.701"/>
      </g>
      <g id="Group_8603" data-name="Group 8603" transform="translate(33.457 74.398)">
        <path id="Path_11876" data-name="Path 11876" d="M6077.474,12800.172c1.69,1.973,4.913,20.547,5.772,24.789.869,4.285,5.555,22.128,7.351,23.158,1.185.682,3.669.213,5.014.227,2.258.023,41.438,1.911,50.263,1.578,4.424-.167,21.918-1.07,25.693-1.876,1.353-1.513,6.275-11.876,7.392-15.138,1.718-5.014,2.994-10.412,5.01-15.369,1.683-4.136,3.918-12.99,4.89-17.369" transform="translate(-6077.474 -12785.611)" fill="none" stroke="#57607f" stroke-miterlimit="10" stroke-width="1.044"/>
        <path id="Path_11877" data-name="Path 11877" d="M6130.048,12937.484a6.806,6.806,0,0,0-7,7.27c.464,3.209,4.416,5.3,7.344,4.8,3.285-.564,5.452-2.439,5.292-5.863-.139-2.98-2.2-6.592-5.634-6.2" transform="translate(-6103.116 -12862.924)" fill="none" stroke="#57607f" stroke-miterlimit="10" stroke-width="1.044"/>
        <path id="Path_11878" data-name="Path 11878" d="M6268.974,12937.484a6.807,6.807,0,0,0-7,7.27c.464,3.209,4.417,5.3,7.344,4.8,3.285-.564,5.453-2.439,5.293-5.863-.14-2.98-2.2-6.592-5.634-6.2" transform="translate(-6181.353 -12862.924)" fill="none" stroke="#57607f" stroke-miterlimit="10" stroke-width="1.044"/>
        <path id="Path_11879" data-name="Path 11879" d="M6094.241,12876.4h93.079" transform="translate(-6086.917 -12828.54)" fill="none" stroke="#57607f" stroke-miterlimit="10" stroke-width="1.044"/>
        <path id="Path_11880" data-name="Path 11880" d="M6089.5,12843.689c6.8-.059,71.035,1.322,85.583.406,4.526-.286,9.3-.262,13.793-.465" transform="translate(-6084.247 -12810.086)" fill="none" stroke="#57607f" stroke-miterlimit="10" stroke-width="1.044"/>
        <path id="Path_11881" data-name="Path 11881" d="M6081.344,12808.3H6190.65" transform="translate(-6079.653 -12790.188)" fill="none" stroke="#57607f" stroke-miterlimit="10" stroke-width="1.044"/>
        <path id="Path_11882" data-name="Path 11882" d="M6108.945,12914.648a284.125,284.125,0,0,0,39.387,1.354c10.794-.383,22.021,2.3,32.637.076,5.625-1.182,11.081-2.854,15.2-7.176" transform="translate(-6095.197 -12846.845)" fill="none" stroke="#57607f" stroke-miterlimit="10" stroke-width="1.044"/>
        <path id="Path_11883" data-name="Path 11883" d="M6316.342,12823.153c1.485-5.347,3.737-10.243,5.316-15.483,1.545-5.13,2.712-10.409,4.149-15.545,1.473-5.264,2.26-12.289,5.891-16.705,3.964-4.82,10.665-6.119,16.421-7.277a56.763,56.763,0,0,1,16.565-1.107" transform="translate(-6211.994 -12766.843)" fill="none" stroke="#57607f" stroke-miterlimit="10" stroke-width="1.044"/>
        <path id="Path_11884" data-name="Path 11884" d="M6129.839,12809.073c-.006,6.378,1.927,14.345,2.969,21.3,1.116,7.452,1.238,14.956,2.44,22.312" transform="translate(-6106.963 -12790.625)" fill="none" stroke="#57607f" stroke-miterlimit="10" stroke-width="1.044"/>
        <path id="Path_11885" data-name="Path 11885" d="M6185.9,12809.073c0,15.253-.337,30.423-.337,45.638" transform="translate(-6138.342 -12790.625)" fill="none" stroke="#57607f" stroke-miterlimit="10" stroke-width="1.044"/>
        <path id="Path_11886" data-name="Path 11886" d="M6231.208,12809.846c-1.446,3.641-.92,8.471-1.36,12.424-.444,3.986-1.183,7.938-1.653,11.9-.873,7.366-2.4,14.414-2.4,21.986" transform="translate(-6161.004 -12791.061)" fill="none" stroke="#57607f" stroke-miterlimit="10" stroke-width="1.044"/>
        <path id="Path_11887" data-name="Path 11887" d="M6266.024,12809.846c.49,4.04-1.706,8.387-2.441,12.238-.851,4.463-1.663,9.1-2.927,13.468-1.938,6.7-3.156,14.112-5.45,20.608" transform="translate(-6177.565 -12791.061)" fill="none" stroke="#57607f" stroke-miterlimit="10" stroke-width="1.044"/>
      </g>
    </g>
    <g id="Group_8607" data-name="Group 8607" transform="translate(6549.717 11999.688)">
      <g id="Group_8605" data-name="Group 8605" transform="translate(0 0)">
        <path id="Path_11888" data-name="Path 11888" d="M7469.681,12391.383v-101.65c0-15.754-14.675-15.538-14.675-15.538h-159.84c-19.127,0-16.483,19.1-16.483,19.1v100.679s-4.154,9.28,16.483,11.007c2.585.216,5.122.4,7.645.57a52.216,52.216,0,0,1-.394,7.794c-.7,4.519-1.2,9.359-2.572,13.754-1.792,5.734-4.422,11.256-9.232,14.949a35.363,35.363,0,0,1-4.917,3.289c-2.165,1.155-4.98,1.5-6.984,2.775,5.615.313,11.395.248,17.02.248,6.859,0,13.924.078,20.214-3.058,5.2-2.593,9.53-5.245,13.447-9.628,4.48-5.013,7.462-10.693,10.36-16.709a33.8,33.8,0,0,0,3.2-12.176c28.6-.07,55.727-1.81,87.864-1.81,0,0,30.041-.978,33.44-1.462S7469.681,12398.673,7469.681,12391.383Z" transform="translate(-7269.122 -12265.79)" fill="#e1e0e7" style="mix-blend-mode: multiply;isolation: isolate"/>
        <path id="Path_11889" data-name="Path 11889" d="M7433.9,12254.955h-159.84c-19.126,0-16.483,19.1-16.483,19.1v100.679s-4.154,9.28,16.483,11.007c2.585.216,5.121.4,7.646.571a52.265,52.265,0,0,1-.395,7.793c-.694,4.518-1.2,9.359-2.571,13.754-1.793,5.733-4.423,11.256-9.232,14.949a35.373,35.373,0,0,1-4.918,3.289c-2.164,1.155-4.98,1.5-6.984,2.775,5.616.313,11.4.248,17.02.248,6.859,0,13.924.078,20.214-3.059,5.2-2.592,9.531-5.244,13.448-9.626,4.48-5.014,7.462-10.694,10.36-16.71a33.827,33.827,0,0,0,3.2-12.176c28.6-.07,55.726-1.81,87.864-1.81h25.915s12.949.216,12.949-13.6V12270.5C7448.578,12254.74,7433.9,12254.955,7433.9,12254.955Z" transform="translate(-7257.237 -12254.955)" fill="#fff" stroke="#57607f" stroke-miterlimit="10" stroke-width="1"/>
        <path id="Path_11890" data-name="Path 11890" d="M7290.05,12300.717s-2.158,82.7,0,86.381,70.572,2.247,74.025,2.043,8.633,1.705,10.144.443,1.295-88.418.863-88.867,6.69-1.879-26.33-3.1S7290.125,12297.681,7290.05,12300.717Z" transform="translate(-7275.176 -12278.72)" fill="#e1e0e7"/>
        <path id="Path_11891" data-name="Path 11891" d="M7508.662,12315.185h56.112" transform="translate(-7398.829 -12288.874)" fill="none" stroke="#e1e0e7" stroke-miterlimit="10" stroke-width="1"/>
        <path id="Path_11892" data-name="Path 11892" d="M7516.566,12353.72h25.467" transform="translate(-7403.279 -12310.575)" fill="none" stroke="#e1e0e7" stroke-miterlimit="10" stroke-width="1"/>
        <path id="Path_11893" data-name="Path 11893" d="M7513.6,12395.219h54.386" transform="translate(-7401.611 -12333.945)" fill="none" stroke="#e1e0e7" stroke-miterlimit="10" stroke-width="1"/>
        <path id="Path_11894" data-name="Path 11894" d="M7521.507,12436.718h21.15" transform="translate(-7406.062 -12357.316)" fill="none" stroke="#e1e0e7" stroke-miterlimit="10" stroke-width="1"/>
        <path id="Path_11895" data-name="Path 11895" d="M7588.7,12438.7h20.719" transform="translate(-7443.899 -12358.43)" fill="none" stroke="#e1e0e7" stroke-miterlimit="10" stroke-width="1"/>
        <path id="Path_11896" data-name="Path 11896" d="M7514.59,12472.289h55.25" transform="translate(-7402.167 -12377.349)" fill="none" stroke="#e1e0e7" stroke-miterlimit="10" stroke-width="1"/>
        <path id="Path_11897" data-name="Path 11897" d="M7512.614,12503.907H7558.8" transform="translate(-7401.054 -12395.154)" fill="none" stroke="#e1e0e7" stroke-miterlimit="10" stroke-width="1"/>
      </g>
      <g id="Group_8606" data-name="Group 8606" transform="translate(20.541 36.282)">
        <path id="Path_11898" data-name="Path 11898" d="M7310.371,12405.888c2.892,6.484,5.415,15.176,8.545,21.88.544,1.164,1.9,5.006,1.9,5.006s4.047.555,5.52.553c3.205-.008,6.47.172,9.683.011,6.32-.317,12.189-.409,18.576-.425,3.032-.008,6.323-.324,9.326-.18,1.084.053,5.613.041,5.613.041l2.628-7.268c1.356-3.749,1.655-6.313,2.995-10.025.658-1.82.631-2.807,1.306-4.641.548-1.486.915-3.945,1.588-4.952" transform="translate(-7307.701 -12376.235)" fill="none" stroke="#57607f" stroke-miterlimit="10" stroke-width="1"/>
        <path id="Path_11899" data-name="Path 11899" d="M7304.258,12405.888h73.106" transform="translate(-7304.258 -12376.235)" fill="none" stroke="#57607f" stroke-miterlimit="10" stroke-width="1"/>
        <path id="Path_11900" data-name="Path 11900" d="M7335.669,12405.888c.207,1.2,1.229,3.307,1.571,4.542.485,1.754,1.155,3.42,1.763,5.162,1.388,3.965,2.789,7.916,4.247,11.834a40.815,40.815,0,0,0,2.313,5.486" transform="translate(-7321.947 -12376.235)" fill="none" stroke="#57607f" stroke-miterlimit="10" stroke-width="1"/>
        <path id="Path_11901" data-name="Path 11901" d="M7358.319,12406.415c1.072.61,1.267,3.124,1.6,4.27.543,1.853,1.081,3.673,1.574,5.54.979,3.705,1.459,7.465,2.486,11.168a48.232,48.232,0,0,0,1.55,5.678" transform="translate(-7334.703 -12376.532)" fill="none" stroke="#57607f" stroke-miterlimit="10" stroke-width="1"/>
        <path id="Path_11902" data-name="Path 11902" d="M7389.758,12406.731c0,6.981-.138,13.93-.138,20.954v5.148" transform="translate(-7352.33 -12376.711)" fill="none" stroke="#57607f" stroke-miterlimit="10" stroke-width="1"/>
        <path id="Path_11903" data-name="Path 11903" d="M7410.907,12406.731c.138,1.426-.628,3.179-.834,4.627-.276,1.946-.939,3.72-1.342,5.616-.769,3.622-1.664,7.354-2.24,11-.278,1.762-.864,3.5-1.108,5.271" transform="translate(-7361.207 -12376.711)" fill="none" stroke="#57607f" stroke-miterlimit="10" stroke-width="1"/>
        <path id="Path_11904" data-name="Path 11904" d="M7432.149,12405.783a34.016,34.016,0,0,0-1.626,4.826c-.661,2-1.206,3.918-1.861,5.912-1.178,3.591-2.293,7.29-3.522,10.914-.539,1.592-1.17,3.425-1.692,4.865" transform="translate(-7371.38 -12376.177)" fill="none" stroke="#57607f" stroke-miterlimit="10" stroke-width="1"/>
        <path id="Path_11905" data-name="Path 11905" d="M7328.918,12367.893c.187-.895,1.094-1.656,1.665-2.358.829-1.021,1.551-2.067,2.341-3.128,1.928-2.586,3.874-5.27,6.011-7.7,2.1-2.387,4.247-4.545,6.194-7.035,1.557-1.99,2.838-4.088,4.5-5.991.94-1.073,1.992-2.081,2.851-3.223.585-.777,3.686-.507,4.583.466,1.037,1.123,2.118,2.257,3.072,3.451,1.471,1.844,11.492,14.047,13.966,18.915a26.237,26.237,0,0,0,4.81,6.737" transform="translate(-7318.146 -12338.01)" fill="none" stroke="#57607f" stroke-miterlimit="10" stroke-width="1"/>
        <path id="Path_11906" data-name="Path 11906" d="M7319.75,12427.281h59.732" transform="translate(-7312.982 -12388.283)" fill="none" stroke="#57607f" stroke-miterlimit="10" stroke-width="1"/>
        <path id="Path_11907" data-name="Path 11907" d="M7328.6,12449.412h53.449" transform="translate(-7317.967 -12400.746)" fill="none" stroke="#57607f" stroke-miterlimit="10" stroke-width="1"/>
      </g>
    </g>
    <path id="Path_11908" data-name="Path 11908" d="M6162.774,12438.08c0-6.652-7.392-12.15-15.1-12.922-.646-8.615-8.009-12.771-16.789-12.771-8.758,0-15.743,4.128-16.413,12.719a10.889,10.889,0,0,0-1.734-.129c-10.881.306-19.405,5.723-19.891,14.766-.547,10.183,9.55,12.518,19.891,11.9.088,0,.179-.012.267-.014v.014h33.122v-.025C6156.785,12451.287,6162.774,12447.728,6162.774,12438.08Z" transform="translate(-51.778 -343.926)" fill="#e1e0e7"/>
    <path id="Path_11909" data-name="Path 11909" d="M7313.511,12130.147c0-4.1-5.383-7.354-9.314-7.972-.4-5.316-4.942-7.881-10.36-7.881-5.4,0-9.712,2.547-10.126,7.847a8.26,8.26,0,0,0-1.07-.078c-4.544,0-11.974,3.53-12.273,9.109-.337,6.282,7.729,7.345,12.273,7.345.055,0,.11-.008.165-.009v.009h20.437v-.016C7307.628,12138.326,7313.511,12137.365,7313.511,12130.147Z" transform="translate(-714.908 -176.054)" fill="#e1e0e7"/>
    <path id="Path_11910" data-name="Path 11910" d="M6332.766,12296.143c-1.317-2.691-6.079-6.9-9.509-7.416a5.532,5.532,0,0,0-6.641,6.332c.666,3.617,4.192,7.506,6.828,10.252a50.339,50.339,0,0,0,10.046,8.488c5.493-3.955,15.847-12.648,16.282-20.582.261-4.762-3.821-6.5-8.852-4.907-3.816,1.212-6.539,4.819-8.155,7.833" transform="translate(-177.755 -273.726)" fill="#e57a9e"/>
    <path id="Path_11911" data-name="Path 11911" d="M6186.947,13399.609c-1.316-2.691-6.079-6.9-9.508-7.416a5.532,5.532,0,0,0-6.641,6.332c.666,3.616,4.192,7.507,6.828,10.253a50.328,50.328,0,0,0,10.047,8.487c5.492-3.955,15.847-12.648,16.281-20.582.261-4.762-3.821-6.5-8.852-4.907-3.816,1.212-6.539,4.819-8.155,7.833" transform="translate(-95.637 -895.149)" fill="#e57a9e"/>
    <path id="Path_11912" data-name="Path 11912" d="M6806.745,12069.537v-5.851a2.152,2.152,0,0,0-2.152-2.151h-2.288a20.454,20.454,0,0,0-2.25-5.423l1.621-1.622a2.152,2.152,0,0,0,0-3.043l-4.138-4.136a2.152,2.152,0,0,0-3.042,0l-1.621,1.62a20.462,20.462,0,0,0-5.422-2.25v-2.287a2.152,2.152,0,0,0-2.152-2.152h-5.848a2.153,2.153,0,0,0-2.152,2.152v2.287a20.481,20.481,0,0,0-5.425,2.25l-1.621-1.62a2.152,2.152,0,0,0-3.042,0l-4.137,4.136a2.152,2.152,0,0,0,0,3.043l1.621,1.622a20.471,20.471,0,0,0-2.251,5.423h-2.288a2.151,2.151,0,0,0-2.152,2.151v5.851a2.152,2.152,0,0,0,2.152,2.152h2.288a20.492,20.492,0,0,0,2.251,5.422l-1.621,1.623a2.152,2.152,0,0,0,0,3.043l4.138,4.137a2.153,2.153,0,0,0,3.043,0l1.621-1.62a20.567,20.567,0,0,0,5.425,2.251v2.287a2.153,2.153,0,0,0,2.152,2.152h5.848a2.153,2.153,0,0,0,2.152-2.152v-2.287a20.562,20.562,0,0,0,5.422-2.251l1.621,1.62a2.152,2.152,0,0,0,3.042,0l4.138-4.137a2.152,2.152,0,0,0,0-3.044l-1.62-1.62a20.514,20.514,0,0,0,2.25-5.424h2.288A2.153,2.153,0,0,0,6806.745,12069.537Zm-22.408,9.366a12.446,12.446,0,1,1,10.326-10.318A12.454,12.454,0,0,1,6784.337,12078.9Z" transform="translate(-426.374 -135.477)" fill="#e1e0e7"/>
    <g id="Group_8608" data-name="Group 8608" transform="translate(6023.95 11944.716)">
      <path id="Path_11913" data-name="Path 11913" d="M6147.465,12212.241a9.669,9.669,0,1,1-9.669-9.669A9.669,9.669,0,0,1,6147.465,12212.241Z" transform="translate(-6095.606 -12170.484)" fill="#e1e0e7"/>
      <path id="Path_11914" data-name="Path 11914" d="M6134.611,12180.855a2.312,2.312,0,0,0,2.731-1.8,42.142,42.142,0,0,0,0-15.5,2.312,2.312,0,0,0-2.731-1.8l-8.391,1.645a31.12,31.12,0,0,0-3.307-7.961l7.107-4.776a2.316,2.316,0,0,0,.658-3.208,42.432,42.432,0,0,0-10.956-10.955,2.314,2.314,0,0,0-3.207.657l-4.776,7.106a31.221,31.221,0,0,0-7.961-3.307l1.645-8.393a2.312,2.312,0,0,0-1.8-2.73,42.139,42.139,0,0,0-15.5,0,2.312,2.312,0,0,0-1.8,2.73l1.645,8.393a31.161,31.161,0,0,0-7.961,3.307l-4.777-7.106a2.315,2.315,0,0,0-3.207-.658,42.436,42.436,0,0,0-10.956,10.956,2.315,2.315,0,0,0,.657,3.208l7.107,4.776a31.138,31.138,0,0,0-3.307,7.961l-8.391-1.645a2.312,2.312,0,0,0-2.731,1.8,42.114,42.114,0,0,0,0,15.5,2.313,2.313,0,0,0,2.731,1.8l8.391-1.646a31.138,31.138,0,0,0,3.307,7.961l-7.107,4.777a2.314,2.314,0,0,0-.657,3.207,42.417,42.417,0,0,0,10.956,10.955,2.314,2.314,0,0,0,3.207-.656l4.777-7.107a31.092,31.092,0,0,0,7.961,3.307l-1.645,8.392a2.313,2.313,0,0,0,1.8,2.731,42.139,42.139,0,0,0,15.5,0,2.312,2.312,0,0,0,1.8-2.731l-1.645-8.392a31.117,31.117,0,0,0,7.961-3.307l4.776,7.107a2.314,2.314,0,0,0,3.207.656,42.417,42.417,0,0,0,10.956-10.955,2.314,2.314,0,0,0-.658-3.207l-7.107-4.777a31.12,31.12,0,0,0,3.307-7.961Zm-34.7,10.72a20.668,20.668,0,1,1,16.226-16.227A20.688,20.688,0,0,1,6099.915,12191.575Z" transform="translate(-6053.683 -12129.117)" fill="#e1e0e7"/>
    </g>
    <path id="Path_11915" data-name="Path 11915" d="M7034.358,12111.758a6.142,6.142,0,1,1-8.676.388A6.14,6.14,0,0,1,7034.358,12111.758Zm-32.273-17.024a3.068,3.068,0,0,0,4.336-.192,32.272,32.272,0,0,1,45.541-2.043,3.07,3.07,0,0,0,4.143-4.532,38.421,38.421,0,0,0-54.216,2.431A3.069,3.069,0,0,0,7002.085,12094.733Zm8.5,7.768a3.067,3.067,0,0,0,4.336-.193,20.748,20.748,0,0,1,29.278-1.313,3.07,3.07,0,1,0,4.142-4.531,26.892,26.892,0,0,0-37.951,1.7A3.067,3.067,0,0,0,7010.583,12102.5Zm7.366,6.733a3.066,3.066,0,0,0,4.335-.2,10.761,10.761,0,0,1,15.181-.682,3.07,3.07,0,1,0,4.142-4.531,16.908,16.908,0,0,0-23.855,1.07A3.069,3.069,0,0,0,7017.949,12109.234Z" transform="translate(-563.267 -155.576)" fill="#e1e0e7"/>
    <path id="Path_11916" data-name="Path 11916" d="M6405.694,12080.216a4.243,4.243,0,1,1-5.994.269A4.242,4.242,0,0,1,6405.694,12080.216Zm-22.3-11.762a2.12,2.12,0,0,0,3-.133,22.3,22.3,0,0,1,31.463-1.411,2.121,2.121,0,0,0,2.862-3.131,26.543,26.543,0,0,0-37.457,1.68A2.119,2.119,0,0,0,6383.4,12068.454Zm5.871,5.366a2.118,2.118,0,0,0,3-.133,14.335,14.335,0,0,1,20.228-.908,2.121,2.121,0,1,0,2.862-3.131,18.58,18.58,0,0,0-26.22,1.177A2.118,2.118,0,0,0,6389.269,12073.82Zm5.089,4.652a2.119,2.119,0,0,0,3-.135,7.434,7.434,0,0,1,10.488-.471,2.121,2.121,0,1,0,2.862-3.131,11.68,11.68,0,0,0-16.481.74A2.119,2.119,0,0,0,6394.357,12078.473Z" transform="translate(-215.024 -143.703)" fill="#e1e0e7"/>
    <g id="Group_8611" data-name="Group 8611" transform="translate(6198.564 11801.674)">
      <g id="Group_8609" data-name="Group 8609" transform="translate(25.826)">
        <path id="Path_11917" data-name="Path 11917" d="M6592.854,11894.678l-24.5-42.037,114.24-50.967Z" transform="translate(-6543.96 -11801.674)" fill="#d6d6d8"/>
        <path id="Path_11918" data-name="Path 11918" d="M6536.908,11852.641l114.24-50.967-138.63,46.109Z" transform="translate(-6512.519 -11801.674)" fill="#fff"/>
        <path id="Path_11919" data-name="Path 11919" d="M6626.285,11864.33l-1.843,30.348,89.737-93Z" transform="translate(-6575.549 -11801.674)" fill="#bebebf"/>
        <path id="Path_11920" data-name="Path 11920" d="M6716.555,11801.674l-51.217,68.975-36.676-6.318Z" transform="translate(-6577.925 -11801.674)" fill="#fff"/>
      </g>
      <g id="Group_8610" data-name="Group 8610" transform="translate(0 0.324)">
        <path id="Path_11921" data-name="Path 11921" d="M6585.963,12029.1c-6.088,2.959-11.88,7.914-15.971,11.978" transform="translate(-6519.06 -11930.071)" fill="none" stroke="#57607f" stroke-miterlimit="10" stroke-width="1"/>
        <path id="Path_11922" data-name="Path 11922" d="M6529.835,12080.476c-3.482,4.024-8.24,9.251-11.222,14.567" transform="translate(-6490.125 -11959.006)" fill="none" stroke="#57607f" stroke-miterlimit="10" stroke-width="1"/>
        <path id="Path_11923" data-name="Path 11923" d="M6485.5,12143.466c-4.068,4.47-5.9,11.854-10.359,16.4" transform="translate(-6465.642 -11994.479)" fill="none" stroke="#57607f" stroke-miterlimit="10" stroke-width="1"/>
        <path id="Path_11924" data-name="Path 11924" d="M6460.556,12218.559c-1.469,4.967-3.7,10.569-5.18,15.539" transform="translate(-6454.513 -12036.769)" fill="none" stroke="#57607f" stroke-miterlimit="10" stroke-width="1"/>
        <path id="Path_11925" data-name="Path 11925" d="M6453.4,12277.1v12.086" transform="translate(-6453.4 -12069.737)" fill="none" stroke="#57607f" stroke-miterlimit="10" stroke-width="1"/>
        <path id="Path_11926" data-name="Path 11926" d="M6456.623,12326.334l4.09,11.373" transform="translate(-6455.215 -12097.463)" fill="none" stroke="#57607f" stroke-miterlimit="10" stroke-width="1"/>
        <path id="Path_11927" data-name="Path 11927" d="M6476.223,12374.516c1.02,4.662,3.223,8.44,4.316,12.949" transform="translate(-6466.253 -12124.597)" fill="none" stroke="#57607f" stroke-miterlimit="10" stroke-width="1"/>
        <path id="Path_11928" data-name="Path 11928" d="M6568.51,11918.185c.775,2.782,3.362,4.939,4.562,7.529,1.364,2.942,3,5.851,4.614,8.66,3.386,5.884,7.717,11.084,10.6,17.238,1.356,2.9,3.818,5.49,4.83,8.44" transform="translate(-6518.225 -11867.611)" fill="none" stroke="#57607f" stroke-miterlimit="10" stroke-width="1"/>
        <path id="Path_11929" data-name="Path 11929" d="M6626.247,11945.11c-.484,1.4-.355,3.573-.432,5.089-.1,2-.108,4-.108,6.02,0,2.32-.125,4.588-.215,6.9-.1,2.426-.736,4.811-.863,7.24a47.966,47.966,0,0,1-.54,5.5" transform="translate(-6549.524 -11882.774)" fill="none" stroke="#57607f" stroke-miterlimit="10" stroke-width="1"/>
        <path id="Path_11930" data-name="Path 11930" d="M6628.289,11945.381c1.061.125,2.171-.355,3.239-.092.533.132,1.06.584,1.635.719a19.63,19.63,0,0,1,2.339.453,25.745,25.745,0,0,0,7.592,1.289c2.974.165,5.772,1.313,8.716,1.627,2.5.267,5.061.432,7.535.75,2.258.29,3.321.33,5.587.707" transform="translate(-6551.89 -11882.83)" fill="none" stroke="#57607f" stroke-miterlimit="10" stroke-width="1"/>
        <path id="Path_11931" data-name="Path 11931" d="M6536.908,11912.014c-2.267-.378-3.313-.75-5.571-1.04-2.475-.318-4.739-1.175-7.241-1.442-2.944-.313-8.6-2.141-11.578-2.306" transform="translate(-6486.692 -11861.439)" fill="none" stroke="#57607f" stroke-miterlimit="10" stroke-width="1"/>
        <path id="Path_11932" data-name="Path 11932" d="M6711.781,11871.552c.2-1.013,1.354-1.94,2.05-2.7a21.637,21.637,0,0,0,2.751-3.342c1.617-2.635,3.013-5.58,4.962-7.986,1.754-2.164,3.557-4.281,5.349-6.394,1.84-2.17,3.234-4.646,4.934-6.912,2.057-2.742,4.232-5.374,6.2-8.178a73.117,73.117,0,0,1,5.614-7.337c1.839-2.012,3.48-4.219,5.285-6.275a38.255,38.255,0,0,0,4.208-6.216,52.636,52.636,0,0,1,5.05-6.6,35.9,35.9,0,0,0,4.2-6.044" transform="translate(-6598.908 -11803.065)" fill="none" stroke="#57607f" stroke-miterlimit="10" stroke-width="1"/>
        <path id="Path_11933" data-name="Path 11933" d="M6569.47,11853.523c.656-.8,2.115-1.06,3.087-1.393a21.668,21.668,0,0,0,4.011-1.628c2.677-1.546,5.309-3.471,8.168-4.657,2.573-1.066,5.167-2.07,7.749-3.073,2.651-1.03,5.057-2.543,7.631-3.726,3.115-1.43,6.282-2.708,9.349-4.234a73.447,73.447,0,0,1,8.432-3.776c2.575-.892,5.07-2.05,7.637-3a38.227,38.227,0,0,0,6.661-3.46,52.82,52.82,0,0,1,7.587-3.4c2.225-.908,40.509-17.427,42.464-18.765" transform="translate(-6518.766 -11802.415)" fill="none" stroke="#57607f" stroke-miterlimit="10" stroke-width="1"/>
        <path id="Path_11934" data-name="Path 11934" d="M6512.518,11848.2a57.484,57.484,0,0,1,6.794-2.1,22.09,22.09,0,0,0,4.083-1.514,75.269,75.269,0,0,1,9.05-3.012c2.669-.795,4.984-1.994,7.656-2.727,2.743-.751,5.292-2.008,7.975-2.918,3.246-1.1,6.668-1.637,9.875-2.838a69.124,69.124,0,0,1,8.516-2.833c2.654-.621,5.376-1.978,8.027-2.655a40.7,40.7,0,0,0,7.339-2.455,49.633,49.633,0,0,1,7.541-2.9c2.306-.674,58.717-18.705,60.8-19.835" transform="translate(-6486.692 -11802.415)" fill="none" stroke="#57607f" stroke-miterlimit="10" stroke-width="1"/>
        <path id="Path_11935" data-name="Path 11935" d="M6628.661,11865.4c.476-.916,20.322-13.606,21.2-14.133a25.227,25.227,0,0,0,3.885-2.591,59.18,59.18,0,0,1,6.837-4.973c2.3-1.577,4.626-3.1,6.944-4.612,2.38-1.557,4.42-3.535,6.694-5.225,2.751-2.045,5.585-3.951,8.269-6.08a73.315,73.315,0,0,1,7.467-5.439c2.334-1.406,4.535-3.057,6.85-4.516a38.175,38.175,0,0,0,5.8-4.764,52.827,52.827,0,0,1,6.72-4.9,35.864,35.864,0,0,0,5.746-4.6" transform="translate(-6552.099 -11803.065)" fill="none" stroke="#57607f" stroke-miterlimit="10" stroke-width="1"/>
        <path id="Path_11936" data-name="Path 11936" d="M6624.584,11981.043c1.828-1.4,3.234-3.527,4.771-5.293a55.159,55.159,0,0,1,4.724-4.851c3.7-3.331,6.187-7.661,9.711-11.114a48.8,48.8,0,0,1,5.612-5.288" transform="translate(-6549.803 -11888.061)" fill="none" stroke="#57607f" stroke-miterlimit="10" stroke-width="1"/>
      </g>
    </g>
    <path id="Path_11937" data-name="Path 11937" d="M6983.919,11950.526s-12.524,0-21.73-.284c-9.935-.309-22.871,1.912-27.134-8.427a12.27,12.27,0,0,1,2.53-12.761c6.007-6.068,14.688-1.8,14.688-1.8s-5.821-7.62-4.878-16.256c1.777-16.274,20.46-24.268,36.574-18.572,12.8,4.521,15.853,21.176,15.853,21.176s2.992-14.577,18.472-13.43c7.717.571,11.583,4.764,13.218,8.437,3.22,7.231-.055,13.519-4.437,19.365,3.279-3.118,12.733-2.96,16.7,1.869,2.209,2.688,3.208,8.176,1.729,11.371-1.144,2.47-4.318,5.526-6.836,6.251-3.421.984-7.071.859-10.59,1.015-6.963.309-44.162,2.045-44.162,2.045" transform="translate(-525.626 -50.078)" fill="#fff" stroke="#57607f" stroke-miterlimit="10" stroke-width="1"/>
    <path id="Path_11938" data-name="Path 11938" d="M6280.281,12540.186c-2.564-2.474-7.194-.328-8.211,2.354a5.8,5.8,0,0,0,1.02,5.271,5.257,5.257,0,0,0,5.314,1.947c3.576-.979,4.517-4.618,3.256-7.58" transform="translate(-152.566 -415.282)" fill="none" stroke="#e1e0e7" stroke-miterlimit="10" stroke-width="1"/>
    <path id="Path_11939" data-name="Path 11939" d="M6281.979,11995.365c-2.565-2.473-7.195-.327-8.211,2.354a5.8,5.8,0,0,0,1.02,5.271,5.257,5.257,0,0,0,5.315,1.947c3.575-.979,4.517-4.617,3.255-7.58" transform="translate(-153.522 -108.465)" fill="none" stroke="#e1e0e7" stroke-miterlimit="10" stroke-width="1"/>
    <path id="Path_11940" data-name="Path 11940" d="M6240.321,13149.768c-2.565-2.473-7.195-.327-8.212,2.354a5.8,5.8,0,0,0,1.021,5.272,5.257,5.257,0,0,0,5.314,1.946c3.575-.979,4.517-4.618,3.255-7.58" transform="translate(-130.062 -758.572)" fill="none" stroke="#e1e0e7" stroke-miterlimit="10" stroke-width="1"/>
    <path id="Path_11941" data-name="Path 11941" d="M6457.027,13332.289c-2.566-2.475-7.195-.328-8.211,2.353a5.8,5.8,0,0,0,1.02,5.272,5.256,5.256,0,0,0,5.315,1.946c3.575-.978,4.517-4.618,3.255-7.58" transform="translate(-252.101 -861.359)" fill="none" stroke="#e1e0e7" stroke-miterlimit="10" stroke-width="1"/>
    <path id="Path_11942" data-name="Path 11942" d="M7314.3,12217.051c-2.565-2.473-7.2-.327-8.212,2.354a5.8,5.8,0,0,0,1.021,5.272,5.256,5.256,0,0,0,5.314,1.946c3.575-.979,4.517-4.617,3.255-7.58" transform="translate(-734.881 -233.308)" fill="none" stroke="#e1e0e7" stroke-miterlimit="10" stroke-width="1"/>
    <path id="Path_11943" data-name="Path 11943" d="M6787.933,12132.516c-2.565-2.474-7.194-.328-8.212,2.354a5.8,5.8,0,0,0,1.021,5.271,5.257,5.257,0,0,0,5.314,1.946c3.575-.979,4.517-4.618,3.255-7.579" transform="translate(-438.452 -185.701)" fill="none" stroke="#e1e0e7" stroke-miterlimit="10" stroke-width="1"/>
    <path id="Path_11944" data-name="Path 11944" d="M6844.362,11921.549c-2.565-2.473-7.194-.328-8.211,2.354a5.8,5.8,0,0,0,1.02,5.271,5.258,5.258,0,0,0,5.314,1.947c3.575-.979,4.517-4.619,3.255-7.581" transform="translate(-470.231 -66.894)" fill="none" stroke="#e1e0e7" stroke-miterlimit="10" stroke-width="1"/>
    <path id="Path_11945" data-name="Path 11945" d="M6223.088,13515.277c-2.565-2.473-7.194-.328-8.211,2.354a5.793,5.793,0,0,0,1.02,5.271,5.256,5.256,0,0,0,5.314,1.947c3.575-.979,4.517-4.618,3.256-7.58" transform="translate(-120.357 -964.41)" fill="none" stroke="#e1e0e7" stroke-miterlimit="10" stroke-width="1"/>
    <g id="Group_8612" data-name="Group 8612" transform="translate(6030.591 12104.294)">
      <path id="Path_11946" data-name="Path 11946" d="M6078.726,12494.413v8.735" transform="translate(-6074.427 -12494.413)" fill="none" stroke="#e1e0e7" stroke-miterlimit="10" stroke-width="1"/>
      <path id="Path_11947" data-name="Path 11947" d="M6077.482,12504.411h-8.6" transform="translate(-6068.885 -12500.044)" fill="none" stroke="#e1e0e7" stroke-miterlimit="10" stroke-width="1"/>
    </g>
    <g id="Group_8613" data-name="Group 8613" transform="translate(6191.244 12398.34)">
      <path id="Path_11948" data-name="Path 11948" d="M6446.483,13167.526v8.735" transform="translate(-6442.184 -13167.526)" fill="none" stroke="#e1e0e7" stroke-miterlimit="10" stroke-width="1"/>
      <path id="Path_11949" data-name="Path 11949" d="M6445.24,13177.525h-8.6" transform="translate(-6436.642 -13173.157)" fill="none" stroke="#e1e0e7" stroke-miterlimit="10" stroke-width="1"/>
    </g>
    <g id="Group_8614" data-name="Group 8614" transform="translate(6585.296 11892.255)">
      <path id="Path_11950" data-name="Path 11950" d="M7348.524,12009.027v8.736" transform="translate(-7344.225 -12009.027)" fill="none" stroke="#e1e0e7" stroke-miterlimit="10" stroke-width="1"/>
      <path id="Path_11951" data-name="Path 11951" d="M7347.28,12019.026h-8.6" transform="translate(-7338.682 -12014.658)" fill="none" stroke="#e1e0e7" stroke-miterlimit="10" stroke-width="1"/>
    </g>
    <g id="Group_8615" data-name="Group 8615" transform="translate(6006.818 12506.069)">
      <path id="Path_11952" data-name="Path 11952" d="M6024.307,13414.134v8.735" transform="translate(-6020.008 -13414.134)" fill="none" stroke="#e1e0e7" stroke-miterlimit="10" stroke-width="1"/>
      <path id="Path_11953" data-name="Path 11953" d="M6023.063,13424.133h-8.6" transform="translate(-6014.466 -13419.765)" fill="none" stroke="#e1e0e7" stroke-miterlimit="10" stroke-width="1"/>
    </g>
    <g id="Group_8616" data-name="Group 8616" transform="translate(6281.456 11936.428)">
      <path id="Path_11954" data-name="Path 11954" d="M6652.991,12110.145v8.736" transform="translate(-6648.692 -12110.145)" fill="none" stroke="#e1e0e7" stroke-miterlimit="10" stroke-width="1"/>
      <path id="Path_11955" data-name="Path 11955" d="M6651.747,12120.144h-8.6" transform="translate(-6643.148 -12115.775)" fill="none" stroke="#e1e0e7" stroke-miterlimit="10" stroke-width="1"/>
    </g>
    <g id="Group_8617" data-name="Group 8617" transform="translate(6404.32 11814.125)">
      <path id="Path_11956" data-name="Path 11956" d="M6934.246,11830.177v8.735" transform="translate(-6929.947 -11830.177)" fill="none" stroke="#e1e0e7" stroke-miterlimit="10" stroke-width="1"/>
      <path id="Path_11957" data-name="Path 11957" d="M6933,11840.176h-8.6" transform="translate(-6924.404 -11835.808)" fill="none" stroke="#e1e0e7" stroke-miterlimit="10" stroke-width="1"/>
    </g>
    <g id="Group_8618" data-name="Group 8618" transform="translate(6503.184 11913.822)">
      <path id="Path_11958" data-name="Path 11958" d="M7160.557,12058.4v8.735" transform="translate(-7156.258 -12058.397)" fill="none" stroke="#e1e0e7" stroke-miterlimit="10" stroke-width="1"/>
      <path id="Path_11959" data-name="Path 11959" d="M7159.313,12068.395h-8.6" transform="translate(-7150.716 -12064.027)" fill="none" stroke="#e1e0e7" stroke-miterlimit="10" stroke-width="1"/>
    </g>
    <g id="Group_8619" data-name="Group 8619" transform="translate(6161.871 12506.069)">
      <path id="Path_11960" data-name="Path 11960" d="M6379.244,13414.134v8.735" transform="translate(-6374.945 -13414.134)" fill="none" stroke="#e1e0e7" stroke-miterlimit="10" stroke-width="1"/>
      <path id="Path_11961" data-name="Path 11961" d="M6378,13424.133h-8.6" transform="translate(-6369.403 -13419.765)" fill="none" stroke="#e1e0e7" stroke-miterlimit="10" stroke-width="1"/>
    </g>
    <g id="Group_8620" data-name="Group 8620" transform="translate(6126.767 12510.438)">
      <path id="Path_11962" data-name="Path 11962" d="M6298.885,13424.133v8.736" transform="translate(-6294.586 -13424.133)" fill="none" stroke="#e1e0e7" stroke-miterlimit="10" stroke-width="1"/>
      <path id="Path_11963" data-name="Path 11963" d="M6297.643,13434.132h-8.6" transform="translate(-6289.044 -13429.764)" fill="none" stroke="#e1e0e7" stroke-miterlimit="10" stroke-width="1"/>
    </g>
    <g id="Group_8621" data-name="Group 8621" transform="translate(6538.729 12520.258)">
      <path id="Path_11964" data-name="Path 11964" d="M7241.924,13446.614v8.735" transform="translate(-7237.625 -13446.614)" fill="none" stroke="#e1e0e7" stroke-miterlimit="10" stroke-width="1"/>
      <path id="Path_11965" data-name="Path 11965" d="M7240.681,13456.613h-8.6" transform="translate(-7232.083 -13452.245)" fill="none" stroke="#e1e0e7" stroke-miterlimit="10" stroke-width="1"/>
    </g>
  </g>
</svg>
