<svg xmlns="http://www.w3.org/2000/svg" xmlns:xlink="http://www.w3.org/1999/xlink" width="893.639" height="495.777" viewBox="0 0 893.639 495.777">
  <defs>
    <linearGradient id="linear-gradient" x1="0.207" y1="0.076" x2="1.688" y2="2.19" gradientUnits="objectBoundingBox">
      <stop offset="0.004" stop-color="#e38ddd"/>
      <stop offset="1" stop-color="#9571f6"/>
    </linearGradient>
    <linearGradient id="linear-gradient-2" x1="-0.618" y1="-1.02" x2="3.166" y2="4.122" xlink:href="#linear-gradient"/>
    <linearGradient id="linear-gradient-3" x1="-0.599" y1="-1.073" x2="1.877" y2="2.444" xlink:href="#linear-gradient"/>
    <linearGradient id="linear-gradient-4" x1="0.199" y1="-0.514" x2="1.263" y2="3.01" gradientUnits="objectBoundingBox">
      <stop offset="0" stop-color="#ff9085"/>
      <stop offset="1" stop-color="#fb6fbb"/>
    </linearGradient>
    <linearGradient id="linear-gradient-5" x1="0.342" y1="0.254" x2="1.326" y2="1.886" xlink:href="#linear-gradient-4"/>
    <linearGradient id="linear-gradient-6" x1="-3.03" y1="-0.718" x2="1.794" y2="0.946" xlink:href="#linear-gradient-4"/>
    <linearGradient id="linear-gradient-7" x1="0.343" y1="0.24" x2="1.322" y2="1.828" xlink:href="#linear-gradient"/>
    <linearGradient id="linear-gradient-8" x1="-3.023" y1="-0.696" x2="1.791" y2="0.938" xlink:href="#linear-gradient"/>
    <linearGradient id="linear-gradient-9" x1="-1.125" y1="-0.902" x2="2.221" y2="1.982" gradientUnits="objectBoundingBox">
      <stop offset="0" stop-color="#ffc444"/>
      <stop offset="0.996" stop-color="#f36f56"/>
    </linearGradient>
    <linearGradient id="linear-gradient-10" x1="0.554" y1="1.227" x2="0.438" y2="-0.33" xlink:href="#linear-gradient-9"/>
    <linearGradient id="linear-gradient-11" x1="-0.282" y1="-0.059" x2="3.858" y2="2.9" gradientUnits="objectBoundingBox">
      <stop offset="0" stop-color="#aa80f9"/>
      <stop offset="0.996" stop-color="#6165d7"/>
    </linearGradient>
    <linearGradient id="linear-gradient-12" x1="-0.937" y1="-0.457" x2="3.254" y2="2.308" xlink:href="#linear-gradient-11"/>
    <linearGradient id="linear-gradient-13" x1="-0.283" y1="-0.058" x2="3.863" y2="2.896" xlink:href="#linear-gradient-11"/>
    <linearGradient id="linear-gradient-14" x1="-1.168" y1="-0.438" x2="3.856" y2="2.389" xlink:href="#linear-gradient-11"/>
    <linearGradient id="linear-gradient-15" x1="-1.107" y1="-2.08" x2="3.153" y2="4.908" xlink:href="#linear-gradient-9"/>
    <linearGradient id="linear-gradient-16" x1="-0.757" y1="-0.257" x2="2.773" y2="2.331" xlink:href="#linear-gradient-11"/>
    <linearGradient id="linear-gradient-17" x1="-4.162" y1="-20.7" x2="9.571" y2="41.779" xlink:href="#linear-gradient-11"/>
    <linearGradient id="linear-gradient-18" x1="-1.484" y1="-0.777" x2="3.54" y2="3.31" xlink:href="#linear-gradient-11"/>
    <linearGradient id="linear-gradient-19" x1="-1.125" y1="-0.902" x2="2.221" y2="1.982" xlink:href="#linear-gradient-4"/>
    <linearGradient id="linear-gradient-20" x1="0.44" y1="0.099" x2="0.689" y2="1.769" xlink:href="#linear-gradient-4"/>
    <linearGradient id="linear-gradient-21" x1="-15.42" y1="7.073" x2="-15.937" y2="9.117" gradientUnits="objectBoundingBox">
      <stop offset="0" stop-color="#40447e"/>
      <stop offset="0.996" stop-color="#3c3b6b"/>
    </linearGradient>
    <linearGradient id="linear-gradient-22" x1="-10.444" y1="4.832" x2="-10.796" y2="6.44" xlink:href="#linear-gradient-21"/>
    <linearGradient id="linear-gradient-23" x1="-15.683" y1="7.077" x2="-16.209" y2="9.121" xlink:href="#linear-gradient-4"/>
    <linearGradient id="linear-gradient-24" x1="-10.456" y1="4.836" x2="-10.808" y2="6.444" xlink:href="#linear-gradient-4"/>
    <linearGradient id="linear-gradient-25" x1="-109.959" y1="47.572" x2="-109.832" y2="44.91" gradientUnits="objectBoundingBox">
      <stop offset="0" stop-color="#ff9085"/>
      <stop offset="0.033" stop-color="#ff8f87"/>
      <stop offset="1" stop-color="#fb6fbb"/>
    </linearGradient>
    <linearGradient id="linear-gradient-26" x1="-14.525" y1="7.651" x2="-14.508" y2="7.209" xlink:href="#linear-gradient-25"/>
    <linearGradient id="linear-gradient-27" x1="-498.229" y1="0.5" x2="-497.228" y2="0.5" xlink:href="#linear-gradient-21"/>
    <linearGradient id="linear-gradient-28" x1="-1101.747" y1="-2.699" x2="-1101.437" y2="0.749" gradientUnits="objectBoundingBox">
      <stop offset="0" stop-color="#311944"/>
      <stop offset="1" stop-color="#a03976"/>
    </linearGradient>
    <linearGradient id="linear-gradient-29" x1="-700.188" y1="-1.467" x2="-699.986" y2="2.573" xlink:href="#linear-gradient-28"/>
    <linearGradient id="linear-gradient-30" x1="-86.326" y1="0.856" x2="-86.736" y2="0.295" xlink:href="#linear-gradient-21"/>
    <linearGradient id="linear-gradient-31" x1="-91.336" y1="0.859" x2="-91.77" y2="0.298" xlink:href="#linear-gradient-21"/>
    <linearGradient id="linear-gradient-32" x1="-136.494" y1="0.48" x2="-137.575" y2="0.542" xlink:href="#linear-gradient-21"/>
    <linearGradient id="linear-gradient-33" x1="-89.224" y1="0.4" x2="-90.738" y2="5.122" xlink:href="#linear-gradient-9"/>
    <linearGradient id="linear-gradient-34" x1="-53.612" y1="0.182" x2="-54.512" y2="2.029" xlink:href="#linear-gradient-9"/>
    <linearGradient id="linear-gradient-35" x1="-645.296" y1="-6.545" x2="-650.657" y2="5.038" xlink:href="#linear-gradient-28"/>
    <linearGradient id="linear-gradient-36" x1="-411.335" y1="1.899" x2="-410.801" y2="-0.742" xlink:href="#linear-gradient-28"/>
    <linearGradient id="linear-gradient-37" x1="-951.802" y1="-128.913" x2="-949.981" y2="-131.186" xlink:href="#linear-gradient-28"/>
    <linearGradient id="linear-gradient-38" x1="-4308.378" y1="-601.23" x2="-4300.14" y2="-611.791" xlink:href="#linear-gradient-28"/>
    <linearGradient id="linear-gradient-39" x1="-54.631" y1="0.046" x2="-55.549" y2="2.249" xlink:href="#linear-gradient-9"/>
    <linearGradient id="linear-gradient-40" x1="-894.209" y1="0.5" x2="-893.209" y2="0.5" xlink:href="#linear-gradient-21"/>
    <linearGradient id="linear-gradient-41" x1="2.618" y1="-8.59" x2="-0.965" y2="6.661" xlink:href="#linear-gradient-28"/>
    <linearGradient id="linear-gradient-42" x1="0.574" y1="-0.344" x2="0.169" y2="4.698" xlink:href="#linear-gradient-4"/>
    <linearGradient id="linear-gradient-43" x1="1.039" y1="-0.209" x2="-0.247" y2="1.475" xlink:href="#linear-gradient-4"/>
    <linearGradient id="linear-gradient-44" x1="0.807" y1="-0.297" x2="0.076" y2="1.59" xlink:href="#linear-gradient-4"/>
    <linearGradient id="linear-gradient-45" x1="0.695" y1="-0.441" x2="0.232" y2="1.787" xlink:href="#linear-gradient-4"/>
    <linearGradient id="linear-gradient-46" x1="1.379" y1="-0.171" x2="-0.718" y2="1.426" xlink:href="#linear-gradient-4"/>
    <linearGradient id="linear-gradient-47" x1="1.297" y1="-0.178" x2="-0.603" y2="1.434" xlink:href="#linear-gradient-4"/>
    <linearGradient id="linear-gradient-48" x1="1.477" y1="-0.166" x2="-0.853" y2="1.419" xlink:href="#linear-gradient-4"/>
    <linearGradient id="linear-gradient-49" x1="1.23" y1="-0.184" x2="-0.51" y2="1.442" xlink:href="#linear-gradient-4"/>
    <linearGradient id="linear-gradient-50" x1="0.947" y1="-0.232" x2="-0.117" y2="1.504" xlink:href="#linear-gradient-4"/>
    <linearGradient id="linear-gradient-51" x1="-452.734" y1="0.5" x2="-451.734" y2="0.5" xlink:href="#linear-gradient-21"/>
    <linearGradient id="linear-gradient-52" x1="-674.823" y1="0.5" x2="-673.823" y2="0.5" xlink:href="#linear-gradient-21"/>
    <linearGradient id="linear-gradient-53" x1="-856.928" y1="1.086" x2="-856.241" y2="3.067" xlink:href="#linear-gradient-28"/>
    <linearGradient id="linear-gradient-54" x1="-1264.18" y1="-2.415" x2="-1265.754" y2="5.498" xlink:href="#linear-gradient-28"/>
    <linearGradient id="linear-gradient-55" x1="-147.438" y1="0.872" x2="-148.284" y2="0.479" gradientUnits="objectBoundingBox">
      <stop offset="0" stop-color="#ab316d"/>
      <stop offset="1" stop-color="#792d3d"/>
    </linearGradient>
    <linearGradient id="linear-gradient-57" x1="-122.074" y1="0.841" x2="-122.781" y2="0.335" xlink:href="#linear-gradient-55"/>
    <linearGradient id="linear-gradient-58" x1="-112.402" y1="-0.045" x2="-112.758" y2="0.875" xlink:href="#linear-gradient-9"/>
    <linearGradient id="linear-gradient-59" x1="-542.085" y1="1.234" x2="-542.626" y2="0.558" xlink:href="#linear-gradient-28"/>
    <linearGradient id="linear-gradient-60" x1="-89.414" y1="0.116" x2="-89.7" y2="1.45" xlink:href="#linear-gradient-9"/>
    <linearGradient id="linear-gradient-61" x1="-120.601" y1="-0.356" x2="-120.982" y2="0.833" xlink:href="#linear-gradient-9"/>
    <linearGradient id="linear-gradient-62" x1="-447.895" y1="1.51" x2="-446.767" y2="-0.984" xlink:href="#linear-gradient-28"/>
    <linearGradient id="linear-gradient-63" x1="-670.661" y1="2.049" x2="-668.972" y2="-0.19" xlink:href="#linear-gradient-28"/>
    <linearGradient id="linear-gradient-64" x1="-3694.055" y1="6.891" x2="-3684.754" y2="-3.201" xlink:href="#linear-gradient-28"/>
    <linearGradient id="linear-gradient-65" x1="-239.604" y1="-0.014" x2="-239.994" y2="1.22" xlink:href="#linear-gradient-55"/>
    <linearGradient id="linear-gradient-66" x1="-685.568" y1="-0.268" x2="-686.741" y2="1.709" xlink:href="#linear-gradient-55"/>
    <linearGradient id="linear-gradient-67" x1="-426.341" y1="92.929" x2="-425.576" y2="93.615" xlink:href="#linear-gradient-9"/>
    <linearGradient id="linear-gradient-68" x1="44.745" y1="1.152" x2="44.745" y2="-0.027" xlink:href="#linear-gradient-9"/>
    <linearGradient id="linear-gradient-69" x1="46.779" y1="0.734" x2="46.779" y2="-0.116" xlink:href="#linear-gradient-9"/>
    <linearGradient id="linear-gradient-70" x1="6.138" y1="0.5" x2="7.138" y2="0.5" gradientUnits="objectBoundingBox">
      <stop offset="0" stop-color="#311944"/>
      <stop offset="1" stop-color="#893976"/>
    </linearGradient>
    <linearGradient id="linear-gradient-71" x1="-98.878" y1="1.101" x2="-99.552" y2="-0.255" gradientUnits="objectBoundingBox">
      <stop offset="0" stop-color="#444b8c"/>
      <stop offset="0.996" stop-color="#26264f"/>
    </linearGradient>
    <linearGradient id="linear-gradient-72" x1="6.389" y1="0.047" x2="7.11" y2="0.677" xlink:href="#linear-gradient-70"/>
    <linearGradient id="linear-gradient-73" x1="-58.748" y1="-0.647" x2="-59.709" y2="1.18" xlink:href="#linear-gradient"/>
    <linearGradient id="linear-gradient-74" x1="-183.89" y1="-0.369" x2="-185.661" y2="2.006" xlink:href="#linear-gradient"/>
    <linearGradient id="linear-gradient-75" x1="13.485" y1="-1.343" x2="14.029" y2="1.115" xlink:href="#linear-gradient"/>
    <linearGradient id="linear-gradient-76" x1="-592.361" y1="-1.129" x2="-591.325" y2="3.497" xlink:href="#linear-gradient-9"/>
    <linearGradient id="linear-gradient-77" x1="-203.796" y1="-0.943" x2="-205.832" y2="1.086" xlink:href="#linear-gradient"/>
    <linearGradient id="linear-gradient-78" x1="-177.976" y1="-0.415" x2="-179.335" y2="2.104" xlink:href="#linear-gradient-4"/>
    <linearGradient id="linear-gradient-79" x1="19.625" y1="0.292" x2="18.879" y2="1.155" xlink:href="#linear-gradient-9"/>
    <linearGradient id="linear-gradient-80" x1="3.634" y1="0.5" x2="4.634" y2="0.5" gradientUnits="objectBoundingBox">
      <stop offset="0" stop-color="#311944"/>
      <stop offset="1" stop-color="#6b3976"/>
    </linearGradient>
    <linearGradient id="linear-gradient-81" x1="-83.092" y1="91.297" x2="-86.526" y2="97.015" xlink:href="#linear-gradient-9"/>
    <linearGradient id="linear-gradient-82" x1="-1001.18" y1="-0.036" x2="-1001.614" y2="1.475" xlink:href="#linear-gradient-55"/>
    <linearGradient id="linear-gradient-83" x1="144.047" y1="-106.187" x2="143.26" y2="-112.862" xlink:href="#linear-gradient-71"/>
    <linearGradient id="linear-gradient-84" x1="501.375" y1="-97.033" x2="501.375" y2="-106.798" xlink:href="#linear-gradient-9"/>
    <linearGradient id="linear-gradient-85" x1="342.831" y1="-94.257" x2="342.831" y2="-103.667" xlink:href="#linear-gradient-9"/>
    <linearGradient id="linear-gradient-86" x1="189.464" y1="-60.212" x2="188.426" y2="-63.945" xlink:href="#linear-gradient-71"/>
    <linearGradient id="linear-gradient-87" x1="58.49" y1="-4.62" x2="58.334" y2="-3.663" xlink:href="#linear-gradient-70"/>
    <linearGradient id="linear-gradient-88" x1="65.674" y1="-4.62" x2="65.499" y2="-3.663" xlink:href="#linear-gradient-70"/>
    <linearGradient id="linear-gradient-89" x1="58.351" y1="-4.009" x2="55.578" y2="-4.043" xlink:href="#linear-gradient-70"/>
    <linearGradient id="linear-gradient-90" x1="16.095" y1="-3.453" x2="16.653" y2="-4.694" xlink:href="#linear-gradient-4"/>
    <linearGradient id="linear-gradient-91" x1="-64.245" y1="-26.917" x2="-63.789" y2="-24.914" xlink:href="#linear-gradient-4"/>
    <linearGradient id="linear-gradient-92" x1="104.776" y1="-25.138" x2="104.115" y2="-24.271" xlink:href="#linear-gradient-9"/>
    <linearGradient id="linear-gradient-93" x1="42.512" y1="-13.699" x2="41.976" y2="-12.754" xlink:href="#linear-gradient-71"/>
    <linearGradient id="linear-gradient-94" x1="52.537" y1="-15.002" x2="51.966" y2="-13.832" xlink:href="#linear-gradient-9"/>
    <linearGradient id="linear-gradient-95" x1="144.043" y1="-94.438" x2="144.481" y2="-96.414" xlink:href="#linear-gradient-11"/>
    <linearGradient id="linear-gradient-96" x1="309.539" y1="-57.035" x2="308.592" y2="-56.103" xlink:href="#linear-gradient-9"/>
    <linearGradient id="linear-gradient-97" x1="44.251" y1="-7.462" x2="45.848" y2="-10.161" xlink:href="#linear-gradient-4"/>
    <linearGradient id="linear-gradient-98" x1="20.012" y1="-5.161" x2="20.519" y2="-6.296" xlink:href="#linear-gradient-71"/>
  </defs>
  <g id="Group_8801" data-name="Group 8801" transform="translate(-10715.301 -10597.689)">
    <path id="Path_12093" data-name="Path 12093" d="M10895.008,11404.071c-120.254,17.934-170.023,37.461-169.1,45.251.658,5.531,27.029,6.539,27.786,15.084.783,8.844-26.945,13.637-26.993,19.848-.109,14.559,151.7,59.471,334.227,35.725,146.658-19.08,220.109-70.378,301.676-23.816,26.8,15.3,41.926,34,81.77,43.663,71.65,17.386,148.828-12.483,150.044-36.519.845-16.678-35.2-24.3-34.138-43.664,1.287-23.375,54.746-28.922,54.779-39.693C11615.149,11391.055,11230.788,11354,10895.008,11404.071Z" transform="translate(-6.121 -451.551)" fill="#ebeff2"/>
    <path id="Path_12094" data-name="Path 12094" d="M10850.191,11567.451c-5.64.66-68.2,8.09-67.877,13.1.23,3.581,32.547,5.468,61.923,3.573,46.8-3.02,90.774-15.937,90.106-20.244C10933.589,11559.014,10875.795,11564.453,10850.191,11567.451Z" transform="translate(-38.709 -556.978)" fill="#d8dee8"/>
    <path id="Path_12095" data-name="Path 12095" d="M11156.354,11603.674c-35.456,4.691-53.184,7.037-53.587,9.923-.784,5.595,29.949,16.741,61.922,20.244,18.79,2.058,57.6,3.623,59.542-5.16,1.872-8.468-30.123-28.368-61.526-25.8C11161.8,11602.953,11159.975,11603.193,11156.354,11603.674Z" transform="translate(-223.805 -580.497)" fill="#d8dee8"/>
    <path id="Path_12096" data-name="Path 12096" d="M12480.611,11691.072c-7.943.447-58,3.26-58.351,10.718-.255,5.489,26.427,13.469,52.4,13.1,32.928-.469,64.111-14.35,63.113-20.244C12536.633,11687.925,12493.445,11690.352,12480.611,11691.072Z" transform="translate(-985.991 -630.981)" fill="#d8dee8"/>
    <g id="Group_8763" data-name="Group 8763" transform="translate(10715.301 10597.689)" opacity="0.5">
      <path id="Path_12097" data-name="Path 12097" d="M10878.985,10602.744l-107.056-5.055-56.629,87.875,56.629,89.791,107.056-1.431,50.649-84.733Z" transform="translate(-10715.301 -10597.689)" fill="url(#linear-gradient)"/>
      <path id="Path_12098" data-name="Path 12098" d="M11254.99,10619.572l-39.642-1.863-20.257,33.385,20.257,34.788,39.642.886,19.4-32.925Z" transform="translate(-10992.442 -10609.253)" fill="url(#linear-gradient-2)"/>
      <path id="Path_12099" data-name="Path 12099" d="M10937.551,11035.439l-62.555,1.021-32.322,52.735,32.322,50.53,62.555-3.248,30.277-51.553Z" transform="translate(-10788.875 -10850.548)" fill="url(#linear-gradient-3)"/>
    </g>
    <g id="Group_8766" data-name="Group 8766" transform="translate(11234.511 10655.434)">
      <path id="Path_12100" data-name="Path 12100" d="M12097.285,10848.147l-133,2.407c-10.819.2-19.705,10.012-19.705,21.922s8.886,21.152,19.705,20.652l133-6.166c8.872-.411,15.98-9.328,15.98-19.922S12106.157,10847.986,12097.285,10848.147Z" transform="translate(-11944.58 -10800.104)" opacity="0.5" fill="url(#linear-gradient-4)"/>
      <g id="Group_8764" data-name="Group 8764" transform="translate(58.78)">
        <path id="Path_12101" data-name="Path 12101" d="M12160.406,10735.473l-67.205-1.066c-5.206-.084-9.453,4.636-9.453,10.541s4.247,10.7,9.453,10.7l67.205.089c4.7,0,8.5-4.5,8.5-10.061S12165.11,10735.549,12160.406,10735.473Z" transform="translate(-12083.748 -10734.405)" fill="url(#linear-gradient-5)"/>
        <path id="Path_12102" data-name="Path 12102" d="M12311.226,10747.717c0,5.451-3.661,9.866-8.2,9.859-4.572-.006-8.3-4.484-8.3-10s3.73-9.934,8.3-9.86C12307.564,10737.786,12311.226,10742.264,12311.226,10747.717Z" transform="translate(-12205.61 -10736.315)" fill="url(#linear-gradient-6)"/>
      </g>
      <g id="Group_8765" data-name="Group 8765" transform="translate(104.323 26.128)" opacity="0.5">
        <path id="Path_12103" data-name="Path 12103" d="M12249.178,10796.346l-50.576.111c-3.872.008-7.027,3.682-7.027,8.205s3.155,8.146,7.027,8.094l50.576-.693c3.582-.049,6.472-3.591,6.472-7.91S12252.76,10796.338,12249.178,10796.346Z" transform="translate(-12191.574 -10796.312)" fill="url(#linear-gradient-7)"/>
        <path id="Path_12104" data-name="Path 12104" d="M12363.064,10803.941c0,4.248-2.809,7.73-6.291,7.777-3.5.048-6.35-3.389-6.35-7.677s2.851-7.771,6.35-7.778C12360.256,10796.256,12363.064,10799.693,12363.064,10803.941Z" transform="translate(-12283.331 -10796.264)" fill="url(#linear-gradient-8)"/>
      </g>
    </g>
    <g id="Group_8777" data-name="Group 8777" transform="translate(10810.046 10646.785)">
      <g id="Group_8768" data-name="Group 8768">
        <path id="Path_12105" data-name="Path 12105" d="M11692.238,11470.713l-735.1-5.334,0,16.184a8.9,8.9,0,0,0,7.55,8.793l207.868,31.834a33.432,33.432,0,0,0,7.457.3l504.23-36.432a8.605,8.605,0,0,0,7.987-8.586Z" transform="translate(-10949.741 -11147.989)" fill="#bfc8d6"/>
        <g id="Group_8767" data-name="Group 8767">
          <path id="Path_12106" data-name="Path 12106" d="M11415.348,11009.951l-460.726,29.693c-8.243.53-14.947-5.1-14.949-12.574l-.055-299.516c0-7.477,6.7-13.537,14.944-13.539l460.73-.084a12.256,12.256,0,0,1,12.287,12.234l.049,270.756A13.257,13.257,0,0,1,11415.348,11009.951Z" transform="translate(-10939.618 -10713.93)" fill="#bfc8d6"/>
          <path id="Path_12107" data-name="Path 12107" d="M11432.739,11009.947l-460.725,29.693c-8.245.531-14.948-5.1-14.95-12.573l-.055-299.517c0-7.475,6.7-13.537,14.945-13.539l460.73-.084a12.253,12.253,0,0,1,12.285,12.234l.051,270.756A13.258,13.258,0,0,1,11432.739,11009.947Z" transform="translate(-10949.664 -10713.928)" fill="#d8dee8"/>
          <path id="Path_12108" data-name="Path 12108" d="M11445.8,11014.647l-429.118,25.8c-6.71.4-12.163-4.217-12.163-10.32l-.049-262.227c0-6.1,5.45-11.072,12.16-11.1l429.121-1.693a10.051,10.051,0,0,1,10.138,10.024l.043,238.843A10.863,10.863,0,0,1,11445.8,11014.647Z" transform="translate(-10977.077 -10737.714)" fill="#eff2f6"/>
          <path id="Path_12109" data-name="Path 12109" d="M11561.822,10726.531a5.312,5.312,0,1,1-5.3-5.035A5.19,5.19,0,0,1,11561.822,10726.531Z" transform="translate(-11292.893 -10718.3)" fill="#fff"/>
          <path id="Path_12110" data-name="Path 12110" d="M11323.585,10928.078c-35.7-17.384-63.77,4.656-90.864-17.08-16.426-13.178-8.364-23.008-28.578-42.7-22.386-21.813-36.959-14.478-59.457-34.108-28.447-24.822-14.225-44.141-38.729-61.962-29.727-21.62-61.775-1.6-90.074-22.332-12.2-8.942-18.9-21.946-22.4-35.774l-27.683,0c-4.852,0-8.791,3.562-8.79,7.952l.057,310.688c0,4.391,3.941,7.7,8.793,7.385l471.957-30.418a7.741,7.741,0,0,0,5.688-3.148c-34.549-1.133-55.775-11.615-69.347-22.453C11347.609,10962.928,11352.209,10942.016,11323.585,10928.078Z" transform="translate(-10949.663 -10714.038)" fill="#fff" opacity="0.48" style="mix-blend-mode: soft-light;isolation: isolate"/>
        </g>
        <path id="Path_12111" data-name="Path 12111" d="M11451.182,11412.7l-494.035,31.255,215.418,32.99a33.371,33.371,0,0,0,7.457.3l512.219-37.008-233.2-27.324A43.664,43.664,0,0,0,11451.182,11412.7Z" transform="translate(-10949.743 -11117.508)" fill="#fff"/>
        <path id="Path_12112" data-name="Path 12112" d="M11127.822,11451.306l411.3-26.409,127.3,14.8-407.755,28.224Z" transform="translate(-11048.331 -11124.605)" fill="#d8dee8" opacity="0.47"/>
      </g>
      <g id="Group_8771" data-name="Group 8771" transform="translate(45.502 39.784)">
        <g id="Group_8769" data-name="Group 8769">
          <path id="Path_12113" data-name="Path 12113" d="M11171.414,10927.416l-34.381-119.3a129.647,129.647,0,0,0-89.685,122.854Z" transform="translate(-11047.349 -10808.119)" fill="#d8dee8"/>
        </g>
        <g id="Group_8770" data-name="Group 8770" transform="translate(32.084 25.579)">
          <path id="Path_12114" data-name="Path 12114" d="M11123.31,11113.181a97.563,97.563,0,0,0,34.849,68.046l53.757-70.586Z" transform="translate(-11123.31 -11008.443)" fill="#fff"/>
          <path id="Path_12115" data-name="Path 12115" d="M11324.715,10958.4c20.678-19.8,45.584-43.7,65.358-62.764a97.926,97.926,0,0,0-90.43-24.228Z" transform="translate(-11225.165 -10868.679)" fill="#fff"/>
          <path id="Path_12116" data-name="Path 12116" d="M11369.217,11010.981l74.854,54.981a97.776,97.776,0,0,0-7.994-119.181q-8.208,7.912-18.229,17.546C11397.621,10983.771,11377.273,11003.266,11369.217,11010.981Z" transform="translate(-11265.354 -10913.794)" fill="#fff"/>
          <path id="Path_12117" data-name="Path 12117" d="M11364.069,11119.612l1.45,89.354a97.576,97.576,0,0,0,70.615-36.421Z" transform="translate(-11262.38 -11013.626)" fill="#fff"/>
          <path id="Path_12118" data-name="Path 12118" d="M11273.438,11128.566l-51.869,68.109a97.255,97.255,0,0,0,53.261,17.586Z" transform="translate(-11180.067 -11018.798)" fill="#fff"/>
        </g>
      </g>
      <g id="Group_8776" data-name="Group 8776" transform="translate(301.19 78.012)">
        <g id="Group_8772" data-name="Group 8772">
          <path id="Path_12119" data-name="Path 12119" d="M11652.715,10920.668v75.438a4.384,4.384,0,0,0,4.527,4.409l147.73-4.088a4.361,4.361,0,0,0,4.113-4.429v-71.792Z" transform="translate(-11652.715 -10911.092)" fill="#f4f7fa"/>
          <path id="Path_12120" data-name="Path 12120" d="M11804.973,10898.628h-147.73a4.532,4.532,0,0,0-4.527,4.534v7.73l156.371-.594v-7.355A4.217,4.217,0,0,0,11804.973,10898.628Z" transform="translate(-11652.715 -10898.628)" fill="#d8dee8"/>
          <path id="Path_12121" data-name="Path 12121" d="M11672.146,10909.76a2.005,2.005,0,1,1-2-2.007A2.013,2.013,0,0,1,11672.146,10909.76Z" transform="translate(-11661.621 -10903.898)" fill="#fff"/>
        </g>
        <g id="Group_8773" data-name="Group 8773" transform="translate(9.94 28.358)">
          <path id="Path_12122" data-name="Path 12122" d="M11692.641,10983.561a9.265,9.265,0,0,1,6.976-4.9l.212-12.888a22.229,22.229,0,0,0-19.259,13.464Z" transform="translate(-11678.744 -10965.769)" fill="#d8dee8"/>
          <path id="Path_12123" data-name="Path 12123" d="M11731.395,10978.689a8.953,8.953,0,0,1,7.654,8.095l12.623.329a21.5,21.5,0,0,0-20.066-21.3Z" transform="translate(-11708.103 -10965.795)" fill="#fff"/>
          <path id="Path_12124" data-name="Path 12124" d="M11722.818,11021.232a9.288,9.288,0,0,1-8.915,7.719,8.859,8.859,0,0,1-3.7-.727l-6.735,11.121a21.3,21.3,0,0,0,10.438,2.439,22.31,22.31,0,0,0,21.538-20.233Z" transform="translate(-11691.97 -10997.807)" fill="#fff"/>
          <path id="Path_12125" data-name="Path 12125" d="M11685.671,11027.646l6.743-11.124a9.028,9.028,0,0,1-3.336-7.048,9.342,9.342,0,0,1,.221-2.017l-12.077-4.321a22.356,22.356,0,0,0-.974,6.54A21.64,21.64,0,0,0,11685.671,11027.646Z" transform="translate(-11676.248 -10987.353)" fill="#fff"/>
        </g>
        <g id="Group_8774" data-name="Group 8774" transform="translate(57.323 27.944)">
          <path id="Path_12126" data-name="Path 12126" d="M11804.348,10982.32a9,9,0,0,1,6.773-4.833l.205-12.7a21.6,21.6,0,0,0-18.7,13.264Z" transform="translate(-11790.854 -10964.789)" fill="#fff"/>
          <path id="Path_12127" data-name="Path 12127" d="M11841.976,10977.522a8.768,8.768,0,0,1,7.433,7.978l12.259.326a21.06,21.06,0,0,0-19.486-20.992Z" transform="translate(-11819.359 -10964.815)" fill="#d8dee8"/>
          <path id="Path_12128" data-name="Path 12128" d="M11833.649,11019.449a9.059,9.059,0,0,1-8.657,7.6,8.518,8.518,0,0,1-3.6-.717l-6.539,10.956a20.425,20.425,0,0,0,10.135,2.406,21.8,21.8,0,0,0,20.917-19.933Z" transform="translate(-11803.695 -10996.362)" fill="#fff"/>
          <path id="Path_12129" data-name="Path 12129" d="M11797.58,11025.754l6.547-10.961a8.946,8.946,0,0,1-3.238-6.944,9.323,9.323,0,0,1,.214-1.987l-11.726-4.261a22.309,22.309,0,0,0-.946,6.444A21.42,21.42,0,0,0,11797.58,11025.754Z" transform="translate(-11788.431 -10986.053)" fill="#fff"/>
        </g>
        <g id="Group_8775" data-name="Group 8775" transform="translate(103.334 27.543)">
          <path id="Path_12130" data-name="Path 12130" d="M11912.827,10981.115a8.75,8.75,0,0,1,6.58-4.762l.2-12.516a20.99,20.99,0,0,0-18.164,13.07Z" transform="translate(-11899.722 -10963.838)" fill="#fff"/>
          <path id="Path_12131" data-name="Path 12131" d="M11949.379,10976.389a8.6,8.6,0,0,1,7.221,7.864l11.91.325c-.151-11.066-8.418-20.01-18.932-20.7Z" transform="translate(-11927.411 -10963.864)" fill="#fff"/>
          <path id="Path_12132" data-name="Path 12132" d="M11941.291,11017.716a8.844,8.844,0,0,1-8.411,7.493,8.18,8.18,0,0,1-3.493-.707l-6.352,10.8a19.62,19.62,0,0,0,9.845,2.376c10.646-.24,19.339-8.857,20.322-19.643Z" transform="translate(-11912.194 -10994.959)" fill="#fff"/>
          <path id="Path_12133" data-name="Path 12133" d="M11906.255,11023.917l6.358-10.8a8.873,8.873,0,0,1-3.145-6.846,9.376,9.376,0,0,1,.207-1.959l-11.389-4.2a22.271,22.271,0,0,0-.918,6.35A21.211,21.211,0,0,0,11906.255,11023.917Z" transform="translate(-11897.369 -10984.791)" fill="#d8dee8"/>
        </g>
      </g>
    </g>
    <g id="Group_8782" data-name="Group 8782" transform="translate(10959.675 10762.385)">
      <g id="Group_8778" data-name="Group 8778" transform="translate(302.444 0)">
        <path id="Path_12134" data-name="Path 12134" d="M12168.764,11132.937l3.342-7.362c1.253-2.76.51-6.074-1.664-7.41l-8.654-5.316a95.4,95.4,0,0,0,4.813-20.934l9.66-.678c2.49-.174,4.5-2.777,4.5-5.814v-8.076c0-3.037-2.012-5.384-4.5-5.242l-9.407.539a88.567,88.567,0,0,0-4.366-20.825l7.955-5.9a4.922,4.922,0,0,0,.7-.637l1.018,2.643,13.066-16.068-17.059-1.455a4.21,4.21,0,0,0-2.82-1.678,3.988,3.988,0,0,0-2.842.785l-7.858,5.71a71.976,71.976,0,0,0-12.969-15.542l.592-1.236,12.011,2.453,1.525-19.883-18.24-3.012a4.5,4.5,0,0,0-5.623,2.6l-4.533,9.35c-5.826-2.895-1-5.945-7.619-6.828l6.925-10.2c0-3.178-20.284-5.295-23.023-5.295h-7.335c-2.775,0-5.033,2.611-5.033,5.832v10.92a65.038,65.038,0,0,0-19.667,6.385l12.528-9.205s-22.067-4.18-24.577-2.521l-6.716,4.436a6.451,6.451,0,0,0-1.942,8.193l5.079,9.828a57.612,57.612,0,0,0-12.133,14.344l-11.8-2.664a5.276,5.276,0,0,0-7.466,2.436l-4.041,7.874a6.312,6.312,0,0,0,2.016,8.249l9.514,5.7a95.361,95.361,0,0,0-5.194,23.214l-11.413.652c-3.071.176-5.57,3.066-5.57,6.455v9.014a5.488,5.488,0,0,0,4.73,5.727l0,0,12.971,2.076a86.284,86.284,0,0,0,5.3,19.092l-10.34,7.514a6.79,6.79,0,0,0-2.016,8.5l4.041,7.359c1.515,2.759,25.553,4.435,25.553,4.435l-7.632-10.7a69.227,69.227,0,0,0,14.421,14.436l-6.024,12.426c-1.469,3.029-.6,6.591,1.942,7.945l6.716,3.582a4.355,4.355,0,0,0,1.32.447l-.026.125,20.948,2.582,2.049-15.809a59.42,59.42,0,0,0,7.425.668v13.526a5.09,5.09,0,0,0,3.051,4.972l-.092.395,20.755,2.592.415-25.645a68.71,68.71,0,0,0,10.957-5.33l5.533,10.707a4.178,4.178,0,0,0,3.043,2.315v0l20.059,2.715-6.87-18.905-2.771.852-4.571-8.965a85.672,85.672,0,0,0,12.723-16.186l8.952,5.365C12164.7,11136.9,12167.5,11135.713,12168.764,11132.937Zm-68.73-6.929c-19.637,1.75-35.925-15.48-35.925-38.525s16.288-42.32,35.925-43.038c19.153-.7,34.338,16.6,34.338,38.625S12119.187,11124.3,12100.033,11126.008Zm83.87-44.248,13.589-6.432-13.589-1.648Zm-16.679,54.9,15.544,2.1,2.27-5.3-12.878-7.828Z" transform="translate(-12009.943 -10987.621)" opacity="0.3" fill="url(#linear-gradient-9)" style="mix-blend-mode: multiply;isolation: isolate"/>
        <path id="Path_12135" data-name="Path 12135" d="M12224.986,11079.549l-9.354.541a88.628,88.628,0,0,0-4.342-20.766l7.91-5.887a6.359,6.359,0,0,0,1.655-7.6l-3.323-6.916c-1.254-2.608-4.039-3.437-6.223-1.845l-7.813,5.7a71.653,71.653,0,0,0-12.9-15.493l4.5-9.417a6.221,6.221,0,0,0-1.713-7.647l-5.983-4.081c-2.263-1.542-5.165-.6-6.479,2.123l-4.508,9.325a59.23,59.23,0,0,0-18.656-5.729v-10.768c0-3.176-2.2-5.75-4.926-5.749l-7.292,0c-2.761,0-5,2.606-5,5.818v10.889a64.579,64.579,0,0,0-19.554,6.374l-4.872-9.579a4.851,4.851,0,0,0-7.107-2.107l-6.677,4.426a6.445,6.445,0,0,0-1.932,8.17l5.05,9.8a83.965,83.965,0,0,0-14.654,17.281l-9.138-5.625c-2.592-1.6-5.917-.512-7.423,2.432l-4.018,7.852a6.3,6.3,0,0,0,2,8.225l9.458,5.682a95.393,95.393,0,0,0-5.164,23.149l-11.347.655c-3.054.177-5.538,3.06-5.538,6.439v8.986c0,3.379,2.484,5.942,5.538,5.727l11.648-.824a86.879,86.879,0,0,0,5.684,21.908l-10.279,7.5a6.785,6.785,0,0,0-2,8.482l4.018,7.336a4.878,4.878,0,0,0,7.423,1.478l10.394-7.735a68.859,68.859,0,0,0,14.339,14.389l-5.99,12.393c-1.46,3.021-.593,6.571,1.932,7.922l6.677,3.568c2.5,1.334,5.676-.022,7.107-3.021l5.938-12.439a58.847,58.847,0,0,0,18.487,3.5v13.487c0,3.211,2.244,5.527,5,5.174l7.292-.934c2.725-.349,4.926-3.205,4.926-6.383v-13.336a66.75,66.75,0,0,0,17.663-7.486l5.5,10.674a4.085,4.085,0,0,0,6.479,1.291l5.983-4.85a6.677,6.677,0,0,0,1.713-7.868l-5.338-10.5a85.563,85.563,0,0,0,12.65-16.145l8.9,5.347c2.184,1.313,4.969.125,6.223-2.646l3.323-7.342c1.245-2.754.507-6.057-1.655-7.389l-8.605-5.3a95.3,95.3,0,0,0,4.785-20.876l9.605-.68c2.477-.176,4.477-2.771,4.477-5.8v-8.054C12229.463,11081.745,12227.463,11079.406,12224.986,11079.549Zm-75.791,53.782c-19.525,1.753-35.719-15.423-35.719-38.4s16.193-42.206,35.719-42.932c19.043-.706,34.141,16.538,34.141,38.5S12168.238,11131.622,12149.2,11133.331Z" transform="translate(-12038.641 -10992.079)" fill="url(#linear-gradient-10)"/>
      </g>
      <g id="Group_8779" data-name="Group 8779" transform="translate(0 29.214)" opacity="0.3" style="mix-blend-mode: multiply;isolation: isolate">
        <path id="Path_12136" data-name="Path 12136" d="M11408.954,11199.152q0-11.082-7.989-16.388c-5.367-3.562-15.105-7.042-29.359-10.465-14.477-3.476-26.1-7.146-34.758-11-24.008-10.715-36.242-26.634-36.242-47.552a47.388,47.388,0,0,1,9.854-29.323c6.513-8.6,15.791-15.346,27.749-20.229a105.453,105.453,0,0,1,39.18-7.406q21.246-.195,37.381,7,15.976,7.09,24.621,20.12c5.748,8.633-8.382,23.239-8.382,34.405l-21.922-3.145q0-13.037-8.39-20.02c-5.638-4.689-13.615-6.909-24-6.635-10.129.268-18.078,2.555-23.791,6.881q-8.624,6.527-8.637,16.8,0,9.592,10.115,15.595c6.682,3.967,16.434,7.479,29.156,10.523,22.975,5.469,39.354,12.764,49.479,21.914,10.012,9.048,14.976,20.764,14.976,35.221,0,16.074-6.071,29.316-18.337,39.832-12.438,10.663-29.457,17.307-51.312,19.867q-23.229,2.722-42.936-3.314c-13.3-4.1-23.58-10.692-30.721-19.777q-10.8-13.726-10.814-33.309l44.115-3.646,22.307,3.175s-4.806,27.732,18.049,25.446c9.728-.973,17.248-3.631,22.615-7.96A20.371,20.371,0,0,0,11408.954,11199.152Z" transform="translate(-11293.879 -11056.788)" fill="url(#linear-gradient-11)"/>
        <path id="Path_12137" data-name="Path 12137" d="M11841.41,11131.01l-86.3,29.215v48.02l76.343-7.506,20.892,3.014-112.1,41.039-21.349-6.631v-179.132l112.346-1.2,20.717,3.009-96.844,27.722v42.726l65.482-3.484Z" transform="translate(-11539.381 -11057.392)" fill="url(#linear-gradient-12)"/>
      </g>
      <g id="Group_8780" data-name="Group 8780" transform="translate(22.461 32.515)">
        <path id="Path_12138" data-name="Path 12138" d="M11461.443,11206.529q0-11.048-7.941-16.336c-5.335-3.549-15.016-7.014-29.184-10.422-14.391-3.459-25.945-7.113-34.55-10.949-23.864-10.674-36.024-26.539-36.024-47.393a47.363,47.363,0,0,1,9.795-29.24c6.475-8.577,15.7-15.306,27.582-20.179a104.561,104.561,0,0,1,38.945-7.4q21.12-.205,37.158,6.962,15.879,7.061,24.475,20.05a52.145,52.145,0,0,1,8.557,29.547l-38.68,1.633q0-13-8.342-19.955c-5.6-4.674-13.533-6.883-23.852-6.605-10.068.272-17.971,2.557-23.648,6.871q-8.572,6.51-8.584,16.756,0,9.561,10.054,15.542c6.642,3.953,16.335,7.449,28.981,10.479,22.838,5.443,39.12,12.711,49.185,21.83,9.952,9.016,14.886,20.694,14.886,35.109,0,16.026-6.035,29.232-18.228,39.721-12.364,10.636-29.281,17.267-51.007,19.827q-23.09,2.722-42.68-3.29c-13.223-4.086-23.436-10.65-30.535-19.705q-10.73-13.679-10.748-33.2l43.85-3.653c0,21.708,13.564,31.194,40.113,28.52,9.67-.974,17.146-3.626,22.48-7.944A20.344,20.344,0,0,0,11461.443,11206.529Z" transform="translate(-11347.059 -11064.604)" fill="url(#linear-gradient-13)"/>
        <path id="Path_12139" data-name="Path 12139" d="M11870.641,11162.941l-65.1,4.607v47.88l75.9-7.514v28.264l-111.9,13.028v-182.539l111.688-1.243v28.5l-75.682,2.172v42.6l65.1-3.5Z" transform="translate(-11591.094 -11065.078)" fill="url(#linear-gradient-14)"/>
      </g>
      <g id="Group_8781" data-name="Group 8781" transform="translate(22.461 38.09)">
        <path id="Path_12140" data-name="Path 12140" d="M12117.232,11306.126a79.5,79.5,0,0,0-21.4,2.455c.23.608.461,1.217.705,1.816l-10.123,7.382a6.684,6.684,0,0,0-1.976,8.354l3.957,7.225a4.8,4.8,0,0,0,7.311,1.455l10.235-7.617a67.878,67.878,0,0,0,14.121,14.17l-5.9,12.2c-1.439,2.977-.585,6.473,1.9,7.8l6.575,3.515c2.459,1.314,5.59-.021,7-2.976l5.848-12.25a57.922,57.922,0,0,0,18.207,3.443v13.282c0,3.164,2.21,5.444,4.929,5.1l7.183-.919c2.682-.343,4.85-3.157,4.85-6.285v-13.135a65.734,65.734,0,0,0,17.395-7.372l5.418,10.512a4.021,4.021,0,0,0,6.369,1.279C12166.631,11316.5,12138.387,11306.678,12117.232,11306.126Z" transform="translate(-11772.574 -11209.675)" opacity="0.3" fill="url(#linear-gradient-15)" style="mix-blend-mode: multiply;isolation: isolate"/>
        <path id="Path_12141" data-name="Path 12141" d="M11391.121,11079.636c-11.887,4.873-21.107,11.6-27.582,20.179a47.363,47.363,0,0,0-9.795,29.24c0,20.854,12.16,36.719,36.024,47.393,8.6,3.836,20.159,7.49,34.55,10.949,14.168,3.408,23.849,6.873,29.184,10.422q7.953,5.3,7.941,16.336a20.344,20.344,0,0,1-7.941,16.57c-5.335,4.318-12.811,6.971-22.48,7.944-26.549,2.675-40.113-6.812-40.113-28.52l-43.85,3.653q0,19.5,10.748,33.2c7.1,9.055,17.313,15.619,30.535,19.705q19.559,6.044,42.68,3.29c21.726-2.561,38.643-9.191,51.007-19.827,12.192-10.488,18.228-23.694,18.228-39.721,0-14.415-4.934-26.094-14.886-35.109-10.064-9.119-26.347-16.387-49.185-21.83-12.646-3.03-22.34-6.526-28.981-10.479q-10.036-5.971-10.054-15.542,0-10.233,8.584-16.756a28,28,0,0,1,4.988-3c-5.955-6.418-11.445-15.8-14.729-29.933Q11393.524,11078.656,11391.121,11079.636Z" transform="translate(-11347.059 -11077.804)" opacity="0.3" fill="url(#linear-gradient-16)" style="mix-blend-mode: multiply;isolation: isolate"/>
        <path id="Path_12142" data-name="Path 12142" d="M11616.53,11184.467a33.419,33.419,0,0,1,.7,6.988l38.682-1.633q0-2.977-.277-5.831C11642.228,11182.734,11629.037,11184.039,11616.53,11184.467Z" transform="translate(-11502.714 -11138.833)" fill="url(#linear-gradient-17)"/>
        <path id="Path_12143" data-name="Path 12143" d="M11782.979,11207.218a76.141,76.141,0,0,0-13.443-7.563v127.088l111.9-13.028v-28.264l-75.9,7.514v-47.88l6.547-.463C11804.781,11233.787,11801.262,11220.051,11782.979,11207.218Z" transform="translate(-11591.095 -11148.188)" opacity="0.3" fill="url(#linear-gradient-18)" style="mix-blend-mode: multiply;isolation: isolate"/>
      </g>
    </g>
    <g id="Group_8783" data-name="Group 8783" transform="translate(11409.78 10696.889)">
      <path id="Path_12144" data-name="Path 12144" d="M12432.855,10899.628l1.543-3.4a2.738,2.738,0,0,0-.768-3.42l-4-2.453a44.068,44.068,0,0,0,2.221-9.662l4.459-.313a2.549,2.549,0,0,0,2.078-2.685v-3.727a2.189,2.189,0,0,0-2.078-2.42l-4.342.248a40.95,40.95,0,0,0-2.016-9.611l3.673-2.725a2.361,2.361,0,0,0,.322-.295l.471,1.221,6.03-7.416-7.874-.672a1.95,1.95,0,0,0-1.3-.775,1.85,1.85,0,0,0-1.312.363l-3.627,2.636a33.17,33.17,0,0,0-5.986-7.174l.273-.571,5.544,1.133.7-9.178-8.42-1.39a2.074,2.074,0,0,0-2.595,1.2l-2.093,4.316c-2.689-1.338-.461-2.744-3.518-3.152l3.2-4.707c0-1.467-9.362-2.444-10.627-2.444h-3.385a2.53,2.53,0,0,0-2.324,2.692v5.04a30.044,30.044,0,0,0-9.078,2.946l5.783-4.248s-10.186-1.93-11.344-1.164l-3.1,2.048a2.977,2.977,0,0,0-.9,3.782l2.344,4.536a26.53,26.53,0,0,0-5.6,6.62l-5.446-1.229a2.436,2.436,0,0,0-3.446,1.124l-1.865,3.635a2.914,2.914,0,0,0,.931,3.808l4.392,2.632a44,44,0,0,0-2.4,10.715l-5.268.3a2.91,2.91,0,0,0-2.57,2.98v4.16a2.532,2.532,0,0,0,2.183,2.643l5.985.96a39.884,39.884,0,0,0,2.449,8.812l-4.772,3.469a3.135,3.135,0,0,0-.931,3.926l1.865,3.4c.7,1.272,11.795,2.048,11.795,2.048l-3.523-4.941a31.942,31.942,0,0,0,6.657,6.663l-2.78,5.735a2.764,2.764,0,0,0,.9,3.668l3.1,1.652a1.958,1.958,0,0,0,.609.207l-.013.058,9.669,1.192.946-7.3a27.614,27.614,0,0,0,3.427.311v6.242a2.351,2.351,0,0,0,1.408,2.295l-.042.183,9.58,1.2.191-11.838a31.647,31.647,0,0,0,5.058-2.459l2.554,4.941a1.931,1.931,0,0,0,1.4,1.069l9.259,1.255-3.172-8.727-1.279.393-2.109-4.137a39.6,39.6,0,0,0,5.872-7.472l4.132,2.478A2.07,2.07,0,0,0,12432.855,10899.628Zm-31.725-3.2c-9.063.809-16.581-7.146-16.581-17.782s7.518-19.534,16.581-19.865c8.841-.323,15.85,7.661,15.85,17.828S12409.972,10895.643,12401.131,10896.43Zm38.713-20.424,6.271-2.969-6.271-.761Zm-7.7,25.339,7.176.968,1.047-2.447-5.943-3.612Z" transform="translate(-12359.549 -10832.554)" opacity="0.3" fill="url(#linear-gradient-19)" style="mix-blend-mode: multiply;isolation: isolate"/>
      <path id="Path_12145" data-name="Path 12145" d="M12458.807,10874.985l-4.318.25a40.87,40.87,0,0,0-2-9.585l3.651-2.717a2.935,2.935,0,0,0,.764-3.508l-1.534-3.191a1.88,1.88,0,0,0-2.872-.853l-3.606,2.63a33.049,33.049,0,0,0-5.951-7.15l2.074-4.348a2.872,2.872,0,0,0-.79-3.529l-2.763-1.884a2.02,2.02,0,0,0-2.99.979l-2.08,4.3a27.318,27.318,0,0,0-8.611-2.645v-4.971a2.484,2.484,0,0,0-2.273-2.653l-3.367,0a2.52,2.52,0,0,0-2.309,2.685v5.026a29.819,29.819,0,0,0-9.026,2.942l-2.249-4.422a2.239,2.239,0,0,0-3.28-.973l-3.082,2.043a2.976,2.976,0,0,0-.892,3.771l2.331,4.522a38.751,38.751,0,0,0-6.765,7.978l-4.217-2.6a2.418,2.418,0,0,0-3.426,1.123l-1.855,3.625a2.908,2.908,0,0,0,.926,3.795l4.365,2.623a44.1,44.1,0,0,0-2.385,10.685l-5.236.3a2.9,2.9,0,0,0-2.557,2.971v4.148a2.482,2.482,0,0,0,2.557,2.643l5.377-.379a40.074,40.074,0,0,0,2.623,10.111l-4.744,3.46a3.132,3.132,0,0,0-.926,3.915l1.855,3.387a2.251,2.251,0,0,0,3.426.682l4.8-3.57a31.752,31.752,0,0,0,6.619,6.641l-2.766,5.721a2.76,2.76,0,0,0,.892,3.656l3.082,1.647a2.458,2.458,0,0,0,3.28-1.395l2.741-5.741a27.158,27.158,0,0,0,8.534,1.613v6.225a2.168,2.168,0,0,0,2.309,2.39l3.367-.431a2.906,2.906,0,0,0,2.273-2.947v-6.155a30.8,30.8,0,0,0,8.152-3.456l2.539,4.928a1.885,1.885,0,0,0,2.99.6l2.763-2.238a3.083,3.083,0,0,0,.79-3.632l-2.463-4.845a39.49,39.49,0,0,0,5.838-7.452l4.108,2.468a2.056,2.056,0,0,0,2.872-1.221l1.534-3.39a2.731,2.731,0,0,0-.764-3.409l-3.972-2.446a44.1,44.1,0,0,0,2.209-9.636l4.434-.313a2.541,2.541,0,0,0,2.065-2.677v-3.718A2.179,2.179,0,0,0,12458.807,10874.985Zm-34.984,24.825c-9.012.809-16.486-7.119-16.486-17.725s7.475-19.48,16.486-19.815c8.791-.327,15.759,7.633,15.759,17.771S12432.613,10899.021,12423.822,10899.811Z" transform="translate(-12372.793 -10834.611)" fill="url(#linear-gradient-20)"/>
    </g>
    <g id="Group_8784" data-name="Group 8784" transform="translate(10749.853 10782.714)">
      <path id="Path_12146" data-name="Path 12146" d="M11228.592,11133.207l-38.107-14.729-6.3-40.366,45.321-32.522c2.771-2.232-1.046-8.6-4.565-9.13a62.5,62.5,0,1,0,29.859,110.458c14.194-11.441,24.037-25.715,25.118-42.58.228-3.557-5.837-7.8-8.61-5.561Z" transform="translate(-11002.749 -11035.752)" fill="url(#linear-gradient-21)"/>
      <path id="Path_12147" data-name="Path 12147" d="M10963.784,11224.045l-157.768,118.09a22.774,22.774,0,1,0,28.567,35.459l148.987-129Z" transform="translate(-10797.106 -11144.516)" fill="url(#linear-gradient-22)"/>
      <path id="Path_12148" data-name="Path 12148" d="M11233.291,11139.785l-38.107-14.729-6.3-40.365,42.715-34.43a4.087,4.087,0,0,0-1.959-7.224,62.5,62.5,0,1,0,53.008,65.776,4.088,4.088,0,0,0-6.641-3.459Z" transform="translate(-11005.464 -11039.552)" fill="url(#linear-gradient-23)"/>
      <path id="Path_12149" data-name="Path 12149" d="M10968.482,11230.625l-157.767,118.089a22.774,22.774,0,1,0,28.567,35.459l148.987-129Z" transform="translate(-10799.821 -11148.317)" fill="url(#linear-gradient-24)"/>
      <circle id="Ellipse_203" data-name="Ellipse 203" cx="9.245" cy="9.245" r="9.245" transform="translate(157.335 112.891) rotate(-88.251)" opacity="0.3" fill="url(#linear-gradient-25)" style="mix-blend-mode: multiply;isolation: isolate"/>
      <path id="Path_12150" data-name="Path 12150" d="M10988.3,11299.6l-128.554,103.615a5.469,5.469,0,1,1-6.864-8.516l128.554-103.615Z" transform="translate(-10828.146 -11183.24)" opacity="0.3" fill="url(#linear-gradient-26)" style="mix-blend-mode: multiply;isolation: isolate"/>
    </g>
    <g id="Group_8788" data-name="Group 8788" transform="translate(10906.874 10877.639)">
      <path id="Path_12151" data-name="Path 12151" d="M11305.86,11652.879l3.576-.766s4.354-1.059,4.572-1.041,1.126,1.836-1.165,2.835-5.946,2.126-6.983,1.858S11305.86,11652.879,11305.86,11652.879Z" transform="translate(-11247.732 -11486.104)" fill="url(#linear-gradient-27)"/>
      <path id="Path_12152" data-name="Path 12152" d="M11310.732,11642.447l-1.366,5.627a2.543,2.543,0,0,1-2.687,0l.814-5.6Z" transform="translate(-11248.473 -11481.122)" fill="url(#linear-gradient-28)"/>
      <path id="Path_12153" data-name="Path 12153" d="M11174.693,11613.778l-2.705,4.639.4.206a2.545,2.545,0,0,0,3.183-.708l2.63-3.41Z" transform="translate(-11170.671 -11464.563)" fill="url(#linear-gradient-29)"/>
      <path id="Path_12154" data-name="Path 12154" d="M11202.758,11467.988a22.72,22.72,0,0,0-2.658,9.789c-.119,5.4-14.008,33.984-18.9,40.857s-6.424,10.932-6.424,10.932,2.621,2.7,5.038,2.563c0,0,24.572-21.189,36.3-44.17l9.156-19.972Z" transform="translate(-11172.278 -11380.35)" fill="url(#linear-gradient-30)"/>
      <g id="Group_8785" data-name="Group 8785" transform="translate(5.23 87.639)" opacity="0.3" style="mix-blend-mode: multiply;isolation: isolate">
        <path id="Path_12155" data-name="Path 12155" d="M11195.469,11513.326c3.127-4.486.891-5.6,3.887-12.363,3.932-8.881,8.923-9.539,10.831-16.012.884-3,.306-10.053-2.737-16.963H11229l-9.156,19.972c-11.725,22.98-36.3,44.17-36.3,44.17a4.742,4.742,0,0,1-2.3-.569c.814-1.53.988-4.233,2.445-7.168C11186.729,11518.285,11191.328,11519.269,11195.469,11513.326Z" transform="translate(-11181.25 -11467.988)" fill="url(#linear-gradient-31)"/>
      </g>
      <path id="Path_12156" data-name="Path 12156" d="M11274.889,11464.639a119.092,119.092,0,0,1,4.071,75.969c-1.115.946-4.247.795-5.1.354a166.653,166.653,0,0,1-3.361-27.3c-.15-4.115-.121-8.109-1.838-13.405-1.133-3.49-3.242-7.013-7.416-13.917-5.677-9.389-7.107-10.471-8.334-15.021-.641-2.374-1.968-8.446-1.968-8.446Z" transform="translate(-11216.274 -11377.391)" fill="url(#linear-gradient-32)"/>
      <path id="Path_12157" data-name="Path 12157" d="M11234.994,11342.576c-.637-2.039-4.6-2.471-8.533-2.857-14.209-1.4-24.712,3.605-25.668,1.59-.346-.729.88-1.693,2.826-4.238a40.163,40.163,0,0,0,5.735-10.426l-3.383-.729c-13.829,5.831-21.374,15.365-19.778,22.456.924,4.1,4.712,6.53,6.507,7.681,11.1,7.118,25.512.105,29.306-1.742C11227.869,11351.457,11236.017,11345.855,11234.994,11342.576Z" transform="translate(-11178.754 -11298.284)" fill="url(#linear-gradient-33)"/>
      <path id="Path_12158" data-name="Path 12158" d="M11318.451,11289.111l-4.459-.447a72.207,72.207,0,0,1-16.4,17.784c-4.015,3.091-11.415,8.618-22.027,11.294-13.411,3.381-18.519-1.206-25.117,1.412-7.565,3-14.865,14.586-14.638,51.266a33.9,33.9,0,0,0,32.1-1.652,40.6,40.6,0,0,1,2.242-12.5c.938-2.681,4.2-11.058,17.075-22.078,11.571-9.9,14.871-8.213,20.833-14.563C11312.791,11314.6,11318.057,11305.722,11318.451,11289.111Z" transform="translate(-11207.535 -11276.767)" fill="url(#linear-gradient-34)"/>
      <path id="Path_12159" data-name="Path 12159" d="M11418.7,11272.347a31.091,31.091,0,0,1-1.725-4.163c-.14-1.478.422-1.214.654-1.875s.074,2.082,1.588,2.383,1.831-4.449,2.222-7.137,2.542.236,2.542,3.231a37.852,37.852,0,0,1-1.439,7.946S11419.722,11274.289,11418.7,11272.347Z" transform="translate(-11312.171 -11260.495)" fill="url(#linear-gradient-35)"/>
      <path id="Path_12160" data-name="Path 12160" d="M11292.4,11353.848l-1.192-1.99-2.447-.3-.328,2.23a1.461,1.461,0,0,1-1.594,1.242l-1.189-.121s.836,3.154,5.188,3.653a5.283,5.283,0,0,0,5.636-3.6l-1.552.151A2.64,2.64,0,0,1,11292.4,11353.848Z" transform="translate(-11236.325 -11313.097)" fill="url(#linear-gradient-36)"/>
      <g id="Group_8787" data-name="Group 8787" transform="translate(50.004 29.264)">
        <g id="Group_8786" data-name="Group 8786">
          <path id="Path_12161" data-name="Path 12161" d="M11289.629,11346.481c-.226-.123-2.057-.346-2.31-1.331-.343-1.337.858-2.965,1.009-3.227.627-1.1.784-1.244,1.076-1.43l.4-.237.048-.017a4.627,4.627,0,0,1,1.308-.051c.562.133,1.111,2.447.865,5.7.021.125.041.25.061.377C11292.139,11346.593,11289.612,11346.6,11289.629,11346.481Z" transform="translate(-11287.258 -11335.778)" fill="url(#linear-gradient-37)"/>
          <path id="Path_12162" data-name="Path 12162" d="M11290.574,11333.307a3.782,3.782,0,0,0,.668,2.273,1.7,1.7,0,0,1,.356.408.5.5,0,0,1,.055.119c.206.641-.819,1.365-.632,1.654.137.209.83-.051.906.129s-.5.5-.422.707c.063.152.417.021.633.26.108.117.074.209.183.564a3.277,3.277,0,0,0,.218.546c.335.6,1.316.839,1.512.605.055-.064.011-.121.068-.341a1.78,1.78,0,0,1,.2-.438,4.607,4.607,0,0,1,1.215-.913,3.27,3.27,0,0,0,1.277-1.391c.028-.066.046-.118.06-.154a3.753,3.753,0,0,0-.037-2.508c-.534-1.137-1.809-.631-2.816-1.769-1.162-1.312-.414-3.052-1.056-3.261C11292.258,11329.568,11290.609,11331.443,11290.574,11333.307Z" transform="translate(-11289.173 -11329.779)" fill="#26264f"/>
          <path id="Path_12163" data-name="Path 12163" d="M11291.967,11347.949c.254-.334.682,0,.674.435s-.443.886-.854.79S11291.623,11348.4,11291.967,11347.949Z" transform="translate(-11289.75 -11340.196)" fill="url(#linear-gradient-38)"/>
        </g>
      </g>
      <path id="Path_12164" data-name="Path 12164" d="M11253,11388.015c5.224-4.405-.345-16.193,7.3-23.077,3.251-2.926,5.328-1.76,9.3-5.651,4.976-4.873,3.491-8.44,7.417-12.009,4.669-4.244,8.535-.807,17.19-4,7.634-2.818,12.229-8.3,16.719-13.657a59.89,59.89,0,0,0,5.918-8.45c-2,8.438-5.517,13.758-8.783,17.236-5.962,6.352-9.262,4.663-20.833,14.564-12.879,11.02-16.139,19.4-17.076,22.078a40.6,40.6,0,0,0-2.242,12.5,33.894,33.894,0,0,1-32.1,1.652c-.007-1.081-.007-2.136,0-3.173C11246.08,11390.693,11250.719,11389.943,11253,11388.015Z" transform="translate(-11207.536 -11295.54)" opacity="0.3" fill="url(#linear-gradient-39)" style="mix-blend-mode: multiply;isolation: isolate"/>
      <path id="Path_12165" data-name="Path 12165" d="M11171.415,11621.362s-1.225-.845-2.167,1.177.152,4.71.23,5.182,3.814.471,3.814.471.988-1.1,0-1.414-.6-2.592-.365-3.062S11173.22,11621.9,11171.415,11621.362Z" transform="translate(-11168.868 -11468.842)" fill="url(#linear-gradient-40)"/>
      <path id="Path_12166" data-name="Path 12166" d="M11230.7,11316.971s3.256-2.79,0-3.255-5.58-4.187-6.51-4.651-.93,4.186.93,4.651,3.411,2.858,3.411,2.858Z" transform="translate(-11200.469 -11288.531)" fill="url(#linear-gradient-41)"/>
    </g>
    <g id="Group_8791" data-name="Group 8791" transform="translate(11124.988 10604.274)">
      <g id="Group_8789" data-name="Group 8789" transform="translate(0)">
        <path id="Path_12167" data-name="Path 12167" d="M11685.275,10637.331v82.221a4.815,4.815,0,0,0,4.923,4.841l147.667-3.061a4.176,4.176,0,0,0,3.781-4.395v-71.791Z" transform="translate(-11685.275 -10627.173)" fill="#fff"/>
        <path id="Path_12168" data-name="Path 12168" d="M11837.865,10621.92l-147.667-8.631a4.6,4.6,0,0,0-4.923,4.654v8.426l156.371,7.443v-7.357A4.371,4.371,0,0,0,11837.865,10621.92Z" transform="translate(-11685.275 -10613.28)" fill="url(#linear-gradient-42)"/>
        <path id="Path_12169" data-name="Path 12169" d="M11705.994,10626.5a2.04,2.04,0,0,1-2.16,2.066,2.319,2.319,0,0,1-2.17-2.3,2.039,2.039,0,0,1,2.17-2.065A2.318,2.318,0,0,1,11705.994,10626.5Z" transform="translate(-11694.742 -10619.588)" fill="#fff"/>
      </g>
      <g id="Group_8790" data-name="Group 8790" transform="translate(21.323 25.62)">
        <path id="Path_12170" data-name="Path 12170" d="M11747.841,10734.438l-12.08.145v-60.643l12.08.459Z" transform="translate(-11735.761 -10673.939)" fill="#d8dee8"/>
        <path id="Path_12171" data-name="Path 12171" d="M11747.841,10778l-12.08.145v-28.792l12.08.143Z" transform="translate(-11735.761 -10717.498)" fill="url(#linear-gradient-43)"/>
        <path id="Path_12172" data-name="Path 12172" d="M11787.148,10735.113l-11.75.14v-59.8l11.75.447Z" transform="translate(-11758.656 -10674.812)" fill="#d8dee8"/>
        <path id="Path_12173" data-name="Path 12173" d="M11787.148,10797.484l-11.75.141v-14.2h11.75Z" transform="translate(-11758.656 -10737.183)" fill="url(#linear-gradient-44)"/>
        <path id="Path_12174" data-name="Path 12174" d="M11825.389,10735.77l-11.434.137v-58.989l11.434.436Z" transform="translate(-11780.928 -10675.659)" fill="#d8dee8"/>
        <path id="Path_12175" data-name="Path 12175" d="M11825.389,10806.3l-11.434.136v-7.352l11.434-.065Z" transform="translate(-11780.928 -10746.189)" fill="url(#linear-gradient-45)"/>
        <path id="Path_12176" data-name="Path 12176" d="M11862.605,10736.41l-11.13.133v-58.2l11.13.424Z" transform="translate(-11802.602 -10676.484)" fill="#d8dee8"/>
        <path id="Path_12177" data-name="Path 12177" d="M11862.605,10753.65l-11.13.133v-45.59l11.13.3Z" transform="translate(-11802.602 -10693.726)" fill="url(#linear-gradient-46)"/>
        <path id="Path_12178" data-name="Path 12178" d="M11898.837,10737.032l-10.838.13v-57.424l10.838.412Z" transform="translate(-11823.698 -10677.289)" fill="#d8dee8"/>
        <path id="Path_12179" data-name="Path 12179" d="M11898.837,10761.035l-10.838.129v-39.873l10.838.247Z" transform="translate(-11823.698 -10701.291)" fill="url(#linear-gradient-47)"/>
        <path id="Path_12180" data-name="Path 12180" d="M11934.124,10737.639l-10.557.126v-56.672l10.557.4Z" transform="translate(-11844.243 -10678.071)" fill="#d8dee8"/>
        <path id="Path_12181" data-name="Path 12181" d="M11934.124,10748.907l-10.557.126V10700.6l10.557.326Z" transform="translate(-11844.243 -10689.34)" fill="url(#linear-gradient-48)"/>
        <path id="Path_12182" data-name="Path 12182" d="M11968.5,10738.229l-10.287.123v-55.939l10.287.393Z" transform="translate(-11864.257 -10678.833)" fill="#d8dee8"/>
        <path id="Path_12183" data-name="Path 12183" d="M11968.5,10767.74l-10.287.123V10733.5l10.287.193Z" transform="translate(-11864.257 -10708.346)" fill="url(#linear-gradient-49)"/>
        <path id="Path_12184" data-name="Path 12184" d="M12002.006,10738.8l-10.027.119V10683.7l10.027.382Z" transform="translate(-11883.76 -10679.576)" fill="#d8dee8"/>
        <path id="Path_12185" data-name="Path 12185" d="M12002.006,10788.109l-10.027.12v-19.173l10.027.055Z" transform="translate(-11883.76 -10728.882)" fill="url(#linear-gradient-50)"/>
      </g>
    </g>
    <g id="Group_8794" data-name="Group 8794" transform="translate(11185.15 10659.974)">
      <path id="Path_12186" data-name="Path 12186" d="M11988.342,11052.8c1.271,1.283,1.787,2.661,1.325,3.469-.319.558-1.024.7-1.8.852-1.222.234-2.494.172-5.112-.568-2.443-.689-3.879-1.1-3.881-1.682,0-.55,1.256-.977,2.357-1.352a13.818,13.818,0,0,1,3.867-.719Z" transform="translate(-11915.029 -10922.86)" fill="url(#linear-gradient-51)"/>
      <path id="Path_12187" data-name="Path 12187" d="M11903.531,11003.525a2.444,2.444,0,0,1,1.5,1.4c.31,1.138-.907,2.313-2.853,4.145-1.46,1.375-3.432,3.232-4.117,2.764-.42-.286-.172-1.318.059-2.277a12.865,12.865,0,0,1,2.417-4.906Z" transform="translate(-11868.22 -10894.397)" fill="url(#linear-gradient-52)"/>
      <path id="Path_12188" data-name="Path 12188" d="M11990.71,11046.107l2.737,3.034a.567.567,0,0,1-.264.926,4.2,4.2,0,0,1-2.2.085,1.038,1.038,0,0,1-.442-.271l-2.732-2.668Z" transform="translate(-11920.188 -10918.994)" fill="url(#linear-gradient-53)"/>
      <path id="Path_12189" data-name="Path 12189" d="M11904.611,10999.186l1.476,2.126a.616.616,0,0,1-.212.892,5.187,5.187,0,0,1-.73.338,1.111,1.111,0,0,1-1.211-.3l-1.6-1.8Z" transform="translate(-11870.816 -10891.891)" fill="url(#linear-gradient-54)"/>
      <path id="Path_12190" data-name="Path 12190" d="M11943.119,10886.449a51.606,51.606,0,0,0-4.119,12.453,55.793,55.793,0,0,0,1.889,26.936,57.579,57.579,0,0,0,15.433,24.279,10.45,10.45,0,0,1-6.358,2.466,64.717,64.717,0,0,1-20.607-23.72c-8.975-17.946-6.724-35.564-2.8-43.016,1.288-2.446,2.743-3.771,4.392-4.361C11936.238,10879.595,11942.373,10885.689,11943.119,10886.449Z" transform="translate(-11882.821 -10823.694)" fill="url(#linear-gradient-55)"/>
      <path id="Path_12191" data-name="Path 12191" d="M11926.556,10885.848c1.288-2.446,2.743-3.771,4.392-4.361,5.291-1.892,11.426,4.2,12.172,4.963a51.693,51.693,0,0,0-4.072,12.234c-3.7.869-8.859,2.93-11.376,7.8-4.071,7.882,1.782,17.328,3,19.288,2.673,4.313,4.292,3.909,8.239,10.111,2.981,4.686,3.209,6.725,5.8,8.988a16.241,16.241,0,0,0,9.939,3.612c.6.612,1.166,1.158,1.671,1.632a10.45,10.45,0,0,1-6.358,2.466,64.717,64.717,0,0,1-20.607-23.72C11920.381,10910.917,11922.632,10893.3,11926.556,10885.848Z" transform="translate(-11882.821 -10823.694)" opacity="0.3" fill="url(#linear-gradient-55)" style="mix-blend-mode: multiply;isolation: isolate"/>
      <path id="Path_12192" data-name="Path 12192" d="M11899.954,10881.767a20.9,20.9,0,0,1-3.651,5.243c-4.744,4.947-9.18,4.479-14.205,8.553a21.65,21.65,0,0,0-6.713,9.579c-3.165,10.366,6.03,20.587,7.049,21.688a11.063,11.063,0,0,1-5.605,2.781c-13.184-12.047-19.626-26.645-15.239-36.13,2.394-5.175,8.059-8.937,12.243-11.715a54.582,54.582,0,0,1,17.622-7.613Z" transform="translate(-11846.49 -10819.668)" fill="url(#linear-gradient-57)"/>
      <path id="Path_12193" data-name="Path 12193" d="M11927.381,10801.035c-.2,5.828,1.153,8.852-.74,13.609a18.653,18.653,0,0,1-5.323,7.229,22.69,22.69,0,0,0,20.42,12.244,45.721,45.721,0,0,0,16.519-14.205c3.65-5.179,7.66-10.864,6.6-18.111-1.348-9.208-9.88-14.127-12.3-15.521-1.592-.918-12.588-7.257-19.309-2.6C11927.844,10787.429,11927.529,10796.674,11927.381,10801.035Z" transform="translate(-11881.782 -10766.431)" fill="url(#linear-gradient-58)"/>
      <path id="Path_12194" data-name="Path 12194" d="M11836.564,10836.342a4.013,4.013,0,0,0-1.235-2.014c-.446-.45-.538-.379-.829-.748-.733-.928-.557-1.887-.838-1.919-.246-.028-.676.663-.646,1.376.032.8.615,1.037.506,1.479-.155.622-1.537,1.074-2.762.843-1.421-.269-2.113-1.414-2.67-1.124-.4.21-.377.964-.373,1.03.062,1.413,1.949,2.9,3.791,3.09,1.061.111,1.458-.273,2.716.047.834.211,1.126.5,1.545.328C11836.455,10838.449,11836.732,10837.242,11836.564,10836.342Z" transform="translate(-11827.715 -10795.122)" fill="url(#linear-gradient-59)"/>
      <path id="Path_12195" data-name="Path 12195" d="M11845.934,10807.362c11.354.786,18.133-2.167,22.221-4.993,9.273-6.413,11.092-16.607,21.847-19.35,1.962-.5,5.377-1.371,7.241.375,3.873,3.626-.694,16.92-8.738,25.092a32.49,32.49,0,0,1-18.741,9.541c-13.538,1.826-23.251-5.814-24.927-7.178a2.145,2.145,0,0,1-.416-2.17A2.245,2.245,0,0,1,11845.934,10807.362Z" transform="translate(-11837.287 -10766.642)" fill="url(#linear-gradient-60)"/>
      <path id="Path_12196" data-name="Path 12196" d="M11950.629,10841.17c3.2-3.028,1.684-4.9,5.617-10.985,4.008-6.2,6.893-6.311,8.738-10.487.956-2.16,1.545-5.264.492-9.721a17.614,17.614,0,0,1,3.4,7.99c1.061,7.248-2.948,12.934-6.6,18.111a45.713,45.713,0,0,1-16.52,14.205,22.993,22.993,0,0,1-12.753-3.736,22.529,22.529,0,0,1-4.726-4.166,21.071,21.071,0,0,0,5.744,2.16C11935.092,10844.77,11944.77,10846.719,11950.629,10841.17Z" transform="translate(-11885.805 -10782.598)" opacity="0.3" fill="url(#linear-gradient-61)" style="mix-blend-mode: multiply;isolation: isolate"/>
      <path id="Path_12197" data-name="Path 12197" d="M11979.969,10776.279l.926,3.124a5.024,5.024,0,0,0,1.717,2.524l2.454,1.922s-7.485-1.256-11.064-4.744l2.186-.689a.553.553,0,0,0,.386-.527v-2.3Z" transform="translate(-11912.214 -10762.735)" fill="url(#linear-gradient-62)"/>
      <g id="Group_8793" data-name="Group 8793" transform="translate(60.723)">
        <g id="Group_8792" data-name="Group 8792">
          <path id="Path_12198" data-name="Path 12198" d="M11976.134,10768.4c-.356-.079-2.94.344-3.675-.9-1-1.686,0-4.379.1-4.8.42-1.742.575-2.007.9-2.375l.457-.483.059-.042a6.591,6.591,0,0,1,1.762-.587c.818-.041,2.484,2.895,3.439,7.42q.116.242.23.489C11979.6,10767.555,11976.157,10768.563,11976.134,10768.4Z" transform="translate(-11971.792 -10753.277)" fill="url(#linear-gradient-63)"/>
          <path id="Path_12199" data-name="Path 12199" d="M11971.658,10750.883a5.37,5.37,0,0,0,1.813,2.832,2.417,2.417,0,0,1,.646.414.769.769,0,0,1,.122.143c.535.791-.577,2.185-.205,2.5.269.23,1.109-.4,1.286-.184s-.488.887-.295,1.13c.146.184.576-.136.965.1.194.118.184.256.473.7a4.533,4.533,0,0,0,.514.658c.693.684,2.126.619,2.3.227.049-.111-.033-.17-.041-.494a2.524,2.524,0,0,1,.1-.678,6.53,6.53,0,0,1,1.293-1.725,4.636,4.636,0,0,0,1.19-2.4c.012-.1.017-.181.019-.235a5.312,5.312,0,0,0-1.044-3.4c-1.179-1.338-2.714-.145-4.538-1.295-2.105-1.326-1.773-3.994-2.731-4.023C11972.471,10745.121,11970.967,10748.329,11971.658,10750.883Z" transform="translate(-11971.482 -10745.154)" fill="#26264f"/>
          <path id="Path_12200" data-name="Path 12200" d="M11978.2,10771.174c.215-.556.928-.277,1.091.324a1.137,1.137,0,0,1-.851,1.416C11977.842,10772.945,11977.91,10771.923,11978.2,10771.174Z" transform="translate(-11975.237 -10760.011)" fill="url(#linear-gradient-64)"/>
        </g>
      </g>
    </g>
    <g id="Group_8798" data-name="Group 8798" transform="translate(11453.761 10840.186)">
      <path id="Path_12201" data-name="Path 12201" d="M12501.891,11197.3l1.268-1.479-1.107-2.3a1.306,1.306,0,0,0-1.363-.725c-2.986.431-12.25,2.446-17.92,11.224a1.307,1.307,0,0,0,.056,1.5,17.829,17.829,0,0,0,1.37,1.563Z" transform="translate(-12474.583 -11183.929)" fill="url(#linear-gradient-65)"/>
      <path id="Path_12202" data-name="Path 12202" d="M12525.362,11259.754l-3.012,5.246a10.18,10.18,0,0,1-1.116,2.137,5.128,5.128,0,0,0,1.8,2.041l5.439-5.2-2.914-4.178Z" transform="translate(-12496.924 -11222.614)" fill="url(#linear-gradient-66)"/>
      <g id="Group_8797" data-name="Group 8797" transform="translate(2.292 11.853)">
        <path id="Path_12203" data-name="Path 12203" d="M12510.693,11269.6l.872-3.864a7.129,7.129,0,0,1,5.178-4.1c4-.871,4.146,1.318,4.146,1.318l-2.576,1a5.313,5.313,0,0,0-2.63,3.213,14.189,14.189,0,0,1-2.989,3.958Z" transform="translate(-12493.127 -11235.439)" fill="url(#linear-gradient-67)"/>
        <path id="Path_12204" data-name="Path 12204" d="M12597.571,11670.621s2.772,6.975,2.042,10.067a31.049,31.049,0,0,0,4.9-.437,33.755,33.755,0,0,1-1.43-4.757,46.807,46.807,0,0,1-.292-5.573Z" transform="translate(-12543.31 -11471.392)" fill="url(#linear-gradient-68)"/>
        <path id="Path_12205" data-name="Path 12205" d="M12513.084,11710.152a2.181,2.181,0,0,1,.523,1.281,2.078,2.078,0,0,1-.156.857c-.473,1.244-1.216,1.408-2.017,2.729-.489.807-.4,1.049-.846,1.414a2.947,2.947,0,0,1-1.926.514,34.244,34.244,0,0,1-4.454-.252q1.494-1.923,3.179-3.9.74-.864,1.478-1.689l2.926-.988Z" transform="translate(-12489.381 -11494.61)" fill="#26264f"/>
        <path id="Path_12206" data-name="Path 12206" d="M12511.863,11676.574s-1.672,8.725.456,11.168c1.813,2.442-.876.7-.876.7l-3.209,2.8-1.926,3.326s1.771-8.538,1.3-11.927-.709-5.674-.709-5.674Z" transform="translate(-12490.595 -11475.234)" fill="url(#linear-gradient-69)"/>
        <path id="Path_12207" data-name="Path 12207" d="M12498.393,11448.281s-4.492,4.02-4.492,20.568,2.128,52.482,2.128,52.482l3.405,25.729a22.527,22.527,0,0,0,5.894-.584c2.128-9.693,5.595-26.09,3.94-39.8-.71-14.895,5.91-33.57,5.91-33.57s5.674,18.912,9.692,28.369,11.671,39.08,12.38,41.209c4.7.426,6.711-.818,6.711-.818s-3.015-31.881-5.852-43.937-2.6-41.135-7.329-49.41C12520.143,11444.263,12498.393,11448.281,12498.393,11448.281Z" transform="translate(-12483.427 -11342.374)" fill="url(#linear-gradient-70)"/>
        <path id="Path_12208" data-name="Path 12208" d="M12498.393,11448.281s-4.492,4.02-4.492,20.568,2.128,52.482,2.128,52.482l3.405,25.729a22.527,22.527,0,0,0,5.894-.584c2.128-9.693,5.595-26.09,3.94-39.8-.71-14.895,5.91-33.57,5.91-33.57s5.674,18.912,9.692,28.369,11.671,39.08,12.38,41.209c4.7.426,6.711-.818,6.711-.818s-3.015-31.881-5.852-43.937-2.6-41.135-7.329-49.41C12520.143,11444.263,12498.393,11448.281,12498.393,11448.281Z" transform="translate(-12483.427 -11342.374)" fill="url(#linear-gradient-71)"/>
        <path id="Path_12209" data-name="Path 12209" d="M12521.727,11478.6c1.4,9.1,4.2,14.007,11.205,20.31,5.6,4.2,1.4,13.306,3.5,20.31.7,2.1,2.8,4.2,3.5,6.3,2.607,5.211.174,11.588,1.354,17.105a7.491,7.491,0,0,0,2.673-.766s-3.015-31.881-5.852-43.937-2.6-41.135-7.329-49.41c-10.638-4.255-32.388-.236-32.388-.236s-4.492,4.02-4.492,20.568c0,1.343.014,2.814.04,4.383,4.663,4.127,14.2,5.045,20.083.47a2.769,2.769,0,0,1,1.123-.51l.031-.087.024.081C12517.879,11472.7,12521.119,11476.175,12521.727,11478.6Z" transform="translate(-12483.427 -11342.374)" opacity="0.25" fill="url(#linear-gradient-72)" style="mix-blend-mode: multiply;isolation: isolate"/>
        <g id="Group_8795" data-name="Group 8795" transform="translate(54.938 206.775)">
          <path id="Path_12210" data-name="Path 12210" d="M12599.81,11701.68s-.69,0-.634.893-.311,3.963,3.2,4.106,4.055-.249,4.169-.249a28.474,28.474,0,0,0-.921-2.936l-1.123-1.439-3.023-.316Z" transform="translate(-12599.173 -11696.511)" fill="#26264f"/>
          <path id="Path_12211" data-name="Path 12211" d="M12607.76,11697.693a11.154,11.154,0,0,0-.907-2.848c-.62-1.395-.11-1.917-.7-3.188a3.785,3.785,0,0,0-.836-1.269,3.632,3.632,0,0,0-2.48-.944,2.511,2.511,0,0,0-1.168.273,2.742,2.742,0,0,0-1.051,1.108,12.452,12.452,0,0,0-.846,2.51,6.339,6.339,0,0,0-.221.854,6.067,6.067,0,0,0-.092.768c.92,0,4.461.144,5.209.69a2.935,2.935,0,0,1,1.123,2.39c0,.921.461,1.354.922,1.324A1.512,1.512,0,0,0,12607.76,11697.693Z" transform="translate(-12599.336 -11689.442)" fill="#444b8c"/>
        </g>
        <path id="Path_12212" data-name="Path 12212" d="M12509.676,11700.112c.791.013,1.371.642,1.809,2.159s2.539,2.859.088,2.539-4.231,3.15-5.106,4.436-3.226,2.424-3.167,1.17,1.095-1.842,1.387-3.125S12507.871,11700.084,12509.676,11700.112Z" transform="translate(-12488.855 -11488.831)" fill="#444b8c"/>
        <path id="Path_12213" data-name="Path 12213" d="M12513.578,11316.558c-3.967-.116-14.066-1.22-18.791,3.5-4.83,4.828.061,10.623-.81,18.578-.437,3.984-.435,6.76-.817,11.494-.038.482-.391,4.367-.586,5.9-1.346,10.6-8.806,14.745-10.857,23.528-.793,3.4-1.073,8.756,2.382,16.274a27.025,27.025,0,0,1,8.733,1.985c10.348,4.3,11.126,12.577,18.259,14.687,6.928,2.049,9.474-4.792,20.243-6.748,16.781-3.046,28.021,10.395,32.152,6.351,3.514-3.438-.45-17.243-9.923-24.609-11.317-8.8-22.906-2.513-28.183-10.718-3.287-5.112-1.952-12.472-.039-23.011a73.514,73.514,0,0,1,3.126-11.787,118.112,118.112,0,0,1,6.413-15.094c1.834-3.765-2.521-1.656-5.312-4.96C12525.291,11316.858,12517.582,11316.676,12513.578,11316.558Z" transform="translate(-12476.096 -11267.166)" fill="url(#linear-gradient-73)"/>
        <path id="Path_12214" data-name="Path 12214" d="M12494.045,11293.059c-3.154.814-12.518-1.92-13.163-3.631-1.47-3.9,2.087-5.742,9.249-10.361-1.887-1.152-1.979-3.324-3.867-4.477-5.936,2.99-19.361,7.563-16.852,19.391,2.038,9.614,13.432,18.535,23.179,24.389C12494.535,11314.123,12497.943,11292.049,12494.045,11293.059Z" transform="translate(-12469.104 -11243.037)" fill="url(#linear-gradient-74)"/>
        <path id="Path_12215" data-name="Path 12215" d="M12531.387,11316.039l2.845-.875s.744,3.852,9.892,4.334a13.666,13.666,0,0,0,8.36-2.846l1.944,1.418s-4.266,5.327-11.049,5.191A13.607,13.607,0,0,1,12531.387,11316.039Z" transform="translate(-12505.08 -11266.474)" fill="url(#linear-gradient-75)"/>
        <path id="Path_12216" data-name="Path 12216" d="M12575.168,11437.055a2.751,2.751,0,0,1-2,.264c-1.213-.264-2.69-1.266-4.008-1.687s-1.424,1.529.527,2.531a10.9,10.9,0,0,1,4.377,4.535c.738,1.529,2.584-1.846,2.584-1.846Z" transform="translate(-12526.338 -11336.024)" fill="url(#linear-gradient-76)"/>
        <path id="Path_12217" data-name="Path 12217" d="M12581.485,11323.809a26.718,26.718,0,0,1,12.8,7.452c7.987,8.487,7.151,19.34,6.961,21.3-1.284,13.2-12.052,21.938-19.954,25.1l-1.748-5.609c2.045-1.252,9.906-6.373,11.155-15.061.278-1.937.676-4.7-.844-7.172-2.72-4.424-8.524-2.93-11.39-6.117C12576.393,11341.4,12575.543,11336.291,12581.485,11323.809Z" transform="translate(-12531.377 -11271.467)" fill="url(#linear-gradient-77)"/>
        <path id="Path_12218" data-name="Path 12218" d="M12514.146,11229.6s-9.4-18.717-8.752-29.683c-11.127-.8-18.966,11.26-18.966,11.26s18.044,13.908,22.88,21.486C12511.889,11232.99,12514.146,11229.6,12514.146,11229.6Z" transform="translate(-12479.11 -11199.884)" fill="url(#linear-gradient-78)"/>
        <g id="Group_8796" data-name="Group 8796" transform="translate(27.899 25.857)">
          <path id="Path_12219" data-name="Path 12219" d="M12537.883,11279.745a10.828,10.828,0,0,1,4.106-6.681c2.714-2.158,3.267-2.375,4.2-2.552l1.273-.192s.068,0,.139,0a12.711,12.711,0,0,1,3.385,1.2c1.3.912.343,7.373-3.59,15.409q-.233,1.021-.465,2.041c3.428.6,4.277,1.221,4.3,1.714.059,1.07-3.7,2.436-7.174,2.523-4.361.111-8.992-1.766-8.9-3.166.036-.566.859-1.266,4.026-1.953q.743-1.043,1.484-2.088C12540.218,11285.463,12537.524,11282.514,12537.883,11279.745Z" transform="translate(-12535.155 -11266.428)" fill="url(#linear-gradient-79)"/>
          <path id="Path_12220" data-name="Path 12220" d="M12553.531,11262.477a6.55,6.55,0,0,0-1.438,5.91c.269,1.109.614,1.227.565,1.953-.139,2.041-3.855,2.93-3.649,3.957.147.734,2.083.467,2.415,1.389.366,1.01-1.759,1.879-2.672,4.419-.017.047-.043.12-.075.218a6.931,6.931,0,0,0,.179,4c6.172,18.4,22.413,29.073,22.413,29.073a59.7,59.7,0,0,0,30.937,10.436c8.48.322,24.639.936,29.445-8.945,4.018-8.262-1.291-21-9.318-25.345-6.838-3.7-11.346,1.017-17.891-2.981-8.426-5.148-5.352-15.648-12.3-18.637-7.907-3.4-16.448,8.238-23.552,4.168-4.719-2.7-4.057-9.985-9.508-10.845C12558.322,11261.124,12555.391,11260.661,12553.531,11262.477Z" transform="translate(-12542.847 -11261.103)" fill="url(#linear-gradient-80)"/>
          <path id="Path_12221" data-name="Path 12221" d="M12549.744,11282.744c1.1-.656,1.932.754,1.415,1.986s-2.251,2-3.3,1.268S12548.271,11283.627,12549.744,11282.744Z" transform="translate(-12542.285 -11273.507)" fill="url(#linear-gradient-81)"/>
        </g>
      </g>
      <path id="Path_12222" data-name="Path 12222" d="M12542.718,11271.256a4.43,4.43,0,0,1,2.72-1.008c.68-.013-1.223,3.664-4.838,3.064Z" transform="translate(-12508.109 -11228.675)" fill="url(#linear-gradient-82)"/>
      <path id="Path_12223" data-name="Path 12223" d="M12465.5,11191.475a1.824,1.824,0,0,0,1.6-.94c9.2-16.594,22.513-15.024,22.642-15.007a1.827,1.827,0,1,0,.483-3.621c-.647-.088-15.927-1.895-26.32,16.856a1.826,1.826,0,0,0,1.6,2.712Z" transform="translate(-12463.676 -11171.821)" fill="#ebeff2" style="mix-blend-mode: multiply;isolation: isolate"/>
    </g>
    <g id="Group_8800" data-name="Group 8800" transform="translate(10979.82 10650.844)">
      <path id="Path_12224" data-name="Path 12224" d="M11440.041,11056.73c-.772,1.232-.652,1.81-.52,2.072.39.769,1.58.205,4.465.856a4.936,4.936,0,0,0,1.819.126c.716-.092,1.579-.377,1.563-.568-.006-.068-.127-.109-.174-.125-.792-.257-5.7-2.346-5.7-2.346Z" transform="translate(-11398.096 -10916)" fill="url(#linear-gradient-83)"/>
      <path id="Path_12225" data-name="Path 12225" d="M11440.67,11049.873l.15,2.952s1.154,1.012,1.594-.024a15.147,15.147,0,0,0,.527-2.821Z" transform="translate(-11398.815 -10912.039)" fill="url(#linear-gradient-84)"/>
      <path id="Path_12226" data-name="Path 12226" d="M11470.64,11056.5l-1.573,3.217-1.75-.471.735-3.053Z" transform="translate(-11414.208 -10915.691)" fill="url(#linear-gradient-85)"/>
      <path id="Path_12227" data-name="Path 12227" d="M11467.474,11064.245c-.755-1.112-1.534-1.1-1.615-1.817a1.444,1.444,0,0,1,.881-1.41c.755-.287,1.563.368,1.747.516,1.241,1.006.736,2.322,1.932,3.041a3.39,3.39,0,0,1,1.009.752c.161.186.563.648.429.924-.155.32-.945.226-1.7.137a3.305,3.305,0,0,1-1.76-.479C11467.835,11065.47,11468.057,11065.1,11467.474,11064.245Z" transform="translate(-11413.361 -10918.435)" fill="url(#linear-gradient-86)"/>
      <path id="Path_12228" data-name="Path 12228" d="M11432.277,10883.058a96.178,96.178,0,0,0,.6,17.472c.654,5.182,1.209,6.112,1.254,9.66.1,7.723-2.465,8.614-3.636,17.234a52.982,52.982,0,0,0,1.378,20.312,55.122,55.122,0,0,0,1.979,6.207c.813.837,2.179.655,3.615.485,1.239-8.63,2.564-16.736,3.8-25.366q4.141-19.361,8.281-38.72Z" transform="translate(-11392.685 -10815.682)" fill="url(#linear-gradient-87)"/>
      <path id="Path_12229" data-name="Path 12229" d="M11440.426,10954.428c1.238-8.63,2.564-16.736,3.8-25.366q4.141-19.361,8.281-38.72l-17.272-7.284c-.025.45-.039.884-.057,1.326,7.705,7.9,8.856,13.745,8.453,17.635-.491,4.718-3.27,6.845-3.332,13.738-.045,4.929,1.355,5.914.988,10.335-.473,5.691-3.18,8.689-4.643,11.881-1.414,3.084-2.2,7.553-.506,14.141.236.686.463,1.3.668,1.829C11437.623,10954.779,11438.988,10954.6,11440.426,10954.428Z" transform="translate(-11395.646 -10815.682)" opacity="0.3" fill="url(#linear-gradient-88)" style="mix-blend-mode: multiply;isolation: isolate"/>
      <path id="Path_12230" data-name="Path 12230" d="M11458.844,10890.455a101.893,101.893,0,0,1,6.7,17.369,24.518,24.518,0,0,1,1.078,7.563,23.354,23.354,0,0,1-1.854,8.464,44.886,44.886,0,0,0-2.97,8.373,47.624,47.624,0,0,0,.683,24.563l3.059,1.43a174.494,174.494,0,0,0,9.7-27.164c1.672-6.273,2.961-11.2,3.494-17.537a74.739,74.739,0,0,0-3.937-30.451Z" transform="translate(-11409.313 -10815.686)" fill="url(#linear-gradient-89)"/>
      <path id="Path_12231" data-name="Path 12231" d="M11398.338,10762.477c6.594,1.7,11.586,3.32,13.569,7.012,2.095,3.9-1.954,6.367-3.665,14.4-2.619,12.3,4.142,17.532,1.048,29.876a32.462,32.462,0,0,1-3.894,9.158,34.157,34.157,0,0,1-10.738,4.948c-6.979,1.811-10.21.154-19.379-.08-15-.385-17.59,3.759-24.111.537-6.592-3.254-10.922-10.933-9.219-13.92,1.02-1.789,3.654-.4,7.76-2.359,5.291-2.525,4.775-6.613,9.156-9.721,6.293-4.463,11.537,1.006,16.925-2.881,5.45-3.934,6.935-14.473,5.294-20.955-1.071-4.234-.727-8.715-1.425-13.025a2.735,2.735,0,0,1,.19-1.541c1.035-2.359,5.518-2.457,8.9-2.5A38.452,38.452,0,0,1,11398.338,10762.477Z" transform="translate(-11341.577 -10745.422)" fill="url(#linear-gradient-90)"/>
      <path id="Path_12232" data-name="Path 12232" d="M11353.323,10873.484c2.181-1.205,1.386-5.2,4.617-7.021,3-1.688,5.007,1.011,9.3.075,5.506-1.2,5.654-6.395,10.938-7.619,3.8-.879,4.719,1.576,10.047,2.12a21.294,21.294,0,0,0,17.379-6.358,19.089,19.089,0,0,0,4.107-7.037c1.043,4.721,2.222,9.3.561,15.924a32.439,32.439,0,0,1-3.893,9.158,34.176,34.176,0,0,1-10.738,4.949c-6.979,1.811-10.211.154-19.379-.081-15-.385-17.59,3.759-24.112.538a19.424,19.424,0,0,1-8.873-9.278C11348.82,10873.634,11351.741,10874.359,11353.323,10873.484Z" transform="translate(-11342.559 -10795.226)" opacity="0.3" fill="url(#linear-gradient-91)" style="mix-blend-mode: multiply;isolation: isolate"/>
      <path id="Path_12233" data-name="Path 12233" d="M11474.8,10737.267s1.557,3.613,1.471,6.051-2.811,2.034-2.811,2.034l-.023,1.539a3.331,3.331,0,0,0,1.926,3.073l1.05.487s-7.183.926-10.811-2.116l1.12-.017a3.332,3.332,0,0,0,3.225-2.719l.121-.65S11469.475,10737.279,11474.8,10737.267Z" transform="translate(-11413.22 -10731.468)" fill="url(#linear-gradient-92)"/>
      <g id="Group_8799" data-name="Group 8799" transform="translate(68.781 26.414)">
        <path id="Path_12234" data-name="Path 12234" d="M11504.422,10804.9l10.738-18.523a.6.6,0,0,1,.656-.283l15.024,3.512a.6.6,0,0,1,.372.9l-12.461,19.925a.6.6,0,0,1-.713.246l-13.2-4.769Z" transform="translate(-11504.422 -10786.076)" fill="url(#linear-gradient-93)"/>
        <path id="Path_12235" data-name="Path 12235" d="M11510.676,10804.82l8.7-15a.486.486,0,0,1,.531-.23l12.165,2.843a.486.486,0,0,1,.3.731l-10.09,16.133a.488.488,0,0,1-.578.2l-10.691-3.861Z" transform="translate(-11508.034 -10788.1)" fill="url(#linear-gradient-94)"/>
        <path id="Path_12236" data-name="Path 12236" d="M11537.257,10788.613l.69-1.2a.441.441,0,0,1,.478-.21l6.258,1.407a.44.44,0,0,1,.282.651l-.768,1.308a.438.438,0,0,1-.483.205l-6.181-1.512A.441.441,0,0,1,11537.257,10788.613Z" transform="translate(-11523.354 -10786.719)" fill="url(#linear-gradient-95)"/>
        <path id="Path_12237" data-name="Path 12237" d="M11541.369,10798.526l-.028-.006-11.017-2.6a.252.252,0,0,1-.188-.3.256.256,0,0,1,.306-.187l11.016,2.6a.254.254,0,0,1-.088.5Z" transform="translate(-11519.271 -10791.474)" fill="#fff"/>
        <path id="Path_12238" data-name="Path 12238" d="M11539.827,10800.912l-.031-.006-10.948-2.7a.253.253,0,1,1,.121-.492l10.947,2.7a.251.251,0,0,1,.186.307A.254.254,0,0,1,11539.827,10800.912Z" transform="translate(-11518.419 -10792.792)" fill="#fff"/>
        <path id="Path_12239" data-name="Path 12239" d="M11532.984,10805.176l-.037-.008-5.953-1.643a.253.253,0,1,1,.135-.488l5.953,1.642a.254.254,0,0,1-.1.5Z" transform="translate(-11517.353 -10795.868)" fill="#fff"/>
      </g>
      <path id="Path_12240" data-name="Path 12240" d="M11545.572,10824s2.658-1.429,3.071-2.587a17.334,17.334,0,0,0,.575-3.406l-1.775,3a1.7,1.7,0,0,1-.871-1.344c-.191-1.07-.8-.172-.678.635A23.188,23.188,0,0,1,11545.572,10824Z" transform="translate(-11459.41 -10778.105)" fill="url(#linear-gradient-96)"/>
      <path id="Path_12241" data-name="Path 12241" d="M11496.852,10777.447a18.574,18.574,0,0,1,4.566,4.986c4.3,6.951,1.645,13.6,5.5,16.454,1.1.816,3.107,1.595,6.971.667l1.348.908s.817,9.053-9.988,8.259-14.772-14.745-14.772-14.745Z" transform="translate(-11427.585 -10754.678)" fill="url(#linear-gradient-97)"/>
      <path id="Path_12242" data-name="Path 12242" d="M11410.432,10732.686c-.361-.061-.625-.547-.886-.431s-.3.8-.112,1.292a1.719,1.719,0,0,0,.6.764,4.5,4.5,0,0,0-.938,1.723,6.207,6.207,0,0,0,.659,4.072c1.439,3.866-1.768,9.524-5,12.248-2.625,2.215-3.676,1.15-5.287,3-3.137,3.605.4,8.147-1.482,13.194-2.867,7.673-15.468,8.981-15.989,9.03-.206.019-.344.029-.558.045-5.639.424-14.185,1.064-19.747-4-4.161-3.785-5.706-9.9-4.937-15.115a16.982,16.982,0,0,1,5.672-10.482c.732-.622,5.07-4.293,10.488-3.895,2.869.213,3.364,1.271,5.609.828,3.072-.606,5.148-3.183,6.436-4.781,2.369-2.939,1.566-3.676,3.212-5.082,3.224-2.754,6.519-.107,9.915-2.493,3.349-2.351,1.753-6.049,4.963-8.059,3.313-2.071,9.211-.764,10.254,2.118C11414.2,10729.143,11411.543,10732.871,11410.432,10732.686Z" transform="translate(-11350.235 -10723.538)" fill="url(#linear-gradient-98)"/>
    </g>
  </g>
</svg>
