<svg id="Group_5960" data-name="Group 5960" xmlns="http://www.w3.org/2000/svg" xmlns:xlink="http://www.w3.org/1999/xlink" width="734.267" height="478.206" viewBox="0 0 734.267 478.206">
  <defs>
    <clipPath id="clip-path">
      <rect id="Rectangle_923" data-name="Rectangle 923" width="734.267" height="478.206" fill="none"/>
    </clipPath>
  </defs>
  <g id="Group_5957" data-name="Group 5957">
    <g id="Group_5956" data-name="Group 5956" clip-path="url(#clip-path)">
      <path id="Path_7824" data-name="Path 7824" d="M665.088,290.611c0,64.7-95.193,117.143-297.954,117.143S0,355.308,0,290.611,164.37,173.468,367.134,173.468s297.954,52.446,297.954,117.143" transform="translate(0 70.453)" fill="#ffe1e5"/>
      <path id="Path_7825" data-name="Path 7825" d="M116.229,215.035V36.539A36.539,36.539,0,0,1,152.768,0h349.4a30.91,30.91,0,0,1,30.908,30.911V215.035a36.537,36.537,0,0,1-36.537,36.537H152.768a36.538,36.538,0,0,1-36.539-36.537" transform="translate(47.206 0)" fill="#76a9b7"/>
      <path id="Path_7826" data-name="Path 7826" d="M497.53,238.8H146.2a23.122,23.122,0,0,1-23.123-23.123V30.173A23.122,23.122,0,0,1,146.2,7.05H497.53a23.123,23.123,0,0,1,23.124,23.123v185.5A23.123,23.123,0,0,1,497.53,238.8" transform="translate(49.989 2.863)" fill="#e4f3f7"/>
      <path id="Path_7827" data-name="Path 7827" d="M378.387,212.386H203.1a3.385,3.385,0,1,1,0-6.771H378.387a3.385,3.385,0,1,1,0,6.771" transform="translate(81.113 83.51)" fill="#76a9b7"/>
      <path id="Path_7828" data-name="Path 7828" d="M378.669,216.461H201.427l15.109-37.551H363.56Z" transform="translate(81.809 72.663)" fill="#527480"/>
      <rect id="Rectangle_921" data-name="Rectangle 921" width="362.481" height="173.728" transform="translate(190.617 53.268)" fill="#b4dfd5"/>
      <rect id="Rectangle_922" data-name="Rectangle 922" width="362.481" height="25.693" transform="translate(190.617 27.763)" fill="#e6e6ce"/>
      <path id="Path_7829" data-name="Path 7829" d="M150.27,30.317A4.973,4.973,0,1,0,145.3,35.29a4.973,4.973,0,0,0,4.974-4.974" transform="translate(56.992 10.293)" fill="#ec7772"/>
      <path id="Path_7830" data-name="Path 7830" d="M163.321,30.317a4.974,4.974,0,1,0-4.974,4.974,4.973,4.973,0,0,0,4.974-4.974" transform="translate(62.292 10.293)" fill="#fdd17a"/>
      <path id="Path_7831" data-name="Path 7831" d="M176.372,30.317A4.974,4.974,0,1,0,171.4,35.29a4.973,4.973,0,0,0,4.974-4.974" transform="translate(67.593 10.293)" fill="#61bda6"/>
    </g>
  </g>
  <text id="BRAND" transform="translate(281.643 150.958)" fill="#fff" font-size="48" font-family="Montserrat-Black, Montserrat" font-weight="800"><tspan x="0" y="0">BRAND</tspan></text>
  <g id="Group_5959" data-name="Group 5959">
    <g id="Group_5958" data-name="Group 5958" clip-path="url(#clip-path)">
      <rect id="Rectangle_924" data-name="Rectangle 924" width="42.934" height="126.448" transform="translate(207.504 72.633)" fill="#61bda6"/>
      <rect id="Rectangle_925" data-name="Rectangle 925" width="16.145" height="16.145" transform="translate(211.117 76.729)" fill="#b4dfd5"/>
      <rect id="Rectangle_926" data-name="Rectangle 926" width="16.145" height="16.145" transform="translate(230.678 76.729)" fill="#b4dfd5"/>
      <rect id="Rectangle_927" data-name="Rectangle 927" width="16.145" height="16.145" transform="translate(211.117 97.54)" fill="#b4dfd5"/>
      <rect id="Rectangle_928" data-name="Rectangle 928" width="16.145" height="16.145" transform="translate(230.678 97.54)" fill="#b4dfd5"/>
      <rect id="Rectangle_929" data-name="Rectangle 929" width="16.145" height="16.145" transform="translate(211.117 118.353)" fill="#b4dfd5"/>
      <rect id="Rectangle_930" data-name="Rectangle 930" width="16.145" height="16.145" transform="translate(230.678 118.353)" fill="#b4dfd5"/>
      <rect id="Rectangle_931" data-name="Rectangle 931" width="16.145" height="16.145" transform="translate(211.117 139.165)" fill="#b4dfd5"/>
      <rect id="Rectangle_932" data-name="Rectangle 932" width="16.145" height="16.145" transform="translate(230.678 139.165)" fill="#b4dfd5"/>
      <rect id="Rectangle_933" data-name="Rectangle 933" width="16.145" height="16.145" transform="translate(211.117 159.977)" fill="#b4dfd5"/>
      <rect id="Rectangle_934" data-name="Rectangle 934" width="16.145" height="16.145" transform="translate(230.678 159.977)" fill="#b4dfd5"/>
      <path id="Path_7832" data-name="Path 7832" d="M361.378,126.519v2.109h-2.109" transform="translate(145.915 51.385)" fill="none" stroke="#1c1c38" stroke-linecap="round" stroke-linejoin="round" stroke-width="1"/>
      <line id="Line_123" data-name="Line 123" x1="230.697" transform="translate(268.929 180.013)" fill="none" stroke="#1c1c38" stroke-linecap="round" stroke-linejoin="round" stroke-width="1" stroke-dasharray="2.965 3.953"/>
      <path id="Path_7833" data-name="Path 7833" d="M189.884,128.628h-2.109v-2.109" transform="translate(76.264 51.385)" fill="none" stroke="#1c1c38" stroke-linecap="round" stroke-linejoin="round" stroke-width="1"/>
      <line id="Line_124" data-name="Line 124" y1="72.762" transform="translate(264.039 99.752)" fill="none" stroke="#1c1c38" stroke-linecap="round" stroke-linejoin="round" stroke-width="1" stroke-dasharray="2.875 3.833"/>
      <path id="Path_7834" data-name="Path 7834" d="M187.775,69.632V67.523h2.109" transform="translate(76.264 27.424)" fill="none" stroke="#1c1c38" stroke-linecap="round" stroke-linejoin="round" stroke-width="1"/>
      <line id="Line_125" data-name="Line 125" x2="230.697" transform="translate(271.707 94.947)" fill="none" stroke="#1c1c38" stroke-linecap="round" stroke-linejoin="round" stroke-width="1" stroke-dasharray="2.965 3.953"/>
      <path id="Path_7835" data-name="Path 7835" d="M359.268,67.523h2.109v2.109" transform="translate(145.915 27.424)" fill="none" stroke="#1c1c38" stroke-linecap="round" stroke-linejoin="round" stroke-width="1"/>
      <line id="Line_126" data-name="Line 126" y2="72.762" transform="translate(507.293 102.446)" fill="none" stroke="#1c1c38" stroke-linecap="round" stroke-linejoin="round" stroke-width="1" stroke-dasharray="2.875 3.833"/>
      <rect id="Rectangle_935" data-name="Rectangle 935" width="13.368" height="13.368" transform="translate(257.356 88.264)" fill="#1c1c38"/>
      <rect id="Rectangle_936" data-name="Rectangle 936" width="13.368" height="13.368" transform="translate(500.609 88.264)" fill="#1c1c38"/>
      <rect id="Rectangle_937" data-name="Rectangle 937" width="13.368" height="13.368" transform="translate(257.356 173.329)" fill="#1c1c38"/>
      <rect id="Rectangle_938" data-name="Rectangle 938" width="13.368" height="13.368" transform="translate(500.609 173.329)" fill="#1c1c38"/>
      <rect id="Rectangle_939" data-name="Rectangle 939" width="241.853" height="5.902" transform="translate(265.44 72.633)" fill="#61bda6"/>
      <rect id="Rectangle_940" data-name="Rectangle 940" width="241.853" height="5.902" transform="translate(265.44 196.188)" fill="#61bda6"/>
      <path id="Path_7836" data-name="Path 7836" d="M164.119,118.027a79.359,79.359,0,0,0,10.331,2.849l18.388,4.192a10.617,10.617,0,0,0,4.924.33,19.809,19.809,0,0,0,6.894-3.12c2.12-1.624,2.946-9.77,4.363-12.034.855-1.361,2.742-1.921,2.555-1.09-.276,1.219.6,13.59.294,14.817a9.372,9.372,0,0,1-5.3,5.892,23.046,23.046,0,0,1-7.707,1.759,142.871,142.871,0,0,1-22.1.413c-6.575-.4-13.339-.21-19.815-1.692-6.284-1.437-12.224-2.728-17.964-5.657-2.247-1.147-4.424-4-6.094-5.889-4.775-5.4,1.672-15.033,8.395-13.685,3.745.752,7.571,4.48,10.743,6.5a65.678,65.678,0,0,0,12.1,6.411" transform="translate(53.3 42.639)" fill="#e27e5a"/>
      <path id="Path_7837" data-name="Path 7837" d="M136.117,291.054a4.505,4.505,0,0,1-2.953,3.858,13.164,13.164,0,0,1-5.052.72l-39.386.447c-4.448.046-9.015.086-13.209-1.41a12.783,12.783,0,0,1,.262-5.885c.831-3.373,2.493-6.745,3.11-10.2.7-3.9.066-7.9.243-11.855a1.162,1.162,0,0,1,.336-.944,1.248,1.248,0,0,1,.692-.167c4.11-.141,8.22-.3,12.34-.422,1.308-.037,8.93-.017,9.23.983,1.1,3.773,3.877,6.838,6.894,9.359s6.38,4.645,9.23,7.361a15.313,15.313,0,0,0,4.008,3.213c2.531,1.14,5.446.45,8.212.523a7.344,7.344,0,0,1,5.118,2.094,3.447,3.447,0,0,1,.925,2.326" transform="translate(30.576 107.704)" fill="#ce422c"/>
      <path id="Path_7838" data-name="Path 7838" d="M136.117,284.355a4.505,4.505,0,0,1-2.953,3.858,13.164,13.164,0,0,1-5.052.72l-39.386.447c-4.448.046-9.015.086-13.209-1.41a12.783,12.783,0,0,1,.262-5.885,3.993,3.993,0,0,1,1.42-.364c4.119-.318,9.07,1.2,13.237,1.55,4.39.364,8.884.851,13.292.851,10.548.57,21.468,1.1,31.464-2.092a3.447,3.447,0,0,1,.925,2.326" transform="translate(30.576 114.402)" fill="#7f1d13"/>
      <path id="Path_7839" data-name="Path 7839" d="M108.524,227.832c2.8,3.677,5.792,8.142,4.436,12.561a16.254,16.254,0,0,1-3.252,5.135c-13.941,17.366-18.984,40.019-23.625,61.8a3.348,3.348,0,0,0,.27,2.881,3.3,3.3,0,0,0,1.8.866l11.914,2.953a4.837,4.837,0,0,0,2.191.2c2.116-.467,2.577-3.192,2.991-5.318a35.7,35.7,0,0,1,3.293-8.617q8.038-16.568,16.075-33.137c3.615-7.451,7.371-15.094,13.489-20.677,1.465-1.337,3.112-2.621,3.861-4.46.811-1.993.409-4.252-.076-6.349-2.077-8.982-5.44-17.609-8.794-26.2q-10.812-27.7-21.625-55.392a8.41,8.41,0,0,0-2.343-3.8c-2.355-1.813-5.755-.675-8.395.69a69.918,69.918,0,0,0-23.121,19.29c-3.056,3.954-5.276,8.478-2.133,12.818,3.309,4.569,6.993,8.943,10.269,13.611q11.082,15.792,22.774,31.146" transform="translate(30.037 60.653)" fill="#3b6472"/>
      <path id="Path_7840" data-name="Path 7840" d="M48.871,258.363c.721,2.33.042,4.843-.339,7.251-.855,5.332-.247,10.777.363,16.15a33.792,33.792,0,0,0,1.843,8.9c.824,2.022,2.049,3.875,2.831,5.921a9.852,9.852,0,0,1,.712,3.5,5.875,5.875,0,0,1-.65,2.883,6.609,6.609,0,0,1-5.885,3.182,12.659,12.659,0,0,1-6.568-2.237c-6.464-4.076-10.583-10.972-13.685-17.952s-5.445-14.351-9.521-20.818a12.688,12.688,0,0,1-2.226-4.675c-.256-1.723.592-3.761,2.286-4.175a24.889,24.889,0,0,0,2.427-.7c5.324-1.793,9.376-4.906,14.306-7.793,4.989-2.933,8.957,3.273,11.841,6.806a11.6,11.6,0,0,1,2.264,3.757" transform="translate(6.377 100.332)" fill="#ce422c"/>
      <path id="Path_7841" data-name="Path 7841" d="M52.448,298.291c.607-.179,1.218-.443,1.832-.675a5.856,5.856,0,0,1-.651,2.881,6.606,6.606,0,0,1-5.885,3.184,12.665,12.665,0,0,1-6.568-2.239c-6.464-4.075-10.581-10.972-13.683-17.951s-5.445-14.351-9.522-20.818A12.7,12.7,0,0,1,15.746,258c-.256-1.722.591-3.761,2.285-4.175.844-.2,1.651-.437,2.428-.7a21.165,21.165,0,0,1,1.087,4.071c1.717,7.27,5.089,14,8.485,20.6,3.2,6.212,6.574,12.565,11.866,17.13,2.922,2.506,6.856,4.469,10.55,3.369" transform="translate(6.377 102.804)" fill="#7f1d13"/>
      <path id="Path_7842" data-name="Path 7842" d="M120.948,141.981c1.027,1.568.333,3.655-.44,5.362-6.174,13.482-16.9,25.818-16.825,40.647a49.948,49.948,0,0,0,1.5,10.749c.152.712.315,1.4.474,2.108,4.4,19.215,8.679,38.929,6.124,58.475a14.359,14.359,0,0,1-1.54,5.49,13.7,13.7,0,0,1-4.345,4.195c-13.918,9.531-31.873,12.053-45.227,22.365-6.148,4.742-11.094,10.988-17.62,15.182a46.939,46.939,0,0,1-12.256-12.959c11.128-6.138,17.746-18.068,27.652-26.025,5.828-4.68,12.661-7.894,19.377-11.18,1.523-.752,3.175-1.642,3.8-3.224a6.506,6.506,0,0,0,.149-3.295c-1.794-14.007-7.353-27.2-12.575-40.328-1.237-3.113-2.459-6.249-3.618-9.411-3.714-10.155-6.714-20.583-7.128-31.342a55.322,55.322,0,0,1,2.41-18.624,41.381,41.381,0,0,1,7.955-14.769c3.73-4.3,6.667-4.2,12.077-3.652a156.632,156.632,0,0,1,36.98,8.292,5.715,5.715,0,0,1,3.077,1.946" transform="translate(12.506 53.399)" fill="#547989"/>
      <path id="Path_7843" data-name="Path 7843" d="M136.442,141.179a34.683,34.683,0,0,0,9.3,4.493c7.266,2.045,14.991.384,22.379-1.16q15.8-3.3,31.735-5.857c3.241-.519,6.567-1.014,9.788-.381,2.393.47,5.336,1.382,6.915-.475.688-.809,1.42-1.36,1.538-2.416.69-6.172.817-21.112,0-27.269-1.437.5-2.809,10.308-3.046,11.813s-.326,3.154-1.329,4.3c-.489.561-1.153.939-1.689,1.455-.817.789-1.3,1.866-2.109,2.669a8.419,8.419,0,0,1-4.584,1.942c-7.576,1.374-15.359.672-23.016-.152-7.881-.848-15.754-1.822-23.56-3.21-4.389-.78-8.936-1.775-12.411-4.564-3.892-3.126-5.838-8-8.565-12.18a4.747,4.747,0,0,0-5.521-2.568,23.811,23.811,0,0,0-11.674,4.016c-2.344,1.689-5.6,4.91-5.408,8.08.173,2.788,4.881,3.084,6.574,5.03,4.81,5.525,8.513,12.444,14.683,16.435" transform="translate(46.779 43.68)" fill="#f29d7e"/>
      <path id="Path_7844" data-name="Path 7844" d="M114.172,97.016q-3.873,5.159-7.746,10.315c-2.959,3.94-5.917,7.88-9.087,11.653a135.786,135.786,0,0,1-36.066,30.228c-1.385.8-2.9,1.714-3.368,3.244s.3,3.16,1.083,4.566c9.2,16.543,23.422,29.876,39.2,40.338a7.211,7.211,0,0,0,4.2,1.616,7.187,7.187,0,0,0,3.96-2.053,158.812,158.812,0,0,0,30.1-33.418c3.628-5.409,7.087-11.214,12.491-14.849,1.815-1.222,4.133-2.888,3.5-4.982a4.593,4.593,0,0,0-.922-1.5q-4.929-6.066-10.294-11.762c5.1-1.257,7.544-7.478,12.456-9.338a8.439,8.439,0,0,1,9.787,3.237,17.016,17.016,0,0,1,8.316-8.5q-3.084-5.566-6.685-10.823a57.615,57.615,0,0,0-9.934-11.6c-6.79-5.769-15.747-9.056-24.546-10.068-8.358-.96-12.045,7.842-16.443,13.7" transform="translate(23.46 33.809)" fill="#e289a9"/>
      <path id="Path_7845" data-name="Path 7845" d="M124.6,82.4a51.373,51.373,0,0,1-6.8,7.495c2.206,1.046,4.491,2.156,6.014,4.065,3.477,4.363,1.9,11.44,5.741,15.486-.266-1.526.854-2.909,1.9-4.054l5.869-6.437a11.234,11.234,0,0,1,4.367-3.418,11.2,11.2,0,0,1,5.065-.112c-3.418-6.54-6.914-13.188-12.108-18.432-1.34-1.354-4.464-4.524-6.437-2.527-.89.9-.97,2.843-1.437,3.985A20.839,20.839,0,0,1,124.6,82.4" transform="translate(47.844 29.982)" fill="#e27e5a"/>
      <path id="Path_7846" data-name="Path 7846" d="M151.779,57.588c1.519,2.468,4.625,8.9,4.583,10.917-.045,2.2-.546,2.527-.54,4.729.011,3.759,3.574,4.844,4.608,8.814,0,1.018-1.824,1.188-2.9,1.281a2.083,2.083,0,0,0-1.159.337c-1.011.814.143,2.513-.316,3.726-.6,1.581-3.293,1.171-4.141,2.632-.551.949-.008,2.149.616,3.051s1.377,1.88,1.225,2.967c-.2,1.438-1.931,2.44-1.777,3.884.086.817.487,1.772.112,2.5-.6,1.18-1.343,1.506-2.725,1.977-2.257.772-7.924-1.019-9.754-2.548-7.266-6.066-11.391-11.374-11.052-12.724.247-.981,1.389-1.735,1.173-2.724-.247-1.135-1.856-1.132-2.847-1.737A4.443,4.443,0,0,1,125.287,82l-.974-3.192a10.776,10.776,0,0,1-.683-4.026,3.239,3.239,0,0,1,5.338-2.607,10.741,10.741,0,0,1,2.282,2.395q2.21-2.445,4.186-5.087a2.732,2.732,0,0,0,.56-1.039,2.917,2.917,0,0,0-.181-1.384,32.308,32.308,0,0,1-1.108-5.488,8.9,8.9,0,0,1,.256-4.054c1.032-2.826,4.418-4.206,7.412-3.91s5.685,1.876,8.268,3.418a5.351,5.351,0,0,1,1.138.565" transform="translate(50.203 21.755)" fill="#f29d7e"/>
      <path id="Path_7847" data-name="Path 7847" d="M135.583,77.458c1.644-1.056,3.268-.124,4.178,1.128.3.406.689.859,1.187.8.408-.046.689-.418.92-.758,1.318-1.943.215-3.006,1.534-4.95a14.093,14.093,0,0,1,3.379-2.717c12.606-4.145,14.022-7.768,14.008-8.039-.068-1.309-1.334-6.97-7.633-10.546a30.305,30.305,0,0,0-18.264-4.043c-3.238.222-6.789,2.188-9.833,3.313-1.623-1.762-3.49-3.648-5.881-3.809a8.64,8.64,0,0,0-4.851,1.6c-3.363,2.012-6.606,4.663-7.96,8.341-2.246,6.1,1.319,12.859.547,19.315-.25,2.092-.944,4.292-.128,6.236.69,1.648,2.331,2.721,3.154,4.308,1.056,2.04.584,4.515,1.036,6.769a8.389,8.389,0,0,0,4.615,5.864c2.489,1.159,5.729,1.211,7.325,3.445,1.266,1.772.925,4.18,1.389,6.307a8.3,8.3,0,0,0,3.619,5.18,13.048,13.048,0,0,1,1.918,1.249c1.288,1.178,1.559,3.063,1.96,4.761s1.229,3.579,2.912,4.04a3.546,3.546,0,0,0,3.934-2.237c.631-1.521-.156-8.974-.186-10.135-.084-3.4-5.083-13.6-5.352-16.6-.165-1.862-1.277-3.785-.5-5.484.215-.471.563-.872.786-1.339.695-1.443.107-3.134-.105-4.722-.411-3.075,2.292-7.274,2.292-7.274" transform="translate(42.894 19.426)" fill="#1b4e61"/>
      <path id="Path_7848" data-name="Path 7848" d="M395.7,162.081c-7.229,21.728-8.7,44.887-10.106,67.742q-.441,7.142-.879,14.282a23.67,23.67,0,0,0,.134,5.961,39.5,39.5,0,0,0,1.88,5.58c2.419,6.8,2.271,14.2,2.1,21.416-.343,14.1-.689,28.233-2.711,42.187q-.9,6.172-2.225,12.271a4.769,4.769,0,0,0,.087,3.366,4.7,4.7,0,0,0,2.905,1.769q5.353,1.643,10.706,3.282c3.238.993,7.438,1.693,9.418-1.053,3.122-4.327-3.685-10.543-1.3-15.314.51-1.021,1.394-1.812,1.918-2.826a9.268,9.268,0,0,0,.78-3.257q1.618-14.117,3.231-28.234c.817-7.136,1.635-14.326,1.07-21.487-.333-4.209-1.142-8.381-1.211-12.6-.2-12.105,5.63-23.39,11.232-34.123,2.621-5.024,5.255-10.143,6.34-15.7,1.185-6.07.461-12.331-.267-18.471L425.774,161.3c-.338-2.845-.7-5.782-2.139-8.264-3.243-5.615-11.374-7.447-17.431-6.963-7.458.595-8.457,9.858-10.5,16.008" transform="translate(155.808 59.297)" fill="#b94a5b"/>
      <path id="Path_7849" data-name="Path 7849" d="M402.944,170.714c2.309,7.509,6.122,14.451,9.113,21.714,5.589,13.566,8.258,28.117,11.332,42.466a113.836,113.836,0,0,0,4.754,17.319c2.029,5.245,4.775,10.211,6.46,15.577,2.132,6.8,2.49,14.023,2.489,21.148a222.489,222.489,0,0,1-5.18,47.694l20.632,5.048c-2.075-7.468-.441-15.387.74-23.048,2.389-15.5,2.864-31.232,3.335-46.912a46.636,46.636,0,0,0-.35-9.389c-.924-5.322-3.664-10.164-4.951-15.411-1.378-5.629-1.043-11.515-.7-17.3q.85-14.267,1.7-28.533a45.94,45.94,0,0,1,1.256-9.6c.832-2.989,2.26-5.778,3.261-8.717,2.464-7.226,2.26-15.077,1.559-22.683a10.174,10.174,0,0,0-1.527-5.3c-1.362-1.811-3.705-2.525-5.889-3.134-12.269-3.414-25.086-6.92-37.945-5.768-5.6.5-9.413.585-11.276,6.052-1.963,5.764-.54,13.153,1.19,18.778" transform="translate(162.785 59.16)" fill="#e8605c"/>
      <path id="Path_7850" data-name="Path 7850" d="M418.358,297.856A4.073,4.073,0,0,1,415.619,301a12.055,12.055,0,0,1-4.342.534q-3.141-.013-6.284-.008c-5.44-.008-10.879-.014-16.311.352-9.648.652-19.675,2.437-28.739-.948a3.594,3.594,0,0,1-1.115-.589,2.413,2.413,0,0,1-.669-2.151,3.8,3.8,0,0,1,1.052-2.031,5.064,5.064,0,0,1,.955-.8,11.581,11.581,0,0,1,3.306-1.323,84.351,84.351,0,0,1,8.945-1.974,5.551,5.551,0,0,0,1.562-.415,8.58,8.58,0,0,0,1.744-1.433,22.66,22.66,0,0,1,4.006-2.525c3.919-2.271,7.169-5.5,10.522-8.539,1.147-1.027,3.7-2.93,4.412-.74.294.907.041,1.552.733,2.367a7.77,7.77,0,0,0,2.963,1.8c3.936,1.634,7.95,3.29,12.2,3.641a40.857,40.857,0,0,0,6.546-.174,25.919,25.919,0,0,0,.631,8.769c.142.461.3.924.429,1.385a4.229,4.229,0,0,1,.2,1.665" transform="translate(145.452 112.663)" fill="#f8f8dc"/>
      <path id="Path_7851" data-name="Path 7851" d="M418.358,292.436a4.073,4.073,0,0,1-2.739,3.146,12.056,12.056,0,0,1-4.342.534q-3.141-.013-6.284-.008c-5.44-.008-10.879-.014-16.311.352-9.648.652-19.675,2.437-28.739-.948a3.6,3.6,0,0,1-1.115-.589,2.413,2.413,0,0,1-.669-2.151,3.8,3.8,0,0,1,1.052-2.03c.183.891-.35,1.8.989,2.565a6.5,6.5,0,0,0,3.311.558l44.692-.478a23.392,23.392,0,0,0,5.91-.574,11.566,11.566,0,0,0,3.927-1.943,1.261,1.261,0,0,0,.12-.1,4.229,4.229,0,0,1,.2,1.665" transform="translate(145.452 118.083)" fill="#65bda5"/>
      <path id="Path_7852" data-name="Path 7852" d="M449.088,298.555a3.008,3.008,0,0,1-.629,1.841,3.871,3.871,0,0,1-1.124.8q-2.987,1.614-5.965,3.226a32.557,32.557,0,0,1-6.022,2.748,31.692,31.692,0,0,1-4.5.884,58.85,58.85,0,0,1-9.214.884,29.466,29.466,0,0,1-9.558-1.7,2.235,2.235,0,0,1-1.426-1.036,2.08,2.08,0,0,1,.016-1.339,11.746,11.746,0,0,1,.534-1.576,11.628,11.628,0,0,1,3.115-4.317c1.3-1.124,2.867-1.983,3.83-3.4.509-.748.828-1.61,1.363-2.333a12.936,12.936,0,0,1,1.624-1.625,15.169,15.169,0,0,0,4.286-7.177,5.939,5.939,0,0,1,5.3-4.6,10.146,10.146,0,0,1,3.407.471,11.991,11.991,0,0,1,5.512,2.842,14.519,14.519,0,0,0,1.545,1.578,8.092,8.092,0,0,0,4.055,1.115,1.779,1.779,0,0,1,1.018.335,1.849,1.849,0,0,1,.456.948q.884,3.584,1.783,7.169c.176.724.359,1.458.478,2.2a9.055,9.055,0,0,1,.12,2.071" transform="translate(166.741 113.644)" fill="#f8f8dc"/>
      <path id="Path_7853" data-name="Path 7853" d="M449.088,293.739a3.008,3.008,0,0,1-.629,1.841,3.87,3.87,0,0,1-1.124.8q-2.987,1.614-5.965,3.226a32.557,32.557,0,0,1-6.022,2.748,31.688,31.688,0,0,1-4.5.884,58.853,58.853,0,0,1-9.214.884,29.464,29.464,0,0,1-9.558-1.7,2.235,2.235,0,0,1-1.426-1.036,2.08,2.08,0,0,1,.016-1.339,11.74,11.74,0,0,1,.534-1.576c.246.087.478.183.709.263a20.98,20.98,0,0,0,5.208,1.243,73.438,73.438,0,0,0,12.8.517,24.459,24.459,0,0,0,12.066-3.9c2.334-1.625,4.445-3.856,6.986-4.931a9.056,9.056,0,0,1,.12,2.071" transform="translate(166.741 118.46)" fill="#65bda5"/>
      <path id="Path_7854" data-name="Path 7854" d="M401.014,100.828c-3.036,1.6-6.148,3.07-9.115,4.8-8.593,5-16.264,12.287-26.029,14.147a13.6,13.6,0,0,1-8.562-.731c-1.734-.861-3.244-2.284-5.154-2.6-4.895-.823-2.407,3.714-3.03,5.62-1,3.056-4.431,4.1-5.7,6.872-1.571,3.432,1.015,7.363,3.687,9.5a9.093,9.093,0,0,0,7.647,1.9c5.322-1.291,9.8-5.688,15.3-7.251,5.886-1.672,11.983-2.4,17.926-3.818,10.04-2.395,20.094-4.794,29.9-8.018,3.946-1.3,7.908-2.76,11.246-5.231a43.585,43.585,0,0,0,5.765-5.467l5.429-5.817a1.456,1.456,0,0,0-.166-2.547,148.916,148.916,0,0,0-12.491-9.846c-4.615-3.252-7.281-4.282-11.743-.915a110.446,110.446,0,0,1-14.911,9.41" transform="translate(139.286 36.285)" fill="#f29d7e"/>
      <path id="Path_7855" data-name="Path 7855" d="M378.393,65.661c-2.776-4.976-6.766-9.742-12.264-11.242-1.593-.436-3.76-.294-4.314,1.264-.43,1.211.45,2.5,1.467,3.288a12.274,12.274,0,0,1,2.964,2.423,1.161,1.161,0,0,1,.233.578A1.407,1.407,0,0,1,365.835,63c-1.884,1.62-3.852,3.345-4.673,5.691-1.514,4.325,1.353,8.846,4.074,12.533,1.24,1.683,2.582,3.444,4.518,4.228,1.588.643,3.406.55,4.978,1.232a9.5,9.5,0,0,1,3.655,3.354c2.918,4.017,4.995,8.582,7.728,12.727a70.067,70.067,0,0,0,14.173,15.06c8.929,7.382,19.441,13.8,31.02,14.233,10.664.4,20.78-4.3,30.415-8.885a6.145,6.145,0,0,0,2.327-1.59,5.687,5.687,0,0,0,.837-1.815c1.524-4.854,2.021-10.162.5-15.019s-5.273-9.162-10.176-10.515c-6.755-1.863-13.581,1.952-20.234,4.151a36.95,36.95,0,0,1-15.636,1.831c-7.205-.807-13.808-4.113-19.638-8.292-5.5-3.939-12.027-8.794-15.434-14.705-2.158-3.746-3.77-7.779-5.876-11.554" transform="translate(146.514 22.015)" fill="#ffbda9"/>
      <path id="Path_7856" data-name="Path 7856" d="M399.675,94.307a57.649,57.649,0,0,1,12.626,6.235,5.341,5.341,0,0,0,2.237,1.034,5.135,5.135,0,0,0,2.821-.806L434.2,92.14a6.336,6.336,0,0,1,3.1-.958,5.573,5.573,0,0,1,2.456.889,24.109,24.109,0,0,1,11.737,21.837,5.445,5.445,0,0,1-.716,2.729c-.806,1.205-2.323,1.673-3.721,2.057l-22.767,6.271c-2.382.657-4.861,1.319-7.3.893-2.407-.422-4.671-1.893-7.1-1.616a156.324,156.324,0,0,0-4.831,15.293,18.177,18.177,0,0,0-.766,4.677c.011,1.609.423,3.188.551,4.792.932,11.637-12.626,20.364-12.562,32.038,17.577,2.818,35.564,2.135,53.171,4.775,6.539.98,13.226,2.513,18.553,6.433-1.775-5.239-1.062-10.957-.307-16.436,2.1-15.258,4.4-30.572,9.126-45.231,2.608-8.088,5.947-15.953,7.99-24.2s2.732-17.1.021-25.15-9.327-15.141-17.686-16.667c-10.2-1.862-18.806,4.4-28.1,7.235-4.929,1.5-9.8,2.21-14.1,5.235-3.632,2.551-6.606,5.9-9.739,9.009-1.737,1.725-8.684,9.257-11.526,8.264" transform="translate(159.323 26.084)" fill="#e4f3f7"/>
      <path id="Path_7857" data-name="Path 7857" d="M425.845,80.291c-.62,1.7-1.45,3.337-1.952,5.08-.225.779-.217,1.881.564,2.106.51.149,1.015-.215,1.431-.548,8.7-7,19.464-10.8,30-14.486-2.784-1.458-3.872-4.819-4.7-7.851a38.487,38.487,0,0,1-1.609-8.068,30.321,30.321,0,0,0-.228-3.632,16.932,16.932,0,0,0-1.073-3.326,2.633,2.633,0,0,0-.785-1.228,2.159,2.159,0,0,0-1.228-.326c-2.1-.046-4.052,1.014-5.841,2.119a75.531,75.531,0,0,0-8.946,6.475c-3.02,2.541-6.039,5.729-5.134,9.888,1.019,4.68,1.168,9.221-.5,13.8" transform="translate(172.111 19.499)" fill="#f29d7e"/>
      <path id="Path_7858" data-name="Path 7858" d="M412.07,56.65c-.354,2.549-2.23,4.985-1.519,7.46l2.629.007,2.746,4.819c.845,1.483,2.673,3.169,3.943,2.028-1.2,2.15.343,5,2.552,6.08s4.8.9,7.254.69A4.2,4.2,0,0,0,432,77.064a4.534,4.534,0,0,0,1.183-2.016,28.763,28.763,0,0,1,17.685-16.722c.5-.163,1.077-.377,1.242-.879a1.649,1.649,0,0,0-.177-1.109l-2.5-6.06c-1-2.428-2.506-5.236-5.125-5.416.671-2.248-1.135-4.553-3.223-5.626s-4.5-1.381-6.61-2.4c-2.618-1.26-4.6-3.5-6.78-5.425-5.843-5.145-13.617-3.47-16.728,3.908-1.014,2.406-.816,5.324-.837,7.877-.035,4.48,2.545,9.129,1.943,13.454" transform="translate(166.57 11.55)" fill="#ffbda9"/>
      <path id="Path_7859" data-name="Path 7859" d="M404.153,35.979c.2,3.1,2.6,6.07,5.681,6.432,4.358.509,7.848-3.788,12.18-4.483a3,3,0,0,1,1.959.217,2.961,2.961,0,0,1,1.122,1.377c1.413,3.013.733,6.806,2.584,9.572.827,1.236,2.1,2.154,2.77,3.48s.664,2.888,1.341,4.2,2.646,2.164,3.579,1.024a15.168,15.168,0,0,1-.311-6.229,6.938,6.938,0,0,1,3.514-4.941A4.556,4.556,0,0,1,444.2,47.88c1.333,1.974.581,4.809,1.832,6.837.778,1.257,2.2,1.98,3.1,3.148.862,1.114,1.2,2.563,2.074,3.669a4.834,4.834,0,0,0,5.634,1.361,51.277,51.277,0,0,1-.21-8.059c.311-3.929,1.519-7.724,2.267-11.592s1.008-8-.508-11.639a13.015,13.015,0,0,0-13.145-7.7,4.576,4.576,0,0,0-2.35-3.7,11,11,0,0,0-4.363-1.281A39.247,39.247,0,0,0,417.267,22.3c-5.26,2.433-13.552,6.827-13.114,13.683" transform="translate(164.138 7.568)" fill="#1b4e61"/>
      <rect id="Rectangle_941" data-name="Rectangle 941" width="34.453" height="197.991" transform="translate(473.874 179.026)" fill="#ec7772"/>
      <path id="Path_7860" data-name="Path 7860" d="M371.455,133.193v-3.117a17.227,17.227,0,1,0-34.453,0v3.117Z" transform="translate(136.872 45.833)" fill="#b94a5b"/>
      <rect id="Rectangle_942" data-name="Rectangle 942" width="11.571" height="197.991" transform="translate(473.874 179.026)" fill="#dd5858"/>
      <rect id="Rectangle_943" data-name="Rectangle 943" width="11.308" height="197.991" transform="translate(485.445 179.026)" fill="#f98a8a"/>
      <path id="Path_7861" data-name="Path 7861" d="M371.455,268.121H337l18.011,28.943Z" transform="translate(136.872 108.896)" fill="#ce422c"/>
      <rect id="Rectangle_944" data-name="Rectangle 944" width="34.453" height="4.799" transform="translate(473.874 179.026)" fill="#fdd17a"/>
      <path id="Path_7862" data-name="Path 7862" d="M314.758,271.674a30.983,30.983,0,0,0,6.795-.236l7.479-.813a8.991,8.991,0,0,1,3.607.1,3.064,3.064,0,0,1,2.282,2.537c.087,1.623-1.5,2.783-2.94,3.546-5.94,3.16-12.734,5.222-19.381,4.2-3.011-.461-6.117-1.7-7.779-4.252-1.275-1.955-1.58-6.491,1.087-7.645,1.423-.617,2.592.515,3.83,1.108a15.69,15.69,0,0,0,5.02,1.454" transform="translate(123.416 109.226)" fill="#0f0f23"/>
      <path id="Path_7863" data-name="Path 7863" d="M325,275.233c4.382.1,8.832.19,13.066-.941a33.182,33.182,0,0,1,5.325-1.33,5.755,5.755,0,0,1,5.006,1.683,5.354,5.354,0,0,1,.38,5.571,13.857,13.857,0,0,1-3.8,4.446c-8.118,6.977-18.077,12.378-28.771,12.883-2.918.139-5.914-.077-8.691.825-3.178,1.034-6.2,3.52-9.451,2.767a10.177,10.177,0,0,1-3.122-1.537,2.973,2.973,0,0,1-1.477-1.6,3.153,3.153,0,0,1,.745-2.291c2.4-3.783,3.805-8.091,5.124-12.368a30.052,30.052,0,0,1,2.964-7.329,10.321,10.321,0,0,1,4.379-4.027c2.115-.908,3.233.537,5.183,1.336,4.137,1.689,8.732,1.811,13.136,1.911" transform="translate(119.172 110.348)" fill="#1c1c38"/>
      <path id="Path_7864" data-name="Path 7864" d="M302.613,265.184c2.94,1.647,5.906,3.258,8.985,4.633,8.974,4.009,18.973,6.046,26.9,11.859q-1.795,3.71-3.588,7.423c-.8,1.649-1.78,3.462-3.535,3.986-1.42.425-2.926-.135-4.3-.688q-14.528-5.819-29.057-11.644c-20.014-8.021-40.041-16.047-59.529-25.271-2.753-1.3-5.554-2.673-7.686-4.848s-3.5-5.343-2.752-8.295c1.08-4.242,5.764-6.308,9.885-7.784,2.212-.793,3.909-1.834,6.145-1.289,2.189.533,4.457,1.9,6.5,2.836,4.37,2.009,8.665,4.186,12.9,6.463,8.575,4.607,16.916,9.631,25.288,14.592,4.588,2.718,9.189,5.415,13.839,8.028" transform="translate(92.537 94.679)" fill="#165260"/>
      <path id="Path_7865" data-name="Path 7865" d="M354.359,311.711c-1.415,2.246-7.936-3.972-10.223-4.817-6.806-2.516-13.651-5.914-20.9-8.891q-21.879-8.987-43.758-17.973c-4.064-1.671-8.289-3.369-12.679-3.181-4.928.21-9.413,2.767-13.675,5.255q-19.578,11.434-39.158,22.867c-6.267,3.66-12.613,7.354-19.583,9.376A80.742,80.742,0,0,1,179.2,316.81c-4.972.457-10.106.816-14.846-.742-5.5-1.808-9.849-5.98-13.991-10.026-1-.98-2.07-2.088-2.18-3.484a5.76,5.76,0,0,1,.765-2.831A123.452,123.452,0,0,1,158.3,283.3a27.105,27.105,0,0,1,4.719-5.658,30.444,30.444,0,0,1,8.052-4.411c9.837-4.164,18.385-10.521,28.529-13.872,15.908-5.258,33.994-6.387,48.481-14.8,5.183-3.011,10.48-6.779,16.467-6.5,4.058.186,7.762,2.234,11.3,4.232L315.1,264.462c7.994,4.518,16.195,9.11,25.246,10.652,6.063,1.031,15.584,5.277,23.144,7.838,7.027,2.379-5.64,23.206-9.134,28.76" transform="translate(60.18 96.676)" fill="#1a5a6b"/>
      <path id="Path_7866" data-name="Path 7866" d="M184.8,245.259a8.122,8.122,0,0,0,1.079,4.017c1.147,1.661,3.314,2.261,5.324,2.452a42.584,42.584,0,0,0,10.687-.787c-.81,2.341-2.815,4.048-4.843,5.471a27.723,27.723,0,0,1-9.355,4.5c-2.672.636-5.779.6-7.813-1.249a10.217,10.217,0,0,1-2.277-3.641c-3.912-9.037-6.225-19.053-4.618-28.768.481-2.909,1.389-5.9,3.494-7.964,2.043-2.005,8.406-3.694,8.585.688.1,2.548-.46,5.253-.581,7.811q-.192,4.092-.135,8.187.065,4.649.453,9.282" transform="translate(70.046 88.225)" fill="#f39e81"/>
      <path id="Path_7867" data-name="Path 7867" d="M204.751,238.855a11.218,11.218,0,0,1,5.121-2.146c2.448-.243,4.967.775,7.346.141a21.719,21.719,0,0,1,2.4-.741,7.307,7.307,0,0,1,3.92.928,1.19,1.19,0,0,1,.681.543c.2.5-.322.982-.785,1.267a71.792,71.792,0,0,1-18.461,8.046c-2.008.555-4.608-.374-4.8-2.805-.176-2.225,3.008-4.158,4.576-5.232" transform="translate(81.297 95.878)" fill="#f39e81"/>
      <path id="Path_7868" data-name="Path 7868" d="M171.776,270.971a164.835,164.835,0,0,1-10.3,15.231c-1.759,2.224-3.66,4.4-4.763,7.018-.747,1.77-1.391,3.988-3.244,4.493a4.586,4.586,0,0,1-3.082-.561,19.427,19.427,0,0,1-6.322-4.787c-1.23-1.412-2.25-3-3.461-4.425-1.308-1.541-2.836-2.9-3.986-4.566a21.309,21.309,0,0,1-2.6-5.767,66.709,66.709,0,0,1-3-24.269,1.545,1.545,0,0,1,.394-1.133,1.489,1.489,0,0,1,.92-.245,25.353,25.353,0,0,1,4.864.433,73.871,73.871,0,0,1,20.049,6.368c3.761,1.821,7.36,3.957,10.954,6.09,1.329.789,3.179,1.506,4.3,2.555,1.37,1.28.264,1.966-.731,3.563" transform="translate(53.163 102.33)" fill="#fdd17a"/>
      <path id="Path_7869" data-name="Path 7869" d="M131,268.359c.675,5.407,1.776,11.371,6.114,14.668,3.577,2.717,8.416,2.869,12.908,2.908a85.512,85.512,0,0,0,14.253-.671,62.825,62.825,0,0,0,13.146-3.851c13.346-5.289,25.614-12.951,38.692-18.875,8.5-3.853,17.45-7.028,25.211-12.141a1.338,1.338,0,0,0-.614-2.44l-8.393-.855a18.086,18.086,0,0,0-11,1.656,84.83,84.83,0,0,0-8.675,3.7c-2.534,1.311-4.959,2.885-7.68,3.738a30.178,30.178,0,0,1-6.319,1.046q-15.549,1.411-31.176,1.669a11.608,11.608,0,0,1-4.692-.577c-3.5-1.46-4.726-5.782-4.971-9.569-.285-4.452.172-8.937-.29-13.377s-2.009-9.022-5.474-11.835a14.853,14.853,0,0,0-10.719-2.85c-4.38.406-9.342,1.451-12.281,5.021-2.821,3.425-1.16,4.577-1.208,9.459-.049,5.03.973,11.135,1.392,16.148q.713,8.528,1.773,17.023" transform="translate(51.739 89.608)" fill="#f5b7a0"/>
      <path id="Path_7870" data-name="Path 7870" d="M192.283,198.85a21.251,21.251,0,0,1,5.866,3.8c2.191,2.24,3.275,5.317,4.121,8.336a82.126,82.126,0,0,1,3.011,19.8l-6.262,1.1a1.915,1.915,0,0,0-1.183.506,1.891,1.891,0,0,0-.325,1.115,79.434,79.434,0,0,0,2.248,25.083c.783,3.079,1.758,6.156,1.794,9.333a2.956,2.956,0,0,1-.26,1.468c-.6,1.086-2.105,1.122-3.344,1.121-6.242-.008-12.16,2.554-18.25,3.916a48.179,48.179,0,0,1-19.578.294,6.327,6.327,0,0,1-3.1-1.246c-1.161-1.039-1.451-2.717-1.662-4.262q-1.869-13.687-2.627-27.5a1.844,1.844,0,0,0-2.105-2.15c-4.044-.359-8.163-.712-12.131.149s-7.836,3.134-9.614,6.785c-.349.716-1,1.637-1.706,1.274-.446-.228-.516-.823-.53-1.323l-.307-11.169a75.7,75.7,0,0,1,.145-9.686,38.335,38.335,0,0,1,11.284-23.4c2.614-2.545,5.587-4.708,8.113-7.337,2.087-2.173,4.036-4.77,6.924-5.626a13.54,13.54,0,0,1,6.291.156c6.245,1.157,12.481,2.846,18.757,3.768,5.332.785,9.57,3.262,14.428,5.693" transform="translate(51.279 76.727)" fill="#fdd17a"/>
      <path id="Path_7871" data-name="Path 7871" d="M176.751,156.174c.356.685.575,1.436.915,2.129a7.989,7.989,0,0,0,3.482,3.456,18.5,18.5,0,0,1,2.987,1.581,2.764,2.764,0,0,1,1.128,2.954c-.465,1.247-2.223,2.156-1.745,3.4a2.682,2.682,0,0,0,.785.925,6.96,6.96,0,0,1,2.216,5,4.079,4.079,0,0,0,.33,2.282,4.963,4.963,0,0,0,.851.831,4.332,4.332,0,0,1-.122,6.226,7.9,7.9,0,0,1-3.954,1.441c-5.611.9-11.405,1.132-16.7,3.195-1.426.554-2.929,1.254-4.424.927-3.049-.669-4.42-5.2-7.538-5.107a18.841,18.841,0,0,0-3.081.87,5.436,5.436,0,0,1-4.666-1.543,12.4,12.4,0,0,1-2.727-4.273,13.955,13.955,0,0,1-1.424-6.712,6.371,6.371,0,0,1,3.7-5.443,22.981,22.981,0,0,1,2.96-.654c4.083-.972,6.794-4.726,9.157-8.2,2.073-3.047,4.985-7.347,8.926-8.07,3.049-.561,7.564,2.111,8.944,4.781" transform="translate(58.09 61.457)" fill="#f5b7a0"/>
      <path id="Path_7872" data-name="Path 7872" d="M178.081,181.871a31.013,31.013,0,0,0-3.12,8.211,66.039,66.039,0,0,0-2.61,12.683,5.735,5.735,0,0,1-.873,3.31,3.7,3.7,0,0,1-4.068.787,14.787,14.787,0,0,1-3.705-2.375c-5.512-4.119-12.347-5.927-18.807-8.3-.541-.2-1.18-.537-1.176-1.114,3.027-.809,6.489-2,7.526-4.957a9.686,9.686,0,0,0,.24-3.965q-.384-4.936-.768-9.873a2.852,2.852,0,0,1,.115-1.35,2.63,2.63,0,0,1,2.129-1.233c4.439-.745,8.939.564,13.431.848,5.221.33,10.549-.72,15.653.429.562.127,2.579.547,2.613,1.332s-1.734,1.069-2.312,1.378a11.627,11.627,0,0,0-4.269,4.189" transform="translate(58.372 70.454)" fill="#f39e81"/>
      <path id="Path_7873" data-name="Path 7873" d="M174.213,144.82a6.938,6.938,0,0,1,7.753,4.308,12.519,12.519,0,0,1,.551,2.869,13.015,13.015,0,0,1-.1,4.611,4.849,4.849,0,0,1-2.819,3.449c-.953.345-2.083.307-2.859.962-.8.676-.931,1.836-1.264,2.833a6.382,6.382,0,0,1-5.134,4.218c-.7.09-1.512.105-1.95.66a2.947,2.947,0,0,0-.409,1.343,4.935,4.935,0,0,1-3.158,3.685c-.82.287-1.706.35-2.52.651a2.371,2.371,0,0,0-1.679,1.808c-.1,1.124.959,1.952,1.775,2.732s1.436,2.209.57,2.932c-.65.544-1.647.217-2.348-.257a4.391,4.391,0,0,0-2.243-1.1,2.628,2.628,0,0,0-2.167,1.7,5.69,5.69,0,0,0,.546,5.671,8.456,8.456,0,0,1,1.125,1.595c.6,1.415-.173,3.3.854,4.449.433.482,1.129.735,1.406,1.322.328.69-.073,1.534.149,2.265a4.146,4.146,0,0,0,1.057,1.389,4.342,4.342,0,0,1-.994,6.315,6.016,6.016,0,0,0-1.163.724,10.375,10.375,0,0,0-.793,1.074,6.068,6.068,0,0,1-5.633,2.216c-2.378,2.821-7.356,1.34-9.711-1.5a4.894,4.894,0,0,0-1.192-1.242,4.717,4.717,0,0,0-1.091-.373,6.967,6.967,0,0,1-4.508-8.551c-3.493-1.2-5.848-4.633-6.723-8.222a7.017,7.017,0,0,1,.041-4.218,2.711,2.711,0,0,0,.3-1,2.257,2.257,0,0,0-.588-1.237,15.121,15.121,0,0,1-2.939-8.9,7.563,7.563,0,0,1,.911-3.954,3.838,3.838,0,0,1,3.383-1.956c.17-2.426-.8-4.881-.288-7.256a6.171,6.171,0,0,1,7.86-4.275,6.351,6.351,0,0,1,7.7-8,3.392,3.392,0,0,1,2.367-3.112,9.257,9.257,0,0,1,4.142-.242,5.664,5.664,0,0,1,8.949-4.24c-.2-.142,3.081-1.315,3.472-1.329a21.5,21.5,0,0,1,3.611.367c2.968.43,4.427,2.279,5.757,4.813" transform="translate(51.318 56.712)" fill="#e8605c"/>
      <path id="Path_7874" data-name="Path 7874" d="M274.783,191.569l-29.7,4.422-28.058,58.757,31.726-8.946Z" transform="translate(88.143 77.805)" fill="#0b3a47"/>
      <path id="Path_7875" data-name="Path 7875" d="M262.676,230.139l.312,4.789-76.982,34.344-3.273-5.266,48-23.123.217-1.8Z" transform="translate(74.216 93.47)" fill="#547989"/>
    </g>
  </g>
</svg>
