<svg xmlns="http://www.w3.org/2000/svg" xmlns:xlink="http://www.w3.org/1999/xlink" width="668.571" height="537.141" viewBox="0 0 668.571 537.141">
  <defs>
    <linearGradient id="linear-gradient" x1="-22.755" y1="0.932" x2="-22.532" y2="-0.163" gradientUnits="objectBoundingBox">
      <stop offset="0" stop-color="#2b3582"/>
      <stop offset="1" stop-color="#150e42"/>
    </linearGradient>
    <linearGradient id="linear-gradient-2" x1="0.594" y1="0.338" x2="-0.806" y2="2.746" gradientUnits="objectBoundingBox">
      <stop offset="0" stop-color="#fdf53f"/>
      <stop offset="1" stop-color="#d93c65"/>
    </linearGradient>
    <linearGradient id="linear-gradient-3" x1="-19.918" y1="-1.654" x2="-20.808" y2="3.401" xlink:href="#linear-gradient"/>
    <linearGradient id="linear-gradient-4" x1="0.553" y1="0.093" x2="0.34" y2="1.258" gradientUnits="objectBoundingBox">
      <stop offset="0" stop-color="#53d8ff"/>
      <stop offset="0.206" stop-color="#4db9fd"/>
      <stop offset="1" stop-color="#3840f7"/>
    </linearGradient>
    <linearGradient id="linear-gradient-5" x1="2.521" y1="-2.88" x2="1.336" y2="-1.467" xlink:href="#linear-gradient-4"/>
    <linearGradient id="linear-gradient-6" x1="-392.842" y1="0.5" x2="-391.842" y2="0.5" gradientUnits="objectBoundingBox">
      <stop offset="0" stop-color="#53d8ff"/>
      <stop offset="1" stop-color="#3840f7"/>
    </linearGradient>
    <linearGradient id="linear-gradient-7" x1="-404.264" y1="0.5" x2="-403.264" y2="0.5" xlink:href="#linear-gradient"/>
    <linearGradient id="linear-gradient-8" x1="-1396.618" y1="0.5" x2="-1395.618" y2="0.5" gradientUnits="objectBoundingBox">
      <stop offset="0" stop-color="#f9b776"/>
      <stop offset="1" stop-color="#f47960"/>
    </linearGradient>
    <linearGradient id="linear-gradient-9" x1="-1037.203" y1="0.5" x2="-1036.203" y2="0.5" xlink:href="#linear-gradient-6"/>
    <linearGradient id="linear-gradient-10" x1="-706.275" y1="0.5" x2="-705.275" y2="0.5" xlink:href="#linear-gradient"/>
    <linearGradient id="linear-gradient-11" x1="-1179.058" y1="0.5" x2="-1178.058" y2="0.5" xlink:href="#linear-gradient-8"/>
    <linearGradient id="linear-gradient-12" x1="-147.476" y1="0.221" x2="-148.878" y2="1.513" gradientUnits="objectBoundingBox">
      <stop offset="0" stop-color="#18459f"/>
      <stop offset="0.114" stop-color="#2874b5"/>
    </linearGradient>
    <linearGradient id="linear-gradient-13" x1="-182.05" y1="-0.062" x2="-185.658" y2="2.028" gradientUnits="objectBoundingBox">
      <stop offset="0" stop-color="#ce1567"/>
      <stop offset="1" stop-color="#7a1dbc"/>
    </linearGradient>
    <linearGradient id="linear-gradient-14" x1="-873.961" y1="5.021" x2="-873.603" y2="4.213" xlink:href="#linear-gradient-6"/>
    <linearGradient id="linear-gradient-15" x1="-786.148" y1="0.1" x2="-788.537" y2="1.142" xlink:href="#linear-gradient-8"/>
    <linearGradient id="linear-gradient-16" x1="-404.233" y1="-0.503" x2="-412.158" y2="3.117" xlink:href="#linear-gradient-13"/>
    <linearGradient id="linear-gradient-17" x1="-536.674" y1="-0.121" x2="-547.286" y2="4.13" xlink:href="#linear-gradient-13"/>
    <linearGradient id="linear-gradient-18" x1="-411.883" y1="0.5" x2="-410.883" y2="0.5" xlink:href="#linear-gradient-8"/>
    <linearGradient id="linear-gradient-19" x1="-559.078" y1="-0.004" x2="-559.093" y2="1.888" xlink:href="#linear-gradient-8"/>
    <linearGradient id="linear-gradient-20" x1="-719.321" y1="10.604" x2="-720.841" y2="11.942" xlink:href="#linear-gradient-8"/>
    <linearGradient id="linear-gradient-21" x1="-405.654" y1="7.106" x2="-404.632" y2="7.106" xlink:href="#linear-gradient"/>
    <linearGradient id="linear-gradient-22" x1="-1950.597" y1="32.11" x2="-1947.306" y2="29.754" xlink:href="#linear-gradient-8"/>
    <linearGradient id="linear-gradient-23" x1="-1146.919" y1="0.5" x2="-1145.919" y2="0.5" xlink:href="#linear-gradient-8"/>
    <linearGradient id="linear-gradient-24" x1="-35.833" y1="-0.218" x2="-37.177" y2="1.835" xlink:href="#linear-gradient"/>
    <linearGradient id="linear-gradient-25" x1="-262.881" y1="1.815" x2="-261.572" y2="-0.054" xlink:href="#linear-gradient"/>
    <linearGradient id="linear-gradient-26" x1="-192.404" y1="-0.592" x2="-195.956" y2="3.735" xlink:href="#linear-gradient-2"/>
    <linearGradient id="linear-gradient-27" x1="-40.489" y1="-0.454" x2="-41.153" y2="1.454" gradientUnits="objectBoundingBox">
      <stop offset="0" stop-color="#a737d5"/>
      <stop offset="1" stop-color="#ef497a"/>
    </linearGradient>
    <linearGradient id="linear-gradient-28" x1="-40.455" y1="-0.454" x2="-41.118" y2="1.454" xlink:href="#linear-gradient-27"/>
    <linearGradient id="linear-gradient-29" x1="-555.664" y1="-1.222" x2="-557.357" y2="3.818" xlink:href="#linear-gradient-8"/>
  </defs>
  <g id="Group_10473" data-name="Group 10473" transform="translate(-13531.886 -11746.707)">
    <g id="Group_10450" data-name="Group 10450">
      <path id="Path_13957" data-name="Path 13957" d="M13577.89,12246.318a10.513,10.513,0,0,0,10.487,10.477h567.085a10.513,10.513,0,0,0,10.487-10.477l4.719-325.889c0-5.762-6.789-17.012-19.231-16.167l-554.218-14.34a26.428,26.428,0,0,0-27.117,27.028Z" fill="url(#linear-gradient)"/>
      <path id="Path_13958" data-name="Path 13958" d="M13588.243,12236.267a9.951,9.951,0,0,0,9.921,9.922h543.623a9.951,9.951,0,0,0,9.921-9.922l4.453-295.845c-.525-17.8-16.133-24.2-25.595-23.824l-531.168-14.25a18.571,18.571,0,0,0-19.055,19.006Z" fill="url(#linear-gradient-2)"/>
      <g id="Group_10449" data-name="Group 10449">
        <path id="Path_13959" data-name="Path 13959" d="M14145.834,12095.72h-.022a1.453,1.453,0,0,1-1.432-1.476l.353-23.992a1.452,1.452,0,0,1,1.451-1.433h.022a1.452,1.452,0,0,1,1.432,1.476l-.352,23.993A1.453,1.453,0,0,1,14145.834,12095.72Z" fill="#fff"/>
        <path id="Path_13960" data-name="Path 13960" d="M14146.7,12036.926h-.022a1.454,1.454,0,0,1-1.432-1.476l1.349-91.893c-.024-5.458-1.682-9.815-4.925-12.923-6.053-5.8-15.663-5.5-16.068-5.484l-169.772-4.553a1.453,1.453,0,0,1-1.415-1.491,1.392,1.392,0,0,1,1.493-1.414l169.672,4.553c1.056-.063,11.288-.24,18.1,6.29,3.833,3.673,5.792,8.732,5.821,15.038l-1.35,91.921A1.454,1.454,0,0,1,14146.7,12036.926Z" fill="#fff"/>
      </g>
      <rect id="Rectangle_2869" data-name="Rectangle 2869" width="668.571" height="28.634" rx="5.654" transform="translate(14200.457 12283.848) rotate(180)" fill="url(#linear-gradient-3)"/>
    </g>
    <g id="Group_10461" data-name="Group 10461">
      <path id="Path_13961" data-name="Path 13961" d="M13950.365,11748.767l-336.492-2.06a19.261,19.261,0,0,0-19.356,20.214l23.15,478.076h374.453l20.792-427.135Z" fill="url(#linear-gradient-4)"/>
      <path id="Path_13962" data-name="Path 13962" d="M13964.357,11815.814a19.262,19.262,0,0,1-18.524-20.767l3.607-45.65,63.537,68.185Z" fill="url(#linear-gradient-5)"/>
      <g id="Group_10459" data-name="Group 10459">
        <g id="Group_10451" data-name="Group 10451">
          <path id="Path_13963" data-name="Path 13963" d="M13772.053,11840.022c30.207-.048,146.169-.416,175.451-.512,3.694-.012,6.625,3.514,6.479,7.781h0c-.141,4.062-3.034,7.3-6.551,7.331l-175.371,1.494c-3.378.027-6.192-2.922-6.493-6.809l-.076-.981C13765.148,11843.884,13768.191,11840.028,13772.053,11840.022Z" fill="#fff" opacity="0.78"/>
        </g>
        <g id="Group_10452" data-name="Group 10452">
          <path id="Path_13964" data-name="Path 13964" d="M13770.676,11873.556c30.207-.047,146.169-.417,175.451-.511,3.694-.012,6.625,3.513,6.479,7.78h0c-.14,4.062-3.033,7.3-6.55,7.331l-175.371,1.494c-3.378.028-6.192-2.923-6.493-6.808l-.076-.982C13763.771,11877.417,13766.814,11873.562,13770.676,11873.556Z" fill="#fff" opacity="0.78"/>
        </g>
        <g id="Group_10453" data-name="Group 10453">
          <path id="Path_13965" data-name="Path 13965" d="M13665.925,11921.345c46.651.033,225.739-.029,270.962-.047,5.7,0,10.334,3.532,10.232,7.8h0c-.1,4.064-4.472,7.3-9.9,7.317l-270.811,1.031c-5.216.02-9.65-2.939-10.228-6.827l-.146-.983C13655.371,11925.19,13659.959,11921.341,13665.925,11921.345Z" fill="#fff" opacity="0.78"/>
        </g>
        <g id="Group_10454" data-name="Group 10454">
          <path id="Path_13966" data-name="Path 13966" d="M13663.769,11956.539c36.313-.157,175.717-.952,210.917-1.153a7.717,7.717,0,0,1,7.911,7.758h0a7.7,7.7,0,0,1-7.758,7.356l-210.806,2.136a7.774,7.774,0,0,1-7.914-6.785l-.107-.981A7.651,7.651,0,0,1,13663.769,11956.539Z" fill="#fff" opacity="0.78"/>
        </g>
        <g id="Group_10455" data-name="Group 10455">
          <path id="Path_13967" data-name="Path 13967" d="M13665.466,12002.62c46.651.032,225.739-.031,270.962-.048,5.7,0,10.335,3.531,10.232,7.8h0c-.1,4.063-4.472,7.3-9.9,7.317l-270.811,1.03c-5.217.021-9.65-2.938-10.229-6.827l-.146-.982C13654.913,12006.464,13659.5,12002.615,13665.466,12002.62Z" fill="#fff" opacity="0.78"/>
        </g>
        <g id="Group_10456" data-name="Group 10456">
          <path id="Path_13968" data-name="Path 13968" d="M13661.407,12038.4c36.484.066,176.547.132,211.915.147a7.737,7.737,0,0,1,7.9,7.807h0a7.718,7.718,0,0,1-7.838,7.309l-211.809.835a7.8,7.8,0,0,1-7.911-6.833l-.1-.984A7.662,7.662,0,0,1,13661.407,12038.4Z" fill="#fff" opacity="0.78"/>
        </g>
        <g id="Group_10457" data-name="Group 10457">
          <path id="Path_13969" data-name="Path 13969" d="M13663.166,12085.552c46.651.033,225.739-.03,270.962-.048,5.7,0,10.334,3.532,10.232,7.8h0c-.1,4.063-4.473,7.3-9.9,7.316l-270.811,1.031c-5.218.02-9.65-2.939-10.229-6.827l-.146-.983C13652.613,12089.4,13657.2,12085.548,13663.166,12085.552Z" fill="#fff" opacity="0.78"/>
        </g>
        <g id="Group_10458" data-name="Group 10458">
          <path id="Path_13970" data-name="Path 13970" d="M13660.348,12120.908c36.485.066,176.547.133,211.915.147a7.739,7.739,0,0,1,7.9,7.808h0a7.716,7.716,0,0,1-7.837,7.308l-211.81.835a7.8,7.8,0,0,1-7.911-6.833l-.1-.982A7.663,7.663,0,0,1,13660.348,12120.908Z" fill="#fff" opacity="0.78"/>
        </g>
        <path id="Path_13971" data-name="Path 13971" d="M13665.925,12167.521c46.651.032,225.739-.031,270.962-.049,5.7,0,10.334,3.532,10.232,7.8h0c-.1,4.063-4.472,7.3-9.9,7.315l-270.811,1.031c-5.216.02-9.65-2.939-10.228-6.827l-.146-.983C13655.371,12171.366,13659.959,12167.517,13665.925,12167.521Z" fill="#fff" opacity="0.78"/>
        <path id="Path_13972" data-name="Path 13972" d="M13663.285,12206.707c36.023,0,174.316-.18,209.238-.227a7.683,7.683,0,0,1,7.811,7.793h0a7.668,7.668,0,0,1-7.732,7.32l-209.133,1.211a7.728,7.728,0,0,1-7.817-6.818l-.1-.984A7.628,7.628,0,0,1,13663.285,12206.707Z" fill="#fff" opacity="0.78"/>
      </g>
      <g id="Group_10460" data-name="Group 10460" opacity="0.78">
        <path id="Path_13973" data-name="Path 13973" d="M13699.485,11818.734l-18.962,69.8-5.13-.086-33.455-85.641q-2.3-6.063-4.675-7.243t-13-1.563v-1.315l52.034,1.881v1.3q-9.221-.33-12.791.486t-3.568,3.581a9.06,9.06,0,0,0,.911,3.524l23.737,61.455,13.7-49.823-3.186-10.416q-1.816-5.873-4.389-7.128t-13.207-1.637v-1.3l51.154,1.85v1.288q-8.988-.322-12.468.487t-3.479,3.834a9.107,9.107,0,0,0,.594,3.186l19.1,60.841,16.189-44.067a35.469,35.469,0,0,0,2.47-11.345q0-12.132-17.627-12.765v-1.287l37.737,1.365v1.276q-10.321-.371-15.287,9.854-.731,1.544-5.409,13.8l-24.129,66.374-4.885-.082Z" fill="#fff"/>
      </g>
    </g>
    <g id="Group_10472" data-name="Group 10472">
      <g id="Group_10467" data-name="Group 10467">
        <g id="Group_10462" data-name="Group 10462">
          <path id="Path_13974" data-name="Path 13974" d="M14009,12240c6.672.577,18.252,1.514,27.381,1.915,5.487.242,8.646-.3,10.466-1.024,0,.205-.009.4-.017.579a1.888,1.888,0,0,1-1.794,1.783,320.8,320.8,0,0,1-35.853.036,1.345,1.345,0,0,1-1.095-2.021A10.994,10.994,0,0,1,14009,12240Z" fill="url(#linear-gradient-6)"/>
          <path id="Path_13975" data-name="Path 13975" d="M14036.379,12241.915c-9.129-.4-20.709-1.338-27.381-1.915,6.56-8.048,27.381-13.472,27.381-13.472h5.88a24.666,24.666,0,0,1,4.586,14.362C14045.025,12241.619,14041.866,12242.157,14036.379,12241.915Z" fill="url(#linear-gradient-7)"/>
          <path id="Path_13976" data-name="Path 13976" d="M14043.249,12216.928l-.55,10.89a2.488,2.488,0,0,1-2.123,2.339,9.688,9.688,0,0,1-4.418-.366,2.946,2.946,0,0,1-1.979-2.262l-1.9-10.6Z" fill="url(#linear-gradient-8)"/>
        </g>
        <g id="Group_10464" data-name="Group 10464">
          <g id="Group_10463" data-name="Group 10463">
            <path id="Path_13977" data-name="Path 13977" d="M14119.628,12241.834c2.894-.4,4.2-1.907,4.751-3.514l.011.043a3.76,3.76,0,0,1-2.533,4.288,16.564,16.564,0,0,1-7.017,1.1,6.974,6.974,0,0,1-5.261-2.426l-.016-.022C14111.743,12242.38,14114.8,12242.507,14119.628,12241.834Z" fill="url(#linear-gradient-9)"/>
            <path id="Path_13978" data-name="Path 13978" d="M14105.986,12216.858h4.85c7.386-.151,12.025,15.429,13.543,21.462-.549,1.606-1.857,3.109-4.751,3.514-4.825.673-7.885.546-10.064-.533-3.991-5.251-5.97-12.942-6.921-17.431A6.119,6.119,0,0,1,14105.986,12216.858Z" fill="url(#linear-gradient-10)"/>
          </g>
          <path id="Path_13979" data-name="Path 13979" d="M14110.212,12206.751l2.693,10.71a2.905,2.905,0,0,1-1.513,3.294,10.325,10.325,0,0,1-5.576,1.352,2.433,2.433,0,0,1-1.981-1.62l-3.953-11.269Z" fill="url(#linear-gradient-11)"/>
        </g>
        <path id="Path_13980" data-name="Path 13980" d="M14113.424,12209.846c-3.35,2.973-14.247,3.364-14.247,3.364-39.254-94.213-55.312-107.6-55.312-107.6,5.668,35.56.914,114.286.914,114.286-6.479,2.858-14.829,0-14.829,0a606.876,606.876,0,0,0-20.045-149.016c26.53-.6,40.64-9.675,45.247-13.317C14077.267,12093.22,14113.424,12209.846,14113.424,12209.846Z" fill="url(#linear-gradient-12)"/>
        <path id="Path_13981" data-name="Path 13981" d="M14048.414,11949.22c5.021,25.048,3.222,69.88,2.039,90.33-.332,5.747,3.681,13.715,6.924,19.151a1.7,1.7,0,0,1-.688,2.4c-5.43,2.791-23.824,11.439-45.143,12.516a3.039,3.039,0,0,1-3.059-2.271c-15.814-59.046-34.182-96.776-34.182-96.776C13994.584,11942.183,14048.414,11949.22,14048.414,11949.22Z" fill="url(#linear-gradient-13)"/>
        <path id="Path_13982" data-name="Path 13982" d="M14041.187,12103.382a1.257,1.257,0,0,0,1.073-1.91,39.438,39.438,0,0,0-15.564-13.512,1.257,1.257,0,1,0-1.093,2.264,37.6,37.6,0,0,1,14.51,12.556A1.257,1.257,0,0,0,14041.187,12103.382Z" fill="url(#linear-gradient-14)"/>
        <g id="Group_10465" data-name="Group 10465">
          <path id="Path_13983" data-name="Path 13983" d="M14079.912,12021.109c-1.613,11.668-6.379,24.4-15.912,37.916l-3.624-2.955a111.937,111.937,0,0,0,1.8-36.237C14068.062,12018.685,14075.008,12019.868,14079.912,12021.109Z" fill="url(#linear-gradient-15)"/>
          <path id="Path_13984" data-name="Path 13984" d="M14042.8,11980.126l5.609-30.906s37.476,28.646,31.5,71.89c-4.9-1.241-11.851-2.425-17.731-1.276C14060.468,12005.956,14055.35,11990.891,14042.8,11980.126Z" fill="url(#linear-gradient-16)"/>
        </g>
        <g id="Group_10466" data-name="Group 10466">
          <path id="Path_13985" data-name="Path 13985" d="M13974.306,11974.566l14.466,31.153c-2.34,18.81-12.443,26.941-23.338,30.062a66.107,66.107,0,0,0-4.857-20.288C13974.5,12001.121,13974.306,11974.566,13974.306,11974.566Z" fill="url(#linear-gradient-17)"/>
          <path id="Path_13986" data-name="Path 13986" d="M13960.576,12015.493a66.107,66.107,0,0,1,4.857,20.288c-29.065,11.276-36.756-10.595-36.756-10.595l5.372-.947C13946.18,12025.517,13954.654,12021.607,13960.576,12015.493Z" fill="url(#linear-gradient-18)"/>
        </g>
        <path id="Path_13987" data-name="Path 13987" d="M13987.633,11936.1l6.984,25.674a4.993,4.993,0,0,0,6.679,3.322,101.232,101.232,0,0,0,10.066-4.6,6.73,6.73,0,0,0,2.373-9.672l-14.52-21.649Z" fill="url(#linear-gradient-19)"/>
      </g>
      <g id="Group_10468" data-name="Group 10468">
        <path id="Path_13988" data-name="Path 13988" d="M13972.355,11916.6c-.064.441,5.824,29.3,5.824,29.3l16.4-3.714-1.518-28.178S13973.42,11909.219,13972.355,11916.6Z" fill="url(#linear-gradient-20)"/>
        <path id="Path_13989" data-name="Path 13989" d="M13989.377,11920.284l1.96,14.771a2.038,2.038,0,0,1,0,.566c-.165,1.158-1.027,5.1-5.006,3.972-3.61-1.021-6.921-1.9-9.207-1.2a2.078,2.078,0,0,0-1.431,2.406,89.827,89.827,0,0,0,3.774,13.446,2.077,2.077,0,0,0,2.521,1.227,67.105,67.105,0,0,0,14.46-5.917,2.083,2.083,0,0,0,1.015-1.873c-.158-3.729-.594-15.063-.227-18.24.345-2.983,4-4.77,5.595-5.41a2.047,2.047,0,0,0,1.139-1.144c.736-1.845,1.751-6.116-3.63-7.866a2.083,2.083,0,0,1-1.32-2.694c.8-2.219,1.134-5.605-3.029-7.472-4.231-1.9-7.393.359-9.1,2.193a2.082,2.082,0,0,1-2.652.313,1.646,1.646,0,0,0-1.874.063,2.051,2.051,0,0,1-2.9-.88,6.217,6.217,0,0,0-7.222-3.6c-7.352,1.259-8.184,9.4-6.244,14.179s9.831,2.955,13.791.549c3.01-1.83,6.915.088,8.614,1.112A2.065,2.065,0,0,1,13989.377,11920.284Z" fill="url(#linear-gradient-21)"/>
        <path id="Path_13990" data-name="Path 13990" d="M13997.895,11934.823s-3.021-8.463.083-10.535,7.7-1,6.691,5.134C14003.41,11937.047,13997.895,11934.823,13997.895,11934.823Z" fill="url(#linear-gradient-22)"/>
      </g>
      <path id="Path_13991" data-name="Path 13991" d="M13930.832,12029.189c-1.463,1.143-6.475-1.244-9.542-2.894a3.529,3.529,0,0,1-1.706-4.17c.738-2.328,1.968-5.332,3.484-5.711C13925.582,12015.786,13936.861,12024.479,13930.832,12029.189Z" fill="url(#linear-gradient-23)"/>
      <g id="Group_10471" data-name="Group 10471">
        <g id="Group_10470" data-name="Group 10470">
          <path id="Path_13992" data-name="Path 13992" d="M14177.632,12099.881l-382.756-136.129-20.25,56.251,382.624,139.931a17.843,17.843,0,0,0,21.551-7.8c4.473-7.681,8.747-19.683,9-37.658A15.283,15.283,0,0,0,14177.632,12099.881Z" fill="url(#linear-gradient-24)"/>
          <g id="Group_10469" data-name="Group 10469">
            <path id="Path_13993" data-name="Path 13993" d="M13676.463,11949.214l52.872,6.491c-.056,7.277-2.438,16.691-10.5,27.492l-44.154-29.127A2.658,2.658,0,0,1,13676.463,11949.214Z" fill="url(#linear-gradient-25)"/>
            <path id="Path_13994" data-name="Path 13994" d="M13794.876,11963.752c2.422,35.253-20.25,56.251-20.25,56.251l-55.8-36.806c8.066-10.8,10.449-20.215,10.5-27.492Z" fill="url(#linear-gradient-26)"/>
          </g>
        </g>
        <path id="Path_13995" data-name="Path 13995" d="M14172.884,12117.13a1.124,1.124,0,0,0,.375-2.185l-366.194-129.416a1.124,1.124,0,1,0-.75,2.12l366.2,129.416A1.117,1.117,0,0,0,14172.884,12117.13Z" fill="url(#linear-gradient-27)"/>
        <path id="Path_13996" data-name="Path 13996" d="M14166.567,12139.2a1.126,1.126,0,0,0,.375-2.187l-366.2-129.417a1.125,1.125,0,1,0-.749,2.121l366.2,129.417A1.124,1.124,0,0,0,14166.567,12139.2Z" fill="url(#linear-gradient-28)"/>
      </g>
      <path id="Path_13997" data-name="Path 13997" d="M14061.87,12055.556l-16.917-1.379-7.326,6.754s1.733,2.4,7.152,1.02a77.5,77.5,0,0,1,12.842-1.715s7.479,3.372,7.571-2.938Z" fill="url(#linear-gradient-29)"/>
    </g>
  </g>
</svg>
