<svg xmlns="http://www.w3.org/2000/svg" width="897.234" height="744.525" viewBox="0 0 897.234 744.525">
  <g id="Group_7532" data-name="Group 7532" transform="translate(-6778.687 -7837.943)">
    <ellipse id="Ellipse_50" data-name="Ellipse 50" cx="97.918" cy="7.778" rx="97.918" ry="7.778" transform="translate(6837.947 8537.869)" fill="#94abf7"/>
    <g id="Group_7455" data-name="Group 7455" transform="translate(6778.687 7837.943)" opacity="0.2">
      <path id="Path_8109" data-name="Path 8109" d="M8111.008,8968.574l-2.321-.475.474-2.32a1.413,1.413,0,0,0-2.77-.564l-.473,2.32-2.321-.475a1.414,1.414,0,0,0-.564,2.771l2.321.473-.474,2.32a1.412,1.412,0,0,0,1.1,1.668h0a1.414,1.414,0,0,0,1.668-1.1l.473-2.32,2.319.475a1.413,1.413,0,0,0,.566-2.77Z" transform="translate(-7368.323 -8339.761)" fill="#fff"/>
      <path id="Path_8110" data-name="Path 8110" d="M8381.756,9043.891a1.911,1.911,0,0,0-2.1-1.7l-4.926.51-.51-4.926a1.909,1.909,0,0,0-2.1-1.7l-1.3.135a1.911,1.911,0,0,0-1.7,2.1l.51,4.926-4.926.51a1.909,1.909,0,0,0-1.7,2.1l.135,1.3a1.907,1.907,0,0,0,2.1,1.7l4.926-.508.51,4.926a1.911,1.911,0,0,0,2.1,1.7l1.3-.135a1.909,1.909,0,0,0,1.7-2.1l-.508-4.926,4.926-.51a1.909,1.909,0,0,0,1.7-2.094Z" transform="translate(-7484.667 -8371.833)" fill="#fff"/>
      <g id="Group_7453" data-name="Group 7453" transform="translate(0 0)">
        <g id="Group_7447" data-name="Group 7447" transform="translate(5.181 62.42)">
          <g id="Group_7423" data-name="Group 7423" transform="translate(5.717 69.628)">
            <g id="Group_7422" data-name="Group 7422">
              <path id="Path_8111" data-name="Path 8111" d="M6987.1,8394.268h-59.38L6920,8361.895a131.28,131.28,0,0,1-25.715-10.668l-28.358,17.441-41.992-41.98,17.441-28.369a131.646,131.646,0,0,1-10.667-25.709l-32.367-7.727v-59.371l32.367-7.725a131.4,131.4,0,0,1,10.667-25.71l-17.441-28.362,41.992-41.992,28.358,17.445A131.477,131.477,0,0,1,6920,8108.5l7.716-32.367h59.38l7.726,32.367a131.393,131.393,0,0,1,25.709,10.672l28.357-17.445,41.992,41.992-17.44,28.362a131.236,131.236,0,0,1,10.667,25.71l32.367,7.725v59.371l-32.367,7.727a131.359,131.359,0,0,1-10.667,25.709l17.44,28.369-41.992,41.98-28.357-17.441a131.382,131.382,0,0,1-25.709,10.668Zm-51.232-10.312h43.1l7.241-30.381,2.966-.8a121.164,121.164,0,0,0,28.913-11.99l2.659-1.537,26.621,16.369,30.469-30.469-16.362-26.621,1.53-2.66a121.275,121.275,0,0,0,11.992-28.912l.8-2.967,30.374-7.242V8213.65l-30.374-7.242-.8-2.967A121.106,121.106,0,0,0,7063,8174.53l-1.536-2.66,16.368-26.625-30.469-30.47-26.621,16.373-2.659-1.536a121.169,121.169,0,0,0-28.913-12l-2.966-.8-7.241-30.374h-43.1l-7.242,30.374-2.966.8a121.2,121.2,0,0,0-28.917,12l-2.66,1.536-26.621-16.373-30.469,30.47,16.363,26.625-1.531,2.66a121.175,121.175,0,0,0-11.991,28.912l-.8,2.967-30.372,7.242v43.094l30.372,7.242.8,2.967a121.246,121.246,0,0,0,11.995,28.912l1.527,2.66-16.363,26.621,30.469,30.469,26.621-16.369,2.66,1.537a121.027,121.027,0,0,0,28.917,11.99l2.966.8Zm21.545-45.881A102.879,102.879,0,1,1,7060.289,8235.2,103,103,0,0,1,6957.412,8338.074Zm0-195.444a92.565,92.565,0,1,0,92.564,92.565A92.668,92.668,0,0,0,6957.412,8142.63Z" transform="translate(-6798.344 -8076.128)" fill="#fff"/>
            </g>
          </g>
          <g id="Group_7446" data-name="Group 7446">
            <g id="Group_7425" data-name="Group 7425" transform="translate(357.209 28.631)">
              <g id="Group_7424" data-name="Group 7424">
                <path id="Path_8112" data-name="Path 8112" d="M7568.056,8230.891h-42.688l-5.547-23.271a94.449,94.449,0,0,1-18.486-7.669l-20.388,12.538-30.187-30.181,12.538-20.395a94.607,94.607,0,0,1-7.669-18.483l-23.27-5.553v-42.683l23.27-5.555a94.532,94.532,0,0,1,7.669-18.483l-12.538-20.39,30.188-30.188,20.388,12.542a94.522,94.522,0,0,1,18.486-7.673l5.547-23.268h42.688l5.555,23.268a94.5,94.5,0,0,1,18.483,7.673l20.386-12.542,30.188,30.188-12.538,20.39a94.438,94.438,0,0,1,7.67,18.483l23.269,5.555v42.683l-23.269,5.553a94.512,94.512,0,0,1-7.67,18.483l12.538,20.395-30.188,30.181-20.386-12.538a94.548,94.548,0,0,1-18.483,7.669Zm-36.831-7.414h30.981l5.206-21.839,2.132-.576a87.088,87.088,0,0,0,20.786-8.62l1.911-1.1,19.139,11.767,21.9-21.9-11.764-19.138,1.1-1.912a87.108,87.108,0,0,0,8.621-20.785l.575-2.133,21.836-5.206v-30.98l-21.836-5.207-.575-2.132a86.992,86.992,0,0,0-8.621-20.785l-1.1-1.912,11.768-19.142-21.9-21.905-19.139,11.771-1.911-1.1a87.069,87.069,0,0,0-20.786-8.624l-2.132-.576-5.206-21.836h-30.981l-5.207,21.836-2.132.576a87.123,87.123,0,0,0-20.789,8.624l-1.912,1.1-19.138-11.771-21.9,21.905,11.763,19.142-1.1,1.912a87.114,87.114,0,0,0-8.62,20.785l-.577,2.132-21.834,5.207v30.98l21.834,5.206.577,2.133a87.185,87.185,0,0,0,8.623,20.785l1.1,1.912-11.763,19.138,21.9,21.9,19.138-11.767,1.912,1.1a87.039,87.039,0,0,0,20.789,8.62l2.132.576Zm15.489-32.983a73.96,73.96,0,1,1,73.959-73.96A74.043,74.043,0,0,1,7546.714,8190.493Zm0-140.506a66.546,66.546,0,1,0,66.546,66.546A66.62,66.62,0,0,0,7546.714,8049.987Z" transform="translate(-7432.358 -8002.18)" fill="#fff"/>
              </g>
            </g>
            <g id="Group_7427" data-name="Group 7427" transform="translate(493.444 267.586)">
              <g id="Group_7426" data-name="Group 7426">
                <path id="Path_8113" data-name="Path 8113" d="M7757.063,8566.295h-24.842l-3.228-13.544a55,55,0,0,1-10.758-4.463l-11.863,7.3-17.567-17.563,7.3-11.868a55.122,55.122,0,0,1-4.463-10.757l-13.54-3.231v-24.838l13.54-3.231a55.039,55.039,0,0,1,4.463-10.756l-7.3-11.865,17.567-17.567,11.863,7.3a55.088,55.088,0,0,1,10.758-4.465l3.228-13.54h24.842l3.233,13.54a55.038,55.038,0,0,1,10.755,4.465l11.863-7.3,17.567,17.567-7.3,11.865a54.9,54.9,0,0,1,4.463,10.756l13.541,3.231v24.838l-13.541,3.231a54.884,54.884,0,0,1-4.463,10.757l7.3,11.868-17.567,17.563-11.863-7.3a55.076,55.076,0,0,1-10.755,4.463Zm-21.433-4.315h18.028l3.03-12.709,1.24-.335a50.75,50.75,0,0,0,12.1-5.017l1.112-.643,11.137,6.847,12.746-12.745-6.845-11.138.641-1.113a50.726,50.726,0,0,0,5.017-12.095l.335-1.241,12.707-3.029v-18.028l-12.707-3.03-.335-1.241a50.71,50.71,0,0,0-5.017-12.095l-.643-1.112,6.847-11.14-12.746-12.746-11.137,6.849-1.112-.643a50.7,50.7,0,0,0-12.1-5.018l-1.24-.334-3.03-12.708H7735.63l-3.029,12.708-1.241.334a50.716,50.716,0,0,0-12.1,5.018l-1.113.643-11.137-6.849-12.746,12.746,6.846,11.14-.641,1.112a50.725,50.725,0,0,0-5.017,12.095l-.335,1.241-12.707,3.03v18.028l12.707,3.029.335,1.241a50.755,50.755,0,0,0,5.018,12.095l.64,1.113-6.846,11.138,12.746,12.745,11.137-6.847,1.113.643a50.7,50.7,0,0,0,12.1,5.017l1.241.335Zm9.014-19.193a43.04,43.04,0,1,1,43.038-43.04A43.088,43.088,0,0,1,7744.644,8542.786Zm0-81.764a38.725,38.725,0,1,0,38.724,38.724A38.768,38.768,0,0,0,7744.644,8461.022Z" transform="translate(-7678.098 -8433.201)" fill="#fff"/>
              </g>
            </g>
            <g id="Group_7445" data-name="Group 7445">
              <g id="Group_7428" data-name="Group 7428" transform="translate(315.499 155.875)">
                <path id="Path_8114" data-name="Path 8114" d="M7366.176,8243.1h0a1.551,1.551,0,0,0,1.538-1.562l-.066-8.3a1.553,1.553,0,0,0-1.564-1.537h0a1.55,1.55,0,0,0-1.537,1.564l.067,8.3A1.551,1.551,0,0,0,7366.176,8243.1Z" transform="translate(-7360.431 -8231.699)" fill="#fff"/>
                <path id="Path_8115" data-name="Path 8115" d="M7368.522,8240.66h0a1.551,1.551,0,0,0-1.563-1.537l-8.3.067a1.55,1.55,0,0,0-1.538,1.564h0a1.551,1.551,0,0,0,1.563,1.537l8.3-.067A1.552,1.552,0,0,0,7368.522,8240.66Z" transform="translate(-7357.123 -8235.009)" fill="#fff"/>
              </g>
              <g id="Group_7429" data-name="Group 7429" transform="translate(212.986 1.404)">
                <path id="Path_8116" data-name="Path 8116" d="M7181.266,7964.466h0a1.549,1.549,0,0,0,1.538-1.562l-.067-8.3a1.552,1.552,0,0,0-1.563-1.539h0a1.553,1.553,0,0,0-1.539,1.564l.069,8.3A1.548,1.548,0,0,0,7181.266,7964.466Z" transform="translate(-7175.519 -7953.067)" fill="#fff"/>
                <path id="Path_8117" data-name="Path 8117" d="M7183.612,7962.029h0a1.551,1.551,0,0,0-1.563-1.538l-8.3.067a1.55,1.55,0,0,0-1.538,1.563h0a1.551,1.551,0,0,0,1.563,1.538l8.3-.067A1.552,1.552,0,0,0,7183.612,7962.029Z" transform="translate(-7172.213 -7956.375)" fill="#fff"/>
              </g>
              <g id="Group_7430" data-name="Group 7430" transform="translate(399.756)">
                <path id="Path_8118" data-name="Path 8118" d="M7518.157,7961.935h0a1.551,1.551,0,0,0,1.539-1.563l-.068-8.3a1.55,1.55,0,0,0-1.564-1.538h0a1.55,1.55,0,0,0-1.537,1.563l.068,8.3A1.551,1.551,0,0,0,7518.157,7961.935Z" transform="translate(-7512.411 -7950.535)" fill="#fff"/>
                <path id="Path_8119" data-name="Path 8119" d="M7520.5,7959.5h0a1.548,1.548,0,0,0-1.563-1.537l-8.3.066a1.551,1.551,0,0,0-1.537,1.563h0a1.549,1.549,0,0,0,1.563,1.538l8.3-.067A1.55,1.55,0,0,0,7520.5,7959.5Z" transform="translate(-7509.104 -7953.843)" fill="#fff"/>
              </g>
              <g id="Group_7431" data-name="Group 7431" transform="translate(93.572 46.418)">
                <path id="Rectangle_862" data-name="Rectangle 862" d="M.874,0H3.263a.876.876,0,0,1,.876.876V14.337a.875.875,0,0,1-.875.875H.875A.875.875,0,0,1,0,14.336V.874A.874.874,0,0,1,.874,0Z" transform="translate(11.417 14.903) rotate(168.438)" fill="#fff"/>
                <rect id="Rectangle_863" data-name="Rectangle 863" width="4.139" height="15.211" rx="0.875" transform="translate(14.903 4.315) rotate(78.446)" fill="#fff"/>
              </g>
              <g id="Group_7432" data-name="Group 7432" transform="translate(18.55 6.903)">
                <path id="Path_8120" data-name="Path 8120" d="M6821.492,7971.316a8.329,8.329,0,1,1,8.329,8.331A8.339,8.339,0,0,1,6821.492,7971.316Zm3.91,0a4.418,4.418,0,1,0,4.419-4.419A4.424,4.424,0,0,0,6825.4,7971.316Z" transform="translate(-6821.492 -7962.986)" fill="#fff"/>
              </g>
              <g id="Group_7433" data-name="Group 7433" transform="translate(0 146.916)">
                <path id="Path_8121" data-name="Path 8121" d="M6788.032,8221.256a5.717,5.717,0,1,1,5.717,5.718A5.724,5.724,0,0,1,6788.032,8221.256Zm2.684,0a3.032,3.032,0,1,0,3.033-3.033A3.036,3.036,0,0,0,6790.716,8221.256Z" transform="translate(-6788.032 -8215.539)" fill="#fff"/>
              </g>
              <g id="Group_7434" data-name="Group 7434" transform="translate(588.461 75.801)">
                <path id="Path_8122" data-name="Path 8122" d="M7855.938,8097.472h0a1.413,1.413,0,0,1-1.1-1.667l1.511-7.409a1.414,1.414,0,0,1,1.667-1.1h0a1.413,1.413,0,0,1,1.1,1.668l-1.512,7.41A1.412,1.412,0,0,1,7855.938,8097.472Z" transform="translate(-7851.858 -8087.263)" fill="#fff"/>
                <path id="Path_8123" data-name="Path 8123" d="M7849.515,8093.714h0a1.411,1.411,0,0,1,1.667-1.1l7.41,1.511a1.414,1.414,0,0,1,1.1,1.668h0a1.415,1.415,0,0,1-1.668,1.1l-7.409-1.513A1.413,1.413,0,0,1,7849.515,8093.714Z" transform="translate(-7849.486 -8089.634)" fill="#fff"/>
              </g>
              <g id="Group_7435" data-name="Group 7435" transform="translate(555.246 397.977)">
                <path id="Path_8124" data-name="Path 8124" d="M7796.025,8678.607h0a1.413,1.413,0,0,1-1.1-1.668l1.512-7.409a1.413,1.413,0,0,1,1.667-1.1h0a1.413,1.413,0,0,1,1.1,1.667l-1.511,7.41A1.413,1.413,0,0,1,7796.025,8678.607Z" transform="translate(-7791.944 -8668.398)" fill="#fff"/>
                <path id="Path_8125" data-name="Path 8125" d="M7789.6,8674.85h0a1.415,1.415,0,0,1,1.667-1.1l7.41,1.513a1.414,1.414,0,0,1,1.1,1.667h0a1.416,1.416,0,0,1-1.668,1.1l-7.41-1.513A1.412,1.412,0,0,1,7789.6,8674.85Z" transform="translate(-7789.574 -8670.769)" fill="#fff"/>
              </g>
              <g id="Group_7436" data-name="Group 7436" transform="translate(600.797 258.355)">
                <rect id="Rectangle_864" data-name="Rectangle 864" width="4.138" height="15.211" rx="0.875" transform="translate(4.94 0.424) rotate(-5.885)" fill="#fff"/>
                <rect id="Rectangle_865" data-name="Rectangle 865" width="4.139" height="15.211" rx="0.875" transform="translate(15.131 4.94) rotate(84.115)" fill="#fff"/>
              </g>
              <g id="Group_7437" data-name="Group 7437" transform="translate(603.464 536.884)">
                <rect id="Rectangle_866" data-name="Rectangle 866" width="5.129" height="18.853" rx="0.875" transform="translate(6.121 0.527) rotate(-5.898)" fill="#fff"/>
                <rect id="Rectangle_867" data-name="Rectangle 867" width="5.129" height="18.853" rx="0.875" transform="translate(18.753 6.119) rotate(84.092)" fill="#fff"/>
              </g>
              <g id="Group_7438" data-name="Group 7438" transform="translate(6.391 379.11)">
                <rect id="Rectangle_868" data-name="Rectangle 868" width="5.129" height="18.853" rx="0.875" transform="translate(6.121 0.527) rotate(-5.897)" fill="#fff"/>
                <rect id="Rectangle_869" data-name="Rectangle 869" width="5.129" height="18.853" rx="0.875" transform="translate(18.754 6.12) rotate(84.102)" fill="#fff"/>
              </g>
              <g id="Group_7439" data-name="Group 7439" transform="translate(575.599 16.733)">
                <path id="Path_8126" data-name="Path 8126" d="M7834.616,7997.377a8.33,8.33,0,1,1,8.33-8.329A8.338,8.338,0,0,1,7834.616,7997.377Zm0-12.748a4.418,4.418,0,1,0,4.419,4.419A4.423,4.423,0,0,0,7834.616,7984.629Z" transform="translate(-7826.287 -7980.718)" fill="#fff"/>
              </g>
              <g id="Group_7440" data-name="Group 7440" transform="translate(287.722 42.01)">
                <path id="Path_8127" data-name="Path 8127" d="M7315.348,8042.971a8.33,8.33,0,1,1,8.329-8.329A8.339,8.339,0,0,1,7315.348,8042.971Zm0-12.748a4.418,4.418,0,1,0,4.418,4.419A4.424,4.424,0,0,0,7315.348,8030.223Z" transform="translate(-7307.018 -8026.312)" fill="#fff"/>
              </g>
              <g id="Group_7441" data-name="Group 7441" transform="translate(645.14 356.303)">
                <path id="Path_8128" data-name="Path 8128" d="M7960.053,8609.89a8.331,8.331,0,1,1,8.33-8.331A8.34,8.34,0,0,1,7960.053,8609.89Zm0-12.75a4.419,4.419,0,1,0,4.419,4.419A4.424,4.424,0,0,0,7960.053,8597.14Z" transform="translate(-7951.724 -8593.229)" fill="#fff"/>
              </g>
              <g id="Group_7442" data-name="Group 7442" transform="translate(8.055 529.226)">
                <path id="Path_8129" data-name="Path 8129" d="M6810.25,8917.311h0a1.684,1.684,0,0,1-1.314-1.987l1.8-8.832a1.685,1.685,0,0,1,1.987-1.313h0a1.684,1.684,0,0,1,1.314,1.986l-1.8,8.832A1.685,1.685,0,0,1,6810.25,8917.311Z" transform="translate(-6805.386 -8905.144)" fill="#fff"/>
                <path id="Path_8130" data-name="Path 8130" d="M6802.6,8912.832h0a1.685,1.685,0,0,1,1.987-1.314l8.832,1.8a1.683,1.683,0,0,1,1.314,1.986h0a1.685,1.685,0,0,1-1.987,1.314l-8.832-1.8A1.684,1.684,0,0,1,6802.6,8912.832Z" transform="translate(-6802.561 -8907.968)" fill="#fff"/>
              </g>
              <g id="Group_7443" data-name="Group 7443" transform="translate(57.396 453.921)">
                <path id="Path_8131" data-name="Path 8131" d="M6899.892,8785.969a8.33,8.33,0,1,1,8.329-8.329A8.339,8.339,0,0,1,6899.892,8785.969Zm0-12.747a4.418,4.418,0,1,0,4.418,4.418A4.423,4.423,0,0,0,6899.892,8773.222Z" transform="translate(-6891.562 -8769.31)" fill="#fff"/>
              </g>
              <g id="Group_7444" data-name="Group 7444" transform="translate(616.226 146.916)">
                <path id="Path_8132" data-name="Path 8132" d="M7905.286,8226.974a5.717,5.717,0,1,1,5.717-5.718A5.724,5.724,0,0,1,7905.286,8226.974Zm0-8.751a3.033,3.033,0,1,0,3.032,3.033A3.037,3.037,0,0,0,7905.286,8218.223Z" transform="translate(-7899.568 -8215.539)" fill="#fff"/>
              </g>
            </g>
          </g>
        </g>
        <g id="Group_7448" data-name="Group 7448">
          <rect id="Rectangle_870" data-name="Rectangle 870" width="4.138" height="15.211" rx="0.875" transform="translate(11.411 14.905) rotate(168.484)" fill="#fff"/>
          <rect id="Rectangle_871" data-name="Rectangle 871" width="4.139" height="15.211" rx="0.875" transform="translate(14.905 4.319) rotate(78.484)" fill="#fff"/>
        </g>
        <g id="Group_7449" data-name="Group 7449" transform="translate(138.504 47.343)">
          <path id="Path_8133" data-name="Path 8133" d="M7028.518,7928.742a5.4,5.4,0,1,1,5.4,5.4A5.41,5.41,0,0,1,7028.518,7928.742Zm2.538,0a2.866,2.866,0,1,0,2.866-2.866A2.869,2.869,0,0,0,7031.056,7928.742Z" transform="translate(-7028.518 -7923.339)" fill="#fff"/>
        </g>
        <g id="Group_7450" data-name="Group 7450" transform="translate(536.717 34.715)">
          <path id="Path_8134" data-name="Path 8134" d="M7753.257,7910.77h0a1.412,1.412,0,0,1-1.1-1.667l1.511-7.41a1.413,1.413,0,0,1,1.667-1.1h0a1.412,1.412,0,0,1,1.1,1.667l-1.512,7.41A1.412,1.412,0,0,1,7753.257,7910.77Z" transform="translate(-7749.178 -7900.562)" fill="#fff"/>
          <path id="Path_8135" data-name="Path 8135" d="M7746.835,7907.012h0a1.414,1.414,0,0,1,1.667-1.1l7.41,1.512a1.414,1.414,0,0,1,1.1,1.668h0a1.415,1.415,0,0,1-1.668,1.1l-7.409-1.512A1.414,1.414,0,0,1,7746.835,7907.012Z" transform="translate(-7746.807 -7902.931)" fill="#fff"/>
        </g>
        <g id="Group_7451" data-name="Group 7451" transform="translate(323.261 39.182)">
          <path id="Path_8136" data-name="Path 8136" d="M7367.55,7920.159a5.771,5.771,0,1,1,5.771-5.77A5.777,5.777,0,0,1,7367.55,7920.159Zm0-8.831a3.061,3.061,0,1,0,3.061,3.062A3.064,3.064,0,0,0,7367.55,7911.328Z" transform="translate(-7361.779 -7908.618)" fill="#fff"/>
        </g>
        <g id="Group_7452" data-name="Group 7452" transform="translate(482.355 58.507)">
          <path id="Path_8137" data-name="Path 8137" d="M7654.519,7955.017a5.771,5.771,0,1,1,5.771-5.771A5.776,5.776,0,0,1,7654.519,7955.017Zm0-8.832a3.061,3.061,0,1,0,3.063,3.062A3.065,3.065,0,0,0,7654.519,7946.185Z" transform="translate(-7648.749 -7943.476)" fill="#fff"/>
        </g>
      </g>
      <g id="Group_7454" data-name="Group 7454" transform="translate(721.245 534.605)">
        <path id="Path_8138" data-name="Path 8138" d="M8087.984,8818.912a8.33,8.33,0,1,1,8.33-8.329A8.338,8.338,0,0,1,8087.984,8818.912Zm0-12.749a4.419,4.419,0,1,0,4.418,4.42A4.424,4.424,0,0,0,8087.984,8806.163Z" transform="translate(-8079.655 -8802.253)" fill="#fff"/>
      </g>
    </g>
    <g id="Group_7487" data-name="Group 7487" transform="translate(6951.272 8282.911)">
      <ellipse id="Ellipse_51" data-name="Ellipse 51" cx="288.12" cy="22.3" rx="288.12" ry="22.3" transform="translate(0 254.958)" fill="#94abf7"/>
      <path id="Path_8139" data-name="Path 8139" d="M7658.735,8882.044a15.881,15.881,0,0,1-15.907,15.854H7261.043a15.881,15.881,0,0,1-15.907-15.854v-225.62a15.881,15.881,0,0,1,15.907-15.854h381.785a15.881,15.881,0,0,1,15.907,15.854Z" transform="translate(-7159.127 -8640.569)" fill="#1d35bb" fill-rule="evenodd"/>
      <path id="Path_8140" data-name="Path 8140" d="M7666.885,9122.183h0c0,5.784-5.761,10.472-12.868,10.472H7171.9c-7.105,0-12.868-4.687-12.868-10.472h0" transform="translate(-7120.758 -8855.181)" fill="#1d35bb" fill-rule="evenodd"/>
      <path id="Path_8141" data-name="Path 8141" d="M7491.479,8677.89H7286.729v204.064h367.694V8677.89Z" transform="translate(-7177.661 -8657.199)" fill="#fff" fill-rule="evenodd"/>
      <g id="Group_7465" data-name="Group 7465" transform="translate(118.238 32.423)">
        <rect id="Rectangle_872" data-name="Rectangle 872" width="155.481" height="73.622" rx="4.021" fill="#e7f1f7"/>
        <g id="Group_7461" data-name="Group 7461" transform="translate(8.045 16.038)">
          <g id="Group_7460" data-name="Group 7460">
            <g id="Group_7456" data-name="Group 7456">
              <rect id="Rectangle_873" data-name="Rectangle 873" width="59.075" height="6.257" rx="1.293" fill="#ff8c03"/>
              <rect id="Rectangle_874" data-name="Rectangle 874" width="76.39" height="6.257" rx="1.293" transform="translate(62.978)" fill="#ff8c03"/>
            </g>
            <g id="Group_7457" data-name="Group 7457" transform="translate(0 14.677)">
              <rect id="Rectangle_875" data-name="Rectangle 875" width="59.075" height="6.257" rx="1.293" fill="#ff8c03"/>
              <rect id="Rectangle_876" data-name="Rectangle 876" width="76.39" height="6.257" rx="1.293" transform="translate(62.978)" fill="#ff8c03"/>
            </g>
            <g id="Group_7458" data-name="Group 7458" transform="translate(0 29.354)">
              <rect id="Rectangle_877" data-name="Rectangle 877" width="59.075" height="6.257" rx="1.293" fill="#ff8c03"/>
              <rect id="Rectangle_878" data-name="Rectangle 878" width="76.39" height="6.257" rx="1.293" transform="translate(62.978)" fill="#ff8c03"/>
            </g>
            <g id="Group_7459" data-name="Group 7459" transform="translate(0 44.031)">
              <rect id="Rectangle_879" data-name="Rectangle 879" width="59.075" height="6.257" rx="1.293" fill="#ff8c03"/>
              <rect id="Rectangle_880" data-name="Rectangle 880" width="34.158" height="6.257" rx="1.293" transform="translate(62.978)" fill="#ff8c03"/>
              <rect id="Rectangle_881" data-name="Rectangle 881" width="38.218" height="6.257" rx="1.293" transform="translate(101.173)" fill="#ff8c03"/>
            </g>
          </g>
        </g>
        <path id="Rectangle_882" data-name="Rectangle 882" d="M3.993,0H151.488a3.993,3.993,0,0,1,3.993,3.993V9.662a0,0,0,0,1,0,0H0a0,0,0,0,1,0,0V3.993A3.993,3.993,0,0,1,3.993,0Z" fill="#7d8dfc"/>
        <g id="Group_7464" data-name="Group 7464" transform="translate(5.039 2.725)">
          <g id="Group_7462" data-name="Group 7462">
            <path id="Path_8142" data-name="Path 8142" d="M7313,8708.18a.64.64,0,0,1-.453-1.092l2.933-2.934a.64.64,0,0,1,.9.906l-2.932,2.932A.637.637,0,0,1,7313,8708.18Z" transform="translate(-7312.358 -8703.968)" fill="#fff"/>
          </g>
          <g id="Group_7463" data-name="Group 7463">
            <path id="Path_8143" data-name="Path 8143" d="M7315.93,8708.18a.637.637,0,0,1-.452-.187l-2.933-2.932a.64.64,0,0,1,.905-.906l2.932,2.934a.64.64,0,0,1-.452,1.092Z" transform="translate(-7312.358 -8703.968)" fill="#fff"/>
          </g>
        </g>
      </g>
      <g id="Group_7477" data-name="Group 7477" transform="translate(118.238 125.74)">
        <path id="Rectangle_883" data-name="Rectangle 883" d="M4.021,0H131.839a4.021,4.021,0,0,1,4.021,4.021V69.6a4.021,4.021,0,0,1-4.021,4.021H4.022A4.022,4.022,0,0,1,0,69.6V4.021A4.021,4.021,0,0,1,4.021,0Z" fill="#e7f1f7"/>
        <g id="Group_7467" data-name="Group 7467" transform="translate(67.12 16.038)">
          <g id="Group_7466" data-name="Group 7466">
            <rect id="Rectangle_884" data-name="Rectangle 884" width="62.485" height="6.257" rx="1.293" fill="#ff8c03"/>
          </g>
        </g>
        <g id="Group_7469" data-name="Group 7469" transform="translate(67.12 30.716)">
          <g id="Group_7468" data-name="Group 7468">
            <rect id="Rectangle_885" data-name="Rectangle 885" width="62.485" height="6.257" rx="1.293" fill="#ff8c03"/>
          </g>
        </g>
        <g id="Group_7471" data-name="Group 7471" transform="translate(67.12 45.392)">
          <g id="Group_7470" data-name="Group 7470">
            <rect id="Rectangle_886" data-name="Rectangle 886" width="62.485" height="6.257" rx="1.293" fill="#ff8c03"/>
          </g>
        </g>
        <g id="Group_7473" data-name="Group 7473" transform="translate(8.045 60.07)">
          <g id="Group_7472" data-name="Group 7472">
            <rect id="Rectangle_887" data-name="Rectangle 887" width="59.075" height="6.257" rx="1.293" fill="#ff8c03"/>
            <rect id="Rectangle_888" data-name="Rectangle 888" width="58.582" height="6.257" rx="1.293" transform="translate(62.978)" fill="#ff8c03"/>
          </g>
        </g>
        <path id="Rectangle_889" data-name="Rectangle 889" d="M3.993,0H131.868a3.993,3.993,0,0,1,3.993,3.993V9.662a0,0,0,0,1,0,0H0a0,0,0,0,1,0,0V3.993A3.993,3.993,0,0,1,3.993,0Z" fill="#7d8dfc"/>
        <g id="Group_7476" data-name="Group 7476" transform="translate(5.039 2.725)">
          <g id="Group_7474" data-name="Group 7474">
            <path id="Path_8144" data-name="Path 8144" d="M7313,8876.5a.64.64,0,0,1-.453-1.093l2.933-2.931a.639.639,0,0,1,.9.9l-2.932,2.932A.637.637,0,0,1,7313,8876.5Z" transform="translate(-7312.358 -8872.291)" fill="#fff"/>
          </g>
          <g id="Group_7475" data-name="Group 7475">
            <path id="Path_8145" data-name="Path 8145" d="M7315.93,8876.5a.637.637,0,0,1-.452-.187l-2.933-2.932a.64.64,0,0,1,.905-.9l2.932,2.931a.64.64,0,0,1-.452,1.093Z" transform="translate(-7312.358 -8872.291)" fill="#fff"/>
          </g>
        </g>
        <circle id="Ellipse_52" data-name="Ellipse 52" cx="18.056" cy="18.056" r="18.056" transform="translate(16.86 15.788)" fill="#7d8dfc"/>
      </g>
      <g id="Group_7478" data-name="Group 7478" transform="translate(291.586 165.35)">
        <rect id="Rectangle_890" data-name="Rectangle 890" width="173.061" height="13.998" rx="0.934" transform="translate(1.097 20.176)" fill="#7d8dfc"/>
        <rect id="Rectangle_891" data-name="Rectangle 891" width="87.91" height="13.998" rx="0.934" fill="#e82b63"/>
        <rect id="Rectangle_892" data-name="Rectangle 892" width="75.279" height="13.998" rx="0.934" transform="translate(97.862)" fill="#e82b63"/>
      </g>
      <g id="Group_7486" data-name="Group 7486" transform="translate(290.361 31.741)">
        <g id="Group_7483" data-name="Group 7483">
          <rect id="Rectangle_893" data-name="Rectangle 893" width="174.286" height="121.504" rx="4.021" fill="#e7f1f7"/>
          <g id="Group_7479" data-name="Group 7479" transform="translate(10.605 30.314)">
            <path id="Rectangle_894" data-name="Rectangle 894" d="M3.3,0H16.7A3.3,3.3,0,0,1,20,3.3V64.1a0,0,0,0,1,0,0H0a0,0,0,0,1,0,0V3.3A3.3,3.3,0,0,1,3.3,0Z" transform="translate(0 27.086)" fill="#7d8dfc"/>
            <path id="Rectangle_895" data-name="Rectangle 895" d="M3.3,0H16.7A3.3,3.3,0,0,1,20,3.3v69a0,0,0,0,1,0,0H0a0,0,0,0,1,0,0V3.3A3.3,3.3,0,0,1,3.3,0Z" transform="translate(33.269 18.889)" fill="#ff8c03"/>
            <path id="Rectangle_896" data-name="Rectangle 896" d="M3.3,0H16.7A3.3,3.3,0,0,1,20,3.3v69a0,0,0,0,1,0,0H0a0,0,0,0,1,0,0V3.3A3.3,3.3,0,0,1,3.3,0Z" transform="translate(99.807 18.889)" fill="#ff8c03"/>
            <path id="Rectangle_897" data-name="Rectangle 897" d="M3.3,0H16.7A3.3,3.3,0,0,1,20,3.3v51.71a0,0,0,0,1,0,0H0a0,0,0,0,1,0,0V3.3A3.3,3.3,0,0,1,3.3,0Z" transform="translate(66.538 36.183)" fill="#7d8dfc"/>
            <path id="Rectangle_898" data-name="Rectangle 898" d="M3.3,0H16.7A3.3,3.3,0,0,1,20,3.3V91.19a0,0,0,0,1,0,0H0a0,0,0,0,1,0,0V3.3A3.3,3.3,0,0,1,3.3,0Z" transform="translate(133.076)" fill="#ff8c03"/>
          </g>
          <path id="Rectangle_899" data-name="Rectangle 899" d="M4,0h166.28a4,4,0,0,1,4,4v9.391a0,0,0,0,1,0,0H0a0,0,0,0,1,0,0V4A4,4,0,0,1,4,0Z" fill="#7d8dfc"/>
          <g id="Group_7482" data-name="Group 7482" transform="translate(4.284 3.565)">
            <g id="Group_7480" data-name="Group 7480">
              <path id="Path_8146" data-name="Path 8146" d="M7622.108,8708.464a.641.641,0,0,1-.452-1.093l2.933-2.932a.639.639,0,0,1,.9.9l-2.933,2.932A.635.635,0,0,1,7622.108,8708.464Z" transform="translate(-7621.468 -8704.252)" fill="#fff"/>
            </g>
            <g id="Group_7481" data-name="Group 7481">
              <path id="Path_8147" data-name="Path 8147" d="M7625.041,8708.464a.634.634,0,0,1-.452-.188l-2.933-2.932a.639.639,0,0,1,.9-.9l2.933,2.932a.641.641,0,0,1-.452,1.093Z" transform="translate(-7621.468 -8704.252)" fill="#fff"/>
            </g>
          </g>
        </g>
        <g id="Group_7485" data-name="Group 7485" transform="translate(4.691 18.151)">
          <g id="Group_7484" data-name="Group 7484">
            <path id="Path_8148" data-name="Path 8148" d="M7623.9,8767.205a1.7,1.7,0,0,1-.542-3.308l47.486-16a1.713,1.713,0,0,1,1.155.024l19.146,7.419,18.7,7.484,39.06-27.011a1.67,1.67,0,0,1,.682-.278l29.192-4.953a1.7,1.7,0,1,1,.566,3.348l-28.82,4.889-39.5,27.316a1.691,1.691,0,0,1-1.6.18L7689.9,8758.5l-18.555-7.19-46.905,15.8A1.7,1.7,0,0,1,7623.9,8767.205Z" transform="translate(-7622.204 -8730.563)" fill="#e82b63"/>
          </g>
        </g>
      </g>
      <path id="Rectangle_900" data-name="Rectangle 900" d="M0,0H504.625a3.229,3.229,0,0,1,3.229,3.229V22.82a0,0,0,0,1,0,0H0a0,0,0,0,1,0,0V0A0,0,0,0,1,0,0Z" transform="translate(38.273 244.182)" fill="#162f9b"/>
    </g>
    <g id="Group_7511" data-name="Group 7511" transform="translate(6815.604 7933.834)">
      <g id="Group_7489" data-name="Group 7489" transform="translate(5.44 454.981)">
        <g id="Group_7488" data-name="Group 7488">
          <path id="Path_8149" data-name="Path 8149" d="M6882.958,8853l-21.409-21.409-6.458,6.46,22.518,22.519,5.756-5.758h18.759v-20.679h-19.166Z" transform="translate(-6855.09 -8831.595)" fill="#1d35bb"/>
          <path id="Path_8150" data-name="Path 8150" d="M7002.921,8864.643l-51.1-19.862a.782.782,0,0,0-1.067.729v19.018a.782.782,0,0,0,.5.729l2.177.846a.781.781,0,0,0,.284.054h48.919a.783.783,0,0,0,.284-1.513Z" transform="translate(-6897.72 -8837.446)" fill="#1d35bb"/>
        </g>
      </g>
      <path id="Path_8151" data-name="Path 8151" d="M7470.316,8454.382l-37.055-19.572a1.255,1.255,0,0,0-.135-.039,1.522,1.522,0,0,0-.3-.089,1.483,1.483,0,0,0-.3-.032,1.572,1.572,0,0,0-.276.029,1.619,1.619,0,0,0-.317.092c-.043.02-.089.017-.131.039l-37.162,19.572a1.565,1.565,0,0,0,.73,2.95,1.542,1.542,0,0,0,.729-.182l36.432-19.186,36.325,19.186a1.543,1.543,0,0,0,.729.182,1.566,1.566,0,0,0,.731-2.95Z" transform="translate(-7089.706 -8199.731)" fill="#162f9b"/>
      <path id="Path_8152" data-name="Path 8152" d="M7465.137,8405.508a2.352,2.352,0,0,0-4.133,1.08,6.123,6.123,0,0,1-12.105-1.769,6.345,6.345,0,0,1,6.4-5.509,2.037,2.037,0,0,0,2.036-2.035v-8.409a8.287,8.287,0,1,0-4.7,0v6a10.821,10.821,0,0,0,.533,21.231,11.161,11.161,0,0,0,1.831.151,10.748,10.748,0,0,0,10.631-8.885A2.271,2.271,0,0,0,7465.137,8405.508Z" transform="translate(-7112.15 -8172.114)" fill="#1d35bb"/>
      <path id="Path_8153" data-name="Path 8153" d="M7200.005,8025.69l-.017-.3-11-11h-17.229l-7.854,12.147-16.234-1.634L6869.6,8429.676v.1h-2.228v26.114h2.228v10.9h1.565v-10.9h2.228V8429.78h-1.965l277.011-403.218,16.264,1.636,7.91-12.235h15.729l10.115,10.118,10.062,172.739,1.563-.092Z" transform="translate(-6855.124 -8012.463)" fill="#162f9b"/>
      <g id="Group_7491" data-name="Group 7491" transform="translate(330.759 13.215)">
        <g id="Group_7490" data-name="Group 7490" transform="translate(0 0)">
          <rect id="Rectangle_901" data-name="Rectangle 901" width="173.494" height="1.565" transform="translate(0 173.042) rotate(-85.86)" fill="#162f9b"/>
        </g>
      </g>
      <g id="Group_7493" data-name="Group 7493" transform="translate(314.065 8.082)">
        <g id="Group_7492" data-name="Group 7492">
          <path id="Path_8154" data-name="Path 8154" d="M7428.491,8026.9h.7a5.441,5.441,0,0,1,5.44,5.44h0a5.44,5.44,0,0,1-1.619,3.873l-19.817,19.563Z" transform="translate(-7412.412 -8026.116)" fill="#1d35bb"/>
          <path id="Path_8155" data-name="Path 8155" d="M7412.565,8055.927a.783.783,0,0,1-.692-1.149l15.3-28.874a.785.785,0,0,1,.692-.418h.7a6.224,6.224,0,0,1,4.371,10.654l-19.817,19.562A.782.782,0,0,1,7412.565,8055.927Zm15.767-28.875-12.688,23.953,16.189-15.98a4.657,4.657,0,0,0-3.271-7.973Z" transform="translate(-7411.782 -8025.486)" fill="#1d35bb"/>
        </g>
      </g>
      <path id="Path_8156" data-name="Path 8156" d="M6969.9,8729.619a.786.786,0,0,0-.685-.449l-18.284-.559a.779.779,0,0,0-.743.471l-1.308,3.023-2.964-1.912a.781.781,0,0,0-1.13.32l-23.932,49.912a.759.759,0,0,0-.078.338v16.689a.784.784,0,0,0,1.4.488l42.985-54.322a.784.784,0,0,0-.19-1.145l-12.879-8.3,13.906.619h.035a.78.78,0,0,0,.618-.3l3.161-4.059A.786.786,0,0,0,6969.9,8729.619Z" transform="translate(-6878.921 -8330.724)" fill="#ff8c03"/>
      <path id="Path_8157" data-name="Path 8157" d="M7226.748,8017.865l-10.2-6.447a3.308,3.308,0,0,0-4.44.857l-40.128,55.534-116.337,161.07-44.556,73.154-47.077,108.693a.779.779,0,0,0,.294.967l3.739,2.412a.783.783,0,0,0,.651.093.793.793,0,0,0,.492-.44l8.335-19.25,9.947,15.584-8.049,10.339a.786.786,0,0,0,.194,1.142l3.742,2.4a.773.773,0,0,0,.423.124.784.784,0,0,0,.618-.3l72.008-92.519,43.842-72.991,95.666-175.705v0l0,0L7227.9,8022.2A3.32,3.32,0,0,0,7226.748,8017.865Zm-49.932,54.174,7.516,4.524h-10.8Zm-115.881,159.7.906-1.248,32.932,18.912-41.518-5.062Zm-69.223,172.9-10.55-16.413h23.327Zm-8.593-23.062,9.468-21.865,15.924,21.865Zm29.964-4.389-16.634-23.88,33.765,1.876Zm-14.874-30.464,13.8-31.873,22.145,33.754Zm40.456-2.4-22.122-33.095,32.19,20.163Zm13.147-17.024-35.559-22.247v0l.672-1.1,35.566,22.222Zm4.743-7.9-33.825-20.639,45.021,2Zm-32.269-27.535,22.167-36.373,24.314,38.478Zm50.537-2.876-24.219-38.325,44.195,5.069Zm-8.735-64.362,10.554-14.546,21.9,33.574Zm36.964,15.98-21.818-35.234,39.144,3.244Zm-19.21-40.449,19.218-26.486,19.144,29.5Zm42.078-1.774-18.085-29.771,33.184,1.894Zm-14.638-36.044,15.839-21.828,15.943,24.139Zm35.607-2.674-15.184-23.894,27.267,1.584Zm-12.05-29.791,12.807-17.649,13.256,19.444Zm29.758-2.9-12.859-18.764,22.521.922Zm-9.488-25.03,11.051-15.229,10.421,16.2Zm25.256-4.085-10.049-15.356,18.123.448Zm11.093-29.518a5.752,5.752,0,1,1,5.751-5.752A5.759,5.759,0,0,1,7191.458,8068.353Zm11-18.9a4.1,4.1,0,1,1,4.1-4.1A4.1,4.1,0,0,1,7202.459,8049.457Zm11-18.186a3.153,3.153,0,1,1,3.153-3.153A3.157,3.157,0,0,1,7213.461,8031.271Z" transform="translate(-6898.158 -8010.909)" fill="#1d35bb"/>
      <g id="Group_7495" data-name="Group 7495" transform="translate(194.555 23.386)">
        <g id="Group_7494" data-name="Group 7494" transform="translate(0 0)">
          <rect id="Rectangle_902" data-name="Rectangle 902" width="164.198" height="1.566" transform="translate(0 131.635) rotate(-53.291)" fill="#162f9b"/>
        </g>
      </g>
      <g id="Group_7497" data-name="Group 7497" transform="translate(322.204 1.934)">
        <g id="Group_7496" data-name="Group 7496">
          <path id="Path_8158" data-name="Path 8158" d="M7448.988,8026.364a10.557,10.557,0,1,1-10.557-10.557A10.557,10.557,0,0,1,7448.988,8026.364Z" transform="translate(-7427.093 -8015.025)" fill="#2d4ed6"/>
          <path id="Path_8159" data-name="Path 8159" d="M7437.8,8037.076a11.339,11.339,0,1,1,11.34-11.339A11.353,11.353,0,0,1,7437.8,8037.076Zm0-21.113a9.774,9.774,0,1,0,9.774,9.774A9.784,9.784,0,0,0,7437.8,8015.962Z" transform="translate(-7426.463 -8014.397)" fill="#2d4ed6"/>
        </g>
      </g>
      <g id="Group_7498" data-name="Group 7498" transform="translate(327.348 7.077)">
        <path id="Path_8160" data-name="Path 8160" d="M7447.979,8030.5a5.413,5.413,0,1,1-5.413-5.413A5.414,5.414,0,0,1,7447.979,8030.5Z" transform="translate(-7436.37 -8024.304)" fill="#e82b63"/>
        <path id="Path_8161" data-name="Path 8161" d="M7441.937,8036.066a6.2,6.2,0,1,1,6.2-6.2A6.2,6.2,0,0,1,7441.937,8036.066Zm0-10.826a4.63,4.63,0,1,0,4.631,4.631A4.636,4.636,0,0,0,7441.937,8025.24Z" transform="translate(-7435.741 -8023.675)" fill="#1d35bb"/>
      </g>
      <path id="Path_8162" data-name="Path 8162" d="M6871.939,8767.04h-13.383a2.318,2.318,0,1,0,0,4.636h13.383a2.318,2.318,0,1,0,0-4.636Z" transform="translate(-6850.162 -8347.848)" fill="#2d4ed6"/>
      <rect id="Rectangle_903" data-name="Rectangle 903" width="8.378" height="48.12" rx="4.189" transform="translate(10.787 482.124)" fill="#ffa727"/>
      <path id="Rectangle_904" data-name="Rectangle 904" d="M4.236,0H89.3A4.236,4.236,0,0,1,93.54,4.236V43.883A4.237,4.237,0,0,1,89.3,48.12H4.236A4.236,4.236,0,0,1,0,43.884V4.236A4.236,4.236,0,0,1,4.236,0Z" transform="translate(17.6 482.124)" fill="#ff8c03"/>
      <path id="Path_8163" data-name="Path 8163" d="M7123.355,8853.963l-18.76-65.571a3.317,3.317,0,0,0-3.175-2.392h-51.4a3.317,3.317,0,0,0-3.293,3.052l-3.8,50.093,0,47.395h68.207a3.292,3.292,0,0,0,3.147-2.3l9.049-28.369A3.276,3.276,0,0,0,7123.355,8853.963Z" transform="translate(-6933.351 -8356.297)" fill="#ffa727"/>
      <rect id="Rectangle_905" data-name="Rectangle 905" width="173.023" height="14.813" rx="4.236" transform="translate(7.381 528.678)" fill="#ffa727"/>
      <path id="Path_8164" data-name="Path 8164" d="M6860.537,8802.9a15.26,15.26,0,1,0,15.262,15.261A15.277,15.277,0,0,0,6860.537,8802.9Z" transform="translate(-6845.277 -8363.826)" fill="#2d4ed6"/>
      <path id="Path_8165" data-name="Path 8165" d="M6865.171,8813.291a9.5,9.5,0,1,0,9.5,9.5A9.507,9.507,0,0,0,6865.171,8813.291Z" transform="translate(-6849.91 -8368.458)" fill="#1d35bb"/>
      <path id="Rectangle_906" data-name="Rectangle 906" d="M4.236,0H4.9A4.237,4.237,0,0,1,9.135,4.237V27.609A4.236,4.236,0,0,1,4.9,31.845H4.236A4.236,4.236,0,0,1,0,27.608V4.236A4.236,4.236,0,0,1,4.236,0Z" transform="translate(25.738 453.548)" fill="#162f9b"/>
      <rect id="Rectangle_907" data-name="Rectangle 907" width="9.135" height="31.845" rx="4.236" transform="translate(50.908 453.548)" fill="#162f9b"/>
      <path id="Path_8166" data-name="Path 8166" d="M6910.53,8802.9a15.26,15.26,0,1,0,15.262,15.261A15.277,15.277,0,0,0,6910.53,8802.9Z" transform="translate(-6867.555 -8363.826)" fill="#1d35bb"/>
      <path id="Path_8167" data-name="Path 8167" d="M6915.164,8813.291a9.5,9.5,0,1,0,9.5,9.5A9.506,9.506,0,0,0,6915.164,8813.291Z" transform="translate(-6872.188 -8368.458)" fill="#2d4ed6"/>
      <path id="Path_8168" data-name="Path 8168" d="M6917.635,8818.836a6.422,6.422,0,1,0,6.423,6.423A6.43,6.43,0,0,0,6917.635,8818.836Z" transform="translate(-6874.66 -8370.929)" fill="#162f9b"/>
      <path id="Path_8169" data-name="Path 8169" d="M6877.072,8988.424h-16.439a2.045,2.045,0,0,0-2.043,2.043v21.307a2.062,2.062,0,0,0,.6,1.449l6.451,6.426a.479.479,0,0,1,.14.338v20.572a2.043,2.043,0,0,0,2.042,2.041h9.248a2.043,2.043,0,0,0,2.042-2.041v-50.092A2.045,2.045,0,0,0,6877.072,8988.424Z" transform="translate(-6851.21 -8446.498)" fill="#162f9b"/>
      <path id="Path_8170" data-name="Path 8170" d="M6858.59,8988.424v24.434a2.351,2.351,0,0,0,2.349,2.35h1.6a2.351,2.351,0,0,0,2.35-2.35v-24.434Z" transform="translate(-6851.21 -8446.498)" fill="#ff4b33"/>
      <path id="Rectangle_908" data-name="Rectangle 908" d="M3.148,0h0A3.148,3.148,0,0,1,6.3,3.148V7.881a3.148,3.148,0,0,1-3.148,3.148h0A3.148,3.148,0,0,1,0,7.881V3.148A3.148,3.148,0,0,1,3.148,0Z" transform="translate(12.207 579.207)" fill="#ff4b33"/>
      <rect id="Rectangle_909" data-name="Rectangle 909" width="158.641" height="38.848" rx="7.06" transform="translate(21.764 541.925)" fill="#1d35bb"/>
      <g id="Group_7501" data-name="Group 7501" transform="translate(114.982 437.983)">
        <g id="Group_7499" data-name="Group 7499">
          <path id="Path_8171" data-name="Path 8171" d="M7056.371,8804.687,7054.1,8836.5a2.521,2.521,0,0,0,1.31,2.393l14.865,8.079a2.52,2.52,0,0,0,3.723-2.215v-39.889a2.52,2.52,0,0,0-2.521-2.518h-12.593A2.519,2.519,0,0,0,7056.371,8804.687Z" transform="translate(-7053.309 -8801.563)" fill="#cceaff"/>
          <path id="Path_8172" data-name="Path 8172" d="M7070.85,8847.431a3.292,3.292,0,0,1-1.579-.406l-14.865-8.077a3.313,3.313,0,0,1-1.717-3.137L7054.96,8804a3.315,3.315,0,0,1,3.293-3.065h12.593a3.306,3.306,0,0,1,3.3,3.3v39.888a3.313,3.313,0,0,1-3.3,3.309Zm-14.328-43.32-2.271,31.811a1.743,1.743,0,0,0,.9,1.65l14.865,8.077a1.738,1.738,0,0,0,2.566-1.526v-39.888a1.738,1.738,0,0,0-1.737-1.735h-12.593a1.745,1.745,0,0,0-1.732,1.611Z" transform="translate(-7052.68 -8800.935)" fill="#ff8c03"/>
        </g>
        <g id="Group_7500" data-name="Group 7500" transform="translate(24.729)">
          <path id="Path_8173" data-name="Path 8173" d="M7139.736,8858.938l-14.426-54.716a2.52,2.52,0,0,0-2.436-1.877h-21.656a2.519,2.519,0,0,0-2.519,2.518v45.249a2.52,2.52,0,0,0,1.316,2.214l17.424,9.468a2.506,2.506,0,0,0,1.2.307H7137.3A2.52,2.52,0,0,0,7139.736,8858.938Z" transform="translate(-7097.917 -8801.563)" fill="#cceaff"/>
          <path id="Path_8174" data-name="Path 8174" d="M7136.671,8862.253h-18.658a3.324,3.324,0,0,1-1.576-.4l-17.425-9.469a3.3,3.3,0,0,1-1.726-2.9v-45.249a3.305,3.305,0,0,1,3.3-3.3h21.655a3.3,3.3,0,0,1,3.193,2.458l14.426,54.716a3.3,3.3,0,0,1-3.192,4.145Zm-36.082-59.754a1.739,1.739,0,0,0-1.737,1.735v45.249a1.736,1.736,0,0,0,.908,1.524l17.424,9.469a1.732,1.732,0,0,0,.829.211h18.658a1.735,1.735,0,0,0,1.679-2.178l-14.426-54.717a1.739,1.739,0,0,0-1.68-1.294Z" transform="translate(-7097.287 -8800.935)" fill="#ff8c03"/>
        </g>
      </g>
      <path id="Path_8175" data-name="Path 8175" d="M7368.544,8028.056a3.305,3.305,0,0,0-3.3,3.3l-1.07,24.932,20.4-28.234Z" transform="translate(-7076.502 -8018.549)" fill="#2d4ed6"/>
      <g id="Group_7503" data-name="Group 7503" transform="translate(190.769 150.248)">
        <g id="Group_7502" data-name="Group 7502">
          <rect id="Rectangle_910" data-name="Rectangle 910" width="9.447" height="3.149" transform="translate(0.478 8.271) rotate(-55.587)" fill="#e82b63"/>
          <path id="Path_8176" data-name="Path 8176" d="M7191.371,8292.178l-1.307-.9a1.567,1.567,0,0,1-.408-2.176l4.455-6.5a1.566,1.566,0,0,1,2.177-.407l1.307.9a1.568,1.568,0,0,1,.407,2.177l-4.455,6.5A1.566,1.566,0,0,1,7191.371,8292.178Zm-.422-2.187,1.307.9,4.454-6.5-1.307-.895Z" transform="translate(-7189.383 -8281.923)" fill="#e82b63"/>
        </g>
      </g>
      <path id="Path_8177" data-name="Path 8177" d="M7036.69,9045.3h1.556l2.28-2.28v-4.9l-2.28-2.279h-1.556l-1.363-1.362v-5.008l-2.279-2.281h-4.4l-1.363-1.362v-1.138l-2.279-2.281h-4.9l-2.279,2.281v1.138l-1.363,1.362h-1.476l-1.362-1.362v-1.138l-2.281-2.281h-4.9l-2.279,2.281v1.138l-1.362,1.362h-1.477l-1.362-1.362v-1.138l-2.28-2.281h-4.9l-2.28,2.281v1.138l-1.363,1.362h-1.477l-1.362-1.362v-1.138l-2.279-2.281h-4.9l-2.28,2.281v1.138l-1.363,1.362h-1.476l-1.363-1.362v-1.138l-2.279-2.281h-4.9l-2.278,2.281v1.138l-1.363,1.362h-1.476l-1.363-1.362v-1.138l-2.28-2.281h-4.9l-2.28,2.281v1.138l-1.363,1.362h-1.477l-1.362-1.362v-1.138l-2.28-2.281h-4.9l-2.279,2.281v1.138l-1.363,1.362h-1.477l-1.362-1.362v-1.138l-2.28-2.281h-4.9l-2.28,2.281v1.138l-1.362,1.362h-4.4l-2.279,2.281v5.008l-1.362,1.362h-1.632l-2.28,2.279v4.9l2.28,2.28h1.632l1.362,1.361v2.54l-1.362,1.362h-1.632l-2.28,2.28v4.9l2.28,2.28h1.632l1.362,1.362v5.16l2.28,2.28h4.4l1.362,1.363v.987l2.28,2.279h4.9l2.28-2.279v-.987l1.362-1.363h1.477l1.363,1.363v.987l2.28,2.279h4.9l2.28-2.279v-.987l1.362-1.363h1.477l1.363,1.363v.987l2.28,2.279h4.9l2.28-2.279v-.987l1.363-1.363h1.476l1.363,1.363v.987l2.279,2.279h4.9l2.28-2.279v-.987l1.363-1.363h1.476l1.363,1.363v.987l2.28,2.279h4.9l2.279-2.279v-.987l1.362-1.363h1.477l1.363,1.363v.987l2.28,2.279h4.9l2.28-2.279v-.987l1.362-1.363h1.477l1.362,1.363v.987l2.279,2.279h4.9l2.281-2.279v-.987l1.362-1.363h1.476l1.363,1.363v.987l2.28,2.279h4.9l2.28-2.279v-.987l1.363-1.363h4.4l2.28-2.28v-5.16l1.363-1.362h1.556l2.28-2.28v-4.9l-2.28-2.28h-1.556l-1.363-1.362v-2.54Z" transform="translate(-6873.622 -8461.644)" fill="#162f9b"/>
      <g id="Group_7505" data-name="Group 7505" transform="translate(35.264 560.767)">
        <g id="Group_7504" data-name="Group 7504">
          <path id="Path_8178" data-name="Path 8178" d="M7036.69,9045.3h1.556l2.28-2.28v-4.9l-2.28-2.279h-1.556l-1.363-1.362v-5.008l-2.279-2.281h-4.4l-1.363-1.362v-1.138l-2.279-2.281h-4.9l-2.279,2.281v1.138l-1.363,1.362h-1.476l-1.362-1.362v-1.138l-2.281-2.281h-4.9l-2.279,2.281v1.138l-1.362,1.362h-1.477l-1.362-1.362v-1.138l-2.281-2.281h-4.9l-2.28,2.281v1.138l-1.363,1.362h-1.477l-1.362-1.362v-1.138l-2.279-2.281h-4.9l-2.28,2.281v1.138l-1.363,1.362h-1.476l-1.363-1.362v-1.138l-2.279-2.281h-4.9l-2.278,2.281v1.138l-1.363,1.362h-1.476l-1.363-1.362v-1.138l-2.279-2.281h-4.9l-2.28,2.281v1.138l-1.363,1.362h-1.477l-1.362-1.362v-1.138l-2.28-2.281h-4.9l-2.279,2.281v1.138l-1.363,1.362h-1.477l-1.362-1.362v-1.138l-2.28-2.281h-4.9l-2.28,2.281v1.138l-1.362,1.362h-4.4l-2.279,2.281v5.008l-1.362,1.362h-1.632l-2.28,2.279v4.9l2.28,2.28h1.632l1.362,1.361v2.54l-1.362,1.362h-1.632l-2.28,2.28v4.9l2.28,2.28h1.632l1.362,1.362v5.16l2.28,2.28h4.4l1.362,1.363v.987l2.28,2.279h4.9l2.28-2.279v-.987l1.362-1.363h1.477l1.363,1.363v.987l2.28,2.279h4.9l2.28-2.279v-.987l1.362-1.363h1.477l1.363,1.363v.987l2.28,2.279h4.9l2.279-2.279v-.987l1.363-1.363h1.476l1.363,1.363v.987l2.279,2.279h4.9l2.28-2.279v-.987l1.363-1.363h1.476l1.363,1.363v.987l2.28,2.279h4.9l2.279-2.279v-.987l1.362-1.363h1.477l1.363,1.363v.987l2.28,2.279h4.9l2.281-2.279v-.987l1.362-1.363h1.477l1.362,1.363v.987l2.279,2.279h4.9l2.281-2.279v-.987l1.362-1.363h1.476l1.363,1.363v.987l2.28,2.279h4.9l2.28-2.279v-.987l1.363-1.363h4.4l2.28-2.28v-5.16l1.363-1.362h1.556l2.28-2.28v-4.9l-2.28-2.28h-1.556l-1.363-1.362v-2.54Z" transform="translate(-6908.886 -9022.411)" fill="#162f9b"/>
          <path id="Path_8179" data-name="Path 8179" d="M7038.225,9044.531h1.53v-1.594h-1.53l-3.668-3.668v-4.983h-4.378l-3.667-3.665V9029.5h-1.594v1.115l-3.668,3.667h-4.731l-3.667-3.665V9029.5h-1.594v1.115l-3.666,3.667h-4.734l-3.667-3.665V9029.5H6997.6v1.115l-3.666,3.667H6989.2l-3.667-3.665V9029.5h-1.595v1.115l-3.665,3.667h-4.733l-3.667-3.665V9029.5h-1.594v1.115l-3.665,3.667h-4.734l-3.667-3.665V9029.5h-1.594v1.115l-3.666,3.667h-4.733l-3.667-3.665V9029.5h-1.594v1.115l-3.666,3.667h-4.733l-3.667-3.665V9029.5H6929.3v1.115l-3.665,3.667h-4.378v4.986l-3.667,3.665h-1.608v1.594h1.608l3.667,3.667v5.8l-3.665,3.664h-1.61v1.595h1.608l3.667,3.664v5.139h4.378l3.665,3.667v.963h1.595v-.966l3.667-3.664h4.733l3.666,3.667v.963h1.594v-.966l3.667-3.664h4.733l3.666,3.667v.963h1.594v-.966l3.667-3.664h4.734l3.665,3.667v.963h1.594v-.966l3.667-3.664h4.733l3.665,3.667v.963h1.595v-.966l3.667-3.664h4.733l3.666,3.667v.963h1.594v-.966l3.667-3.664h4.734l3.666,3.667v.963h1.594v-.966l3.667-3.664h4.731l3.668,3.667v.963h1.594v-.966l3.667-3.664h4.378v-5.137l3.668-3.666h1.53v-1.595h-1.531l-3.667-3.667V9048.2Z" transform="translate(-6912.046 -9025.572)" fill="#2d4ed6"/>
        </g>
      </g>
      <rect id="Rectangle_911" data-name="Rectangle 911" width="31.677" height="25.079" rx="7.06" transform="translate(327.002 184.55)" fill="#e82b63"/>
      <g id="Group_7506" data-name="Group 7506" transform="translate(122.52 439.549)">
        <path id="Path_8180" data-name="Path 8180" d="M7071.626,8844.489l-5.349-2.908v-37.822h5.349Z" transform="translate(-7066.277 -8803.759)" fill="#fff"/>
      </g>
      <g id="Group_7507" data-name="Group 7507" transform="translate(150.575 439.549)">
        <path id="Path_8181" data-name="Path 8181" d="M7125.079,8861.28l-8.2-4.455v-53.066h8.2Z" transform="translate(-7116.882 -8803.759)" fill="#fff"/>
      </g>
      <g id="Group_7508" data-name="Group 7508" transform="translate(160.671 439.549)">
        <rect id="Rectangle_912" data-name="Rectangle 912" width="2.675" height="58.188" fill="#fff"/>
      </g>
      <g id="Group_7509" data-name="Group 7509" transform="translate(130.319 439.549)">
        <path id="Path_8182" data-name="Path 8182" d="M7082.132,8846.791l-1.787-.971v-42.062h1.787Z" transform="translate(-7080.345 -8803.759)" fill="#fff"/>
      </g>
      <g id="Group_7510" data-name="Group 7510" transform="translate(335.336 189.585)">
        <path id="Path_8183" data-name="Path 8183" d="M7465.006,8361.012a6.721,6.721,0,1,1-6.722-6.72A6.722,6.722,0,0,1,7465.006,8361.012Z" transform="translate(-7450.78 -8353.509)" fill="#1d35bb"/>
        <path id="Path_8184" data-name="Path 8184" d="M7457.655,8367.888a7.5,7.5,0,1,1,7.5-7.5A7.512,7.512,0,0,1,7457.655,8367.888Zm0-13.441a5.938,5.938,0,1,0,5.938,5.938A5.945,5.945,0,0,0,7457.655,8354.446Z" transform="translate(-7450.15 -8352.88)" fill="#162f9b"/>
      </g>
      <path id="Path_8185" data-name="Path 8185" d="M7035.679,9063.714H6931.26a2.625,2.625,0,1,0,0,5.25h104.419a2.625,2.625,0,1,0,0-5.25Z" transform="translate(-6882.422 -8480.048)" fill="#162f9b"/>
    </g>
    <g id="Group_7526" data-name="Group 7526" transform="translate(7095.292 8185.963)">
      <g id="Group_7525" data-name="Group 7525" transform="translate(0 0)">
        <path id="Rectangle_913" data-name="Rectangle 913" d="M10.543,0H115.578a10.544,10.544,0,0,1,10.544,10.544V215.71a10.543,10.543,0,0,1-10.543,10.543H10.543A10.543,10.543,0,0,1,0,215.71V10.543A10.543,10.543,0,0,1,10.543,0Z" transform="translate(126.305 226.253) rotate(179.953)" fill="#162f9b"/>
        <path id="Path_8186" data-name="Path 8186" d="M7368.738,8485.738l96.7-.078a9.674,9.674,0,0,1,9.452,9.885l.153,187.41a9.676,9.676,0,0,1-9.437,9.9l-96.7.08a9.676,9.676,0,0,1-9.452-9.885l-.153-187.408A9.678,9.678,0,0,1,7368.738,8485.738Z" transform="translate(-7354.019 -8474.592)" fill="#fff"/>
        <g id="Group_7515" data-name="Group 7515" transform="translate(18.317 25.455)">
          <rect id="Rectangle_914" data-name="Rectangle 914" width="89.671" height="54.001" rx="3.97" fill="#e7f1f7"/>
          <g id="Group_7514" data-name="Group 7514" transform="translate(7.887 5.765)">
            <g id="Group_7513" data-name="Group 7513">
              <path id="Path_8187" data-name="Path 8187" d="M7465.307,8528.316h-42.355a3.154,3.154,0,0,1-3.153-3.153h0a3.153,3.153,0,0,1,3.153-3.154h42.355a3.155,3.155,0,0,1,3.155,3.154h0A3.155,3.155,0,0,1,7465.307,8528.316Z" transform="translate(-7407.182 -8522.009)" fill="#ff8c03"/>
              <g id="Group_7512" data-name="Group 7512" transform="translate(0 13.484)">
                <path id="Path_8188" data-name="Path 8188" d="M7467.783,8552.638h-67.588a3.154,3.154,0,0,1-3.154-3.153h0a3.156,3.156,0,0,1,3.154-3.155h67.588a3.156,3.156,0,0,1,3.154,3.155h0A3.153,3.153,0,0,1,7467.783,8552.638Z" transform="translate(-7397.041 -8546.329)" fill="#ff8c03"/>
                <path id="Path_8189" data-name="Path 8189" d="M7467.783,8593.547h-67.588a3.155,3.155,0,0,1-3.154-3.154h0a3.154,3.154,0,0,1,3.154-3.152h67.588a3.154,3.154,0,0,1,3.154,3.152h0A3.154,3.154,0,0,1,7467.783,8593.547Z" transform="translate(-7397.041 -8564.561)" fill="#ff8c03"/>
                <path id="Path_8190" data-name="Path 8190" d="M7467.783,8573.094h-67.588a3.155,3.155,0,0,1-3.154-3.153h0a3.155,3.155,0,0,1,3.154-3.154h67.588a3.154,3.154,0,0,1,3.154,3.154h0A3.154,3.154,0,0,1,7467.783,8573.094Z" transform="translate(-7397.041 -8555.446)" fill="#ff8c03"/>
              </g>
            </g>
          </g>
        </g>
        <g id="Group_7520" data-name="Group 7520" transform="translate(18.317 95.629)">
          <rect id="Rectangle_915" data-name="Rectangle 915" width="89.671" height="54.001" rx="3.97" fill="#e7f1f7"/>
          <g id="Group_7519" data-name="Group 7519" transform="translate(4.059 6.621)">
            <g id="Group_7518" data-name="Group 7518">
              <g id="Group_7517" data-name="Group 7517">
                <path id="Path_8191" data-name="Path 8191" d="M7439.067,8656.575h-45.709a3.221,3.221,0,0,1-3.222-3.221h0a3.222,3.222,0,0,1,3.222-3.223h45.709a3.223,3.223,0,0,1,3.223,3.223h0A3.222,3.222,0,0,1,7439.067,8656.575Z" transform="translate(-7390.137 -8650.132)" fill="#ff8c03"/>
                <path id="Path_8192" data-name="Path 8192" d="M7439.067,8677.181h-45.709a3.222,3.222,0,0,1-3.222-3.222h0a3.221,3.221,0,0,1,3.222-3.221h45.709a3.221,3.221,0,0,1,3.223,3.221h0A3.222,3.222,0,0,1,7439.067,8677.181Z" transform="translate(-7390.137 -8659.314)" fill="#ff8c03"/>
                <path id="Path_8193" data-name="Path 8193" d="M7424.5,8697.785h-31.144a3.221,3.221,0,0,1-3.222-3.221h0a3.222,3.222,0,0,1,3.222-3.223H7424.5a3.223,3.223,0,0,1,3.222,3.223h0A3.222,3.222,0,0,1,7424.5,8697.785Z" transform="translate(-7390.137 -8668.496)" fill="#ff8c03"/>
                <g id="Group_7516" data-name="Group 7516" transform="translate(0 34.269)">
                  <rect id="Rectangle_916" data-name="Rectangle 916" width="27.782" height="6.443" rx="1.477" fill="#ff8c03"/>
                  <path id="Path_8194" data-name="Path 8194" d="M7466.782,8718.39h-11.23a3.221,3.221,0,0,1-3.221-3.222h0a3.221,3.221,0,0,1,3.221-3.222h11.23a3.222,3.222,0,0,1,3.222,3.222h0A3.222,3.222,0,0,1,7466.782,8718.39Z" transform="translate(-7417.851 -8711.946)" fill="#ff8c03"/>
                </g>
              </g>
            </g>
            <path id="Rectangle_917" data-name="Rectangle 917" d="M2.365,0H21.325A2.365,2.365,0,0,1,23.69,2.365V15.547a2.364,2.364,0,0,1-2.364,2.364H2.365A2.365,2.365,0,0,1,0,15.547V2.365A2.365,2.365,0,0,1,2.365,0Z" transform="translate(57.862 22.846)" fill="#e82b63"/>
            <path id="Rectangle_918" data-name="Rectangle 918" d="M2.365,0H21.325A2.365,2.365,0,0,1,23.69,2.365V15.547a2.364,2.364,0,0,1-2.364,2.364H2.365A2.365,2.365,0,0,1,0,15.547V2.365A2.365,2.365,0,0,1,2.365,0Z" transform="translate(57.862)" fill="#7d8dfc"/>
          </g>
        </g>
        <g id="Group_7524" data-name="Group 7524" transform="translate(18.317 161.752)">
          <rect id="Rectangle_919" data-name="Rectangle 919" width="89.671" height="38.423" rx="3.97" fill="#e7f1f7"/>
          <g id="Group_7523" data-name="Group 7523" transform="translate(4.06 4.567)">
            <g id="Group_7522" data-name="Group 7522">
              <g id="Group_7521" data-name="Group 7521">
                <path id="Path_8195" data-name="Path 8195" d="M7439.067,8772.141h-45.709a3.221,3.221,0,0,1-3.222-3.222h0a3.22,3.22,0,0,1,3.222-3.221h45.709a3.221,3.221,0,0,1,3.223,3.221h0A3.222,3.222,0,0,1,7439.067,8772.141Z" transform="translate(-7390.137 -8765.698)" fill="#ff8c03"/>
                <path id="Path_8196" data-name="Path 8196" d="M7439.067,8792.744h-45.709a3.221,3.221,0,0,1-3.222-3.222h0a3.221,3.221,0,0,1,3.222-3.221h45.709a3.221,3.221,0,0,1,3.223,3.221h0A3.221,3.221,0,0,1,7439.067,8792.744Z" transform="translate(-7390.137 -8774.879)" fill="#ff8c03"/>
                <path id="Path_8197" data-name="Path 8197" d="M7424.5,8813.351h-31.144a3.222,3.222,0,0,1-3.222-3.222h0a3.22,3.22,0,0,1,3.222-3.222H7424.5a3.222,3.222,0,0,1,3.222,3.222h0A3.223,3.223,0,0,1,7424.5,8813.351Z" transform="translate(-7390.137 -8784.062)" fill="#ff8c03"/>
              </g>
            </g>
            <path id="Rectangle_920" data-name="Rectangle 920" d="M2.365,0H21.325A2.365,2.365,0,0,1,23.69,2.365V23.7a2.364,2.364,0,0,1-2.364,2.364H2.365A2.365,2.365,0,0,1,0,23.7V2.365A2.365,2.365,0,0,1,2.365,0Z" transform="translate(57.862 1.611)" fill="#7d8dfc"/>
          </g>
        </g>
      </g>
      <path id="Path_8198" data-name="Path 8198" d="M7430.964,8475.889h0a1.577,1.577,0,0,1,1.576-1.578l33.128-.027a1.578,1.578,0,0,1,1.58,1.576h0a1.578,1.578,0,0,1-1.578,1.579l-33.127.028A1.578,1.578,0,0,1,7430.964,8475.889Z" transform="translate(-7385.953 -8469.522)" fill="#1d35bb"/>
    </g>
    <g id="Group_7531" data-name="Group 7531" transform="translate(7188.042 7999.279)">
      <path id="Path_8199" data-name="Path 8199" d="M7638.165,8128.958v2.772h0c12.406,0,28.553,8.728,45.464,24.577,17.467,16.371,34.845,39.611,48.931,65.437,16.424,30.113,27.1,60.975,30.063,86.9,1.418,12.424.981,22.98-1.3,31.378-2.254,8.29-6.211,14.028-11.763,17.056a21,21,0,0,1-10.174,2.441c-12.407,0-28.554-8.728-45.465-24.576-17.469-16.37-34.847-39.609-48.933-65.437-16.425-30.114-27.1-60.976-30.062-86.9-1.419-12.423-.981-22.98,1.3-31.377,2.253-8.29,6.211-14.027,11.763-17.055a20.977,20.977,0,0,1,10.174-2.443l0-2.772m0,0a23.693,23.693,0,0,0-11.5,2.781c-25.527,13.922-18.412,76.2,15.893,139.094,29.673,54.408,69.97,91.458,96.83,91.458a23.694,23.694,0,0,0,11.5-2.781c25.527-13.922,18.412-76.2-15.893-139.094-29.674-54.41-69.97-91.46-96.831-91.458Z" transform="translate(-7559.083 -8128.958)" fill="none" stroke="#61dafb" stroke-width="7"/>
      <path id="Path_8200" data-name="Path 8200" d="M7640.168,8247.063h0c2.584,0,5.211.032,7.808.095,34.292.834,66.356,7.019,90.289,17.416,11.469,4.982,20.392,10.64,26.523,16.814,6.052,6.1,9.042,12.394,8.889,18.716-.146,6.08-3.209,12.009-9.1,17.615-5.965,5.681-14.532,10.782-25.463,15.164-22.665,9.087-53.121,14.091-85.754,14.091-2.585,0-5.213-.032-7.81-.095-34.291-.834-66.356-7.019-90.289-17.416-11.469-4.982-20.392-10.64-26.522-16.814-6.052-6.1-9.043-12.394-8.89-18.714.148-6.082,3.209-12.009,9.1-17.617,5.966-5.68,14.532-10.781,25.464-15.163,22.667-9.088,53.122-14.091,85.755-14.092m0-2.771c-67.994,0-122.406,21.582-123.087,49.576-.707,29.066,56.781,54.042,128.4,55.783q3.968.1,7.877.1c68,0,122.405-21.581,123.086-49.576.706-29.068-56.782-54.043-128.4-55.783q-3.968-.1-7.876-.1Z" transform="translate(-7517.075 -8180.352)" fill="none" stroke="#61dafb" stroke-width="7"/>
      <path id="Path_8201" data-name="Path 8201" d="M7740.53,8133.579v2.771a21.484,21.484,0,0,1,11.369,2.967c5.4,3.294,9.071,9.217,10.92,17.606,1.872,8.5,1.8,19.063-.225,31.4-4.218,25.75-16.381,56.058-34.248,85.337-15.252,25-32.923,46.491-51.1,62.164-17.343,14.953-33.761,23.189-46.229,23.189a21.5,21.5,0,0,1-11.375-2.967c-5.4-3.292-9.071-9.217-10.92-17.605-1.872-8.5-1.8-19.064.225-31.4,4.218-25.75,16.38-56.057,34.248-85.336,15.252-25,32.922-46.491,51.1-62.164,17.342-14.953,33.76-23.189,46.229-23.191l0-2.771m0,0c-26.877,0-68,34.737-99.694,86.682-37.319,61.156-47.45,123.012-22.63,138.156a24.178,24.178,0,0,0,12.818,3.372c26.876,0,68-34.737,99.693-86.682,37.318-61.156,47.45-123.012,22.631-138.157a24.167,24.167,0,0,0-12.818-3.372Z" transform="translate(-7556.082 -8131.018)" fill="none" stroke="#61dafb" stroke-width="7"/>
      <circle id="Ellipse_53" data-name="Ellipse 53" cx="26.706" cy="26.706" r="26.706" transform="translate(101.783 90.457)" fill="#61dafb"/>
    </g>
  </g>
</svg>
