<svg xmlns="http://www.w3.org/2000/svg" width="797.511" height="409.293" viewBox="0 0 797.511 409.293">
  <g id="Group_3304" data-name="Group 3304" transform="translate(-9290.185 -1085.824)">
    <path id="Path_2914" data-name="Path 2914" d="M9399.822,1492.8s-154.062-154.195-58.389-246.389,171.292,27.492,223.587,18.674c66.193-11.162,94.82-179.1,193.774-179.256,112.592-.181,195.23,66.377,151.211,224.888-32.467,116.913,190.7,21.173,157.924,184.356Z" transform="translate(-3.745 0)" fill="#ebf2f9"/>
    <path id="Path_2915" data-name="Path 2915" d="M9778.869,1542.441c-20.943-3.371-36.754,3.967-51.959,1.857-12.125-1.681-18.443-13.949-34.736-17.423,3.875-2.286,8.393-5.144,10.549-7.223,4.193-4.039,10.217-12.115,0-12.433-7.35-.229-13.074,12.015-15.707,18.9a49.99,49.99,0,0,0-7.871-.008c3.365-10.839,9.922-31.819,11.525-35.849,2.186-5.485-6.986-23.77-17.791-3.249-7.58,14.395-2.434,31.027,1.318,39.677a60.169,60.169,0,0,0-8.426,2c-8.93-20.375-37.338-78.462-68.135-71.245-33.574,7.868,38.355,46.92,56.5,75.873-14.82,6.868-27.842,15.213-50.35,9.119-59.818-16.194-64.564,20.243-64.564,20.243l267.316.091S9799.813,1545.813,9778.869,1542.441Z" transform="translate(-46.773 -69.683)" fill="#acd29a"/>
    <g id="Group_3295" data-name="Group 3295" transform="translate(9581.599 1096.332)">
      <path id="Path_2916" data-name="Path 2916" d="M9743.963,1396.346c.273,2.572,3.914,2.48,8.029,1.863s3.049.465,8.834.353,7.715-2.089,7.967-2.925c.227-.741-2.58-1.266-5.584-1.892-.377-.077-.756-.16-1.137-.242-3.387-.743-5.7-3.182-8.641-5.282-2.793-1.989-4.674-11.1-4.674-11.1l-8.225-.048s2.586,8.243,3.93,11.11c.793,1.687-.051,3.851-.316,5.476A10.024,10.024,0,0,0,9743.963,1396.346Z" transform="translate(-9666.183 -1151.034)" fill="#ffb07b"/>
      <path id="Path_2917" data-name="Path 2917" d="M9752.775,1402.045c4.113-.616,3.053.465,8.836.353s7.713-2.089,7.967-2.925c.225-.741-2.58-1.266-5.584-1.892l-.035.056a16.2,16.2,0,0,1-8.432,1.8c-3.895-.26-7.91-1.749-10.594-1.949a10.025,10.025,0,0,0-.187,2.692C9745.021,1402.754,9748.662,1402.661,9752.775,1402.045Z" transform="translate(-9666.968 -1154.869)" fill="#365da4"/>
      <path id="Path_2918" data-name="Path 2918" d="M9665.592,1395.333c.179,2.582,3.819,2.626,7.954,2.165s3.03.579,8.816.686,7.786-1.8,8.071-2.622c.253-.732-2.53-1.363-5.511-2.1-.374-.092-.748-.188-1.125-.284-3.356-.87-5.571-3.395-8.437-5.6-2.715-2.094-.482-10.774-.482-10.774l-6.24-2.948s-.857,8.948-1.321,13.473c-.189,1.853-1.112,3.715-1.439,5.327A10.149,10.149,0,0,0,9665.592,1395.333Z" transform="translate(-9652.104 -1150.429)" fill="#ffb07b"/>
      <path id="Path_2919" data-name="Path 2919" d="M9673.546,1401.846c4.133-.461,3.03.579,8.816.686s7.786-1.8,8.071-2.622c.253-.733-2.53-1.363-5.511-2.1l-.036.054a16.2,16.2,0,0,1-8.5,1.483c-3.879-.407-7.837-2.045-10.514-2.348a10.146,10.146,0,0,0-.286,2.683C9665.771,1402.262,9669.411,1402.306,9673.546,1401.846Z" transform="translate(-9652.104 -1154.777)" fill="#365da4"/>
      <path id="Path_2920" data-name="Path 2920" d="M9679.854,1240.792s-1.729,8.369-3.461,50.811a137.193,137.193,0,0,0-5.538,17.468c-2.329,9.609-3.973,49.7-3.973,49.7s.929,1.339,3.749,1.507a8.158,8.158,0,0,0,4.093-.871s16.189-52.515,24.07-72.9,12.5-49.5,12.5-49.5Z" transform="translate(-9652.35 -1124.728)" fill="#2b478b"/>
      <path id="Path_2921" data-name="Path 2921" d="M9706.828,1242.74s1.275,8.45,14.346,48.866a136.961,136.961,0,0,0,.852,18.3c1.143,9.821,14.373,48.488,14.373,48.488a8.12,8.12,0,0,0,4.393-.085,13.883,13.883,0,0,0,4.373-2.121s-5.072-55.267-4.74-77.122-5.412-50.764-5.412-50.764Z" transform="translate(-9659.853 -1123.094)" fill="#2b478b"/>
      <path id="Path_2922" data-name="Path 2922" d="M9725.4,1101.354a11.835,11.835,0,0,0-6.34-1.545,3,3,0,0,1,1.383-.574c-1.09-.217-3.59.747-3.59.747-14.951-6.636-18.469,15.69-18.41,20.922s-.205,11.235-8.047,15.531c-15.436,8.455-3.6,25.152-3.6,25.152-2.779,7.972,7.506,17.738,7.506,17.738-.174-4.233,19.26-31.2,29.736-37.358,2.652-3.512,3.85-9.891,3.941-10.392-.68,5.071-1.7,7.884-2.555,9.453C9734.4,1133.553,9730.828,1104.809,9725.4,1101.354Z" transform="translate(-9655.274 -1098.762)" fill="#c65447"/>
      <path id="Path_2923" data-name="Path 2923" d="M9727.993,1144.927c.053.023-4.9,2.6-8.63,1.576-3.5-.955-5.8-5.5-5.749-5.512,1.484-.295,1.915-2.335,1.883-11.1l.672.131,10.88,2.156.405.079s-.259,3.552-.266,6.9c0,.708.007,1.406.033,2.059C9727.295,1143.154,9727.511,1144.7,9727.993,1144.927Z" transform="translate(-9661.127 -1104.609)" fill="#ffb07b"/>
      <path id="Path_2924" data-name="Path 2924" d="M9727.709,1139.3c0,.708.007,1.406.034,2.059-6.329-.255-9.979-7.492-11.354-10.667l11.182,1.633.405.079S9727.716,1135.959,9727.709,1139.3Z" transform="translate(-9661.648 -1104.76)" fill="#ea8e50"/>
      <path id="Path_2925" data-name="Path 2925" d="M9714.351,1123.176s-3.31-5.229-4.1-9.7c-.567-3.193,1.058-15.025,12.949-13.321a16.161,16.161,0,0,1,6.7,2.533c2.58,1.744,6.308,5.508,2.141,15.833l-1.082,3.488Z" transform="translate(-9660.477 -1098.992)" fill="#c65447"/>
      <path id="Path_2926" data-name="Path 2926" d="M9728.34,1133.254s-14.812-1.958-13.453-11.166.367-15.66,9.885-14.8,10.83,4.646,11.123,7.829S9732.23,1133.526,9728.34,1133.254Z" transform="translate(-9661.349 -1100.349)" fill="#ffb07b"/>
      <path id="Path_2927" data-name="Path 2927" d="M9730.551,1107.684s-5.656,10.2-12.105,10.869-8.893-1.394-8.893-1.394a17.778,17.778,0,0,0,7.3-9.532S9728.264,1102.089,9730.551,1107.684Z" transform="translate(-9660.364 -1099.968)" fill="#c65447"/>
      <path id="Path_2928" data-name="Path 2928" d="M9734.01,1108.836s2.662,2.861,3.051,5.315,0,7.33,1.432,7.375c0,0,4.141-6.887,1.334-11.55C9736.85,1105.032,9734.01,1108.836,9734.01,1108.836Z" transform="translate(-9664.958 -1100.392)" fill="#c65447"/>
      <path id="Path_2929" data-name="Path 2929" d="M9817.27,1252.73c-3.109-6.583-11.75-12.031-19.029-12.033a21.62,21.62,0,0,0-13.789,4.822,3.628,3.628,0,0,1-5.83-2.064l-6.373-29.6a7.994,7.994,0,0,0-9.5-6.134l-103.107,22.191a7.811,7.811,0,0,0-5.994,9.281l22.168,103a8.1,8.1,0,0,0,5.471,6.022l-1.352.383h4l.035-.006a8.1,8.1,0,0,0,1.479-.178l2.246-.483h0l26.461-5.7a4.993,4.993,0,0,0,2.727-8.156,21.446,21.446,0,1,1,35.916-5.684,3.413,3.413,0,0,0,1.006,4.019l-1.541.753,3.574,0h0a3.485,3.485,0,0,0,.826-.077l31.6-6.8a8,8,0,0,0,6.135-9.5l-6.33-29.423a3.745,3.745,0,0,1,4.594-4.416,21.467,21.467,0,0,0,24.607-30.207Z" transform="translate(-9649.83 -1119.192)" fill="#d86713"/>
      <path id="Path_2930" data-name="Path 2930" d="M9793.757,1240.7a21.614,21.614,0,0,0-13.787,4.822,3.628,3.628,0,0,1-5.831-2.064l-6.373-29.6a8,8,0,0,0-9.5-6.134l-103.108,22.191a7.811,7.811,0,0,0-5.993,9.281l22.166,103a8.111,8.111,0,0,0,9.637,6.222l28.708-6.178a5,5,0,0,0,2.726-8.156,21.443,21.443,0,1,1,35.917-5.684,3.421,3.421,0,0,0,3.862,4.692l31.6-6.8a8,8,0,0,0,6.136-9.5l-6.332-29.423a3.745,3.745,0,0,1,4.595-4.416,21.468,21.468,0,0,0,24.607-30.207C9809.676,1246.147,9801.038,1240.7,9793.757,1240.7Z" transform="translate(-9648.989 -1119.192)" fill="#f1a34f"/>
      <path id="Path_2931" data-name="Path 2931" d="M9780.785,1200.156s6.432,1.053,8.117,5.236-.666,7.014-1.574,7a4.038,4.038,0,0,1-3.451-2.848C9783.063,1207.38,9780.785,1200.156,9780.785,1200.156Z" transform="translate(-9673.742 -1117.806)" fill="#ffb07b"/>
      <path id="Path_2932" data-name="Path 2932" d="M9671.773,1223.134s7.219-.009,9.816,4.258.535,7.788-.455,7.94a4.48,4.48,0,0,1-4.291-2.489C9675.566,1230.619,9671.773,1223.134,9671.773,1223.134Z" transform="translate(-9653.269 -1122.122)" fill="#ffb07b"/>
      <path id="Path_2933" data-name="Path 2933" d="M9758.455,1194.374c-.641-.137-3.437-.466-7-1.026-6.555-1.028-15.693-2.839-18.76-5.667-.83-.768-2.766-4.993-4.773-9.836a91.85,91.85,0,0,0-1.607,25.208l-44.3,9.536c3.8-7.68,9.678-17.2,8.574-24.908-.408-2.857-1.973-6.778-2.559-11.181-.049-.378-.092-.758-.125-1.142-6.211,5.114-13.389,10.758-13.561,11.886-.287,1.892,4.551,22.836,4.551,22.836-1.2,2.765-6.42,2.183-6.42,2.183-4.887-3.491-12.078-23.275-11.5-27.657s18.4-29.361,22.715-35.331c4.262-5.9,19.822-5.751,20.2-5.749h.008c12.373,7.43,13.488,1.256,13.488,1.256s11.164,2.123,13.084,5.42,10.332,28.308,10.928,29.189c1.246,1.842,21.586,9.211,21.951,11.344S9760.279,1194.761,9758.455,1194.374Z" transform="translate(-9651.233 -1107.17)" fill="#80bdcc"/>
      <path id="Path_2934" data-name="Path 2934" d="M9702.336,1216.64l-15.449,3.31c3.846-7.658,8.9-17.2,7.8-24.854-.413-2.86-1.34-6.243-1.787-10.666-.042-.426-.117-1.711-.117-1.711s10.939,8.609,11.132,17.927A93.308,93.308,0,0,1,9702.336,1216.64Z" transform="translate(-9656.106 -1114.531)" fill="#5f9aa8"/>
      <path id="Path_2935" data-name="Path 2935" d="M9767.357,1199.615c-6.635-1.031-15.885-2.841-18.988-5.671-.84-.768-2.8-5-4.834-9.848,0,0-.713-7.8,1.324-7.5s5.037,14.118,7.176,14.991C9753.949,1192.366,9764.537,1196.43,9767.357,1199.615Z" transform="translate(-9666.724 -1113.379)" fill="#5f9aa8"/>
    </g>
    <g id="man" transform="translate(9751.194 1177.68)">
      <g id="Group_3296" data-name="Group 3296" transform="translate(168.078 154.37)">
        <path id="Path_2936" data-name="Path 2936" d="M10170.412,1568.372c-.934,3.151-5.251,5.252-5.836,9.1a8.352,8.352,0,0,1-1.875,4.344h-13.441c.134-.74.726-1.537,2.473-1.919,3.732-.816,5.142-5.342,4.91-9.543a54.772,54.772,0,0,1,.034-5.507c.117-2.406.315-4.3.315-4.3l7.935-1.866.835,1.072.8,1.029S10171.345,1565.221,10170.412,1568.372Z" transform="translate(-10080.624 -1420.863)" fill="#2c3a64"/>
        <path id="Path_2937" data-name="Path 2937" d="M10091.947,1584.2h-27.2a5.459,5.459,0,0,1,3.43-1.705c4.186-.68,11.432-3.109,13.049-8.459.051-.171.1-.348.139-.526,1.281-5.718,10.619,1.75,10.619,1.75s.031.23.072.619C10092.221,1577.486,10092.584,1581.853,10091.947,1584.2Z" transform="translate(-10064.75 -1423.241)" fill="#2c3a64"/>
        <path id="Path_2938" data-name="Path 2938" d="M10070.34,1400.062s1.418,17.691,3.084,38.956c2.268,28.887,4.99,64.371,5.26,71.093.465,11.672,2.336,30.343,2.336,30.343s4.432,4.436,13.3,2.566c0,0,7.9-26.654,10.164-54.854.033-.462.07-.928.105-1.394,2.1-28.708,5.365-89.16,5.365-89.16Z" transform="translate(-10065.8 -1390.609)" fill="#35488b"/>
        <path id="Path_2939" data-name="Path 2939" d="M10070.34,1400.062s1.418,17.691,3.084,38.956l31.063,49.148c.033-.462.07-.928.105-1.394,2.1-28.708,5.365-89.16,5.365-89.16Z" transform="translate(-10065.8 -1390.609)" fill="#2c3a64"/>
        <path id="Path_2940" data-name="Path 2940" d="M10078.314,1400.543s25.556,64.07,42.36,94.179,22.057,38.511,22.057,38.511,9.63-3.851,10.5-6.476c0,0-6.427-58.128-17.682-72.3-6.358-8.006-13.829-32.035-14.179-40.437s-2.275-25.032-2.275-25.032Z" transform="translate(-10067.3 -1388.99)" fill="#35488b"/>
      </g>
      <path id="Path_2941" data-name="Path 2941" d="M10092.895,1276.56a74.929,74.929,0,0,1-1.174-10.686l12.967-10.451c-.48,14.37,8.727,21.28,8.727,21.28s-17.277,8.506-27.268,5.356A23.87,23.87,0,0,1,10092.895,1276.56Z" transform="translate(-9900.692 -1209.534)" fill="#935c2f"/>
      <path id="Path_2942" data-name="Path 2942" d="M10088.5,1261.688s16.5,2.74,18.043-7.559,4.723-16.883-5.744-19.068-13.109,1.437-14.464,4.749S10084.254,1260.709,10088.5,1261.688Z" transform="translate(-9900.53 -1205.584)" fill="#a16d3c"/>
      <g id="Group_3297" data-name="Group 3297" transform="translate(113.004 71.023)">
        <path id="Path_2943" data-name="Path 2943" d="M10013.975,1292.767l-3.514-2.174a8.876,8.876,0,0,0-11.857-2.448s-2.963,1.889-.975,3.471,1.453.688,4.209,2.979,6.318,3.11,8.615,1.847l2.949-.279Z" transform="translate(-9996.942 -1286.455)" fill="#a16d3c"/>
        <path id="Path_2944" data-name="Path 2944" d="M10012.689,1293.359c.9-2.83,1.336-3.081,1.336-3.081s28.4,3.357,31.08,3.554,39.861-7.463,39.861-7.463l17.559,21.321s-51.768,1.952-58.543,1.318c-11.2-1.049-31.5-11.473-31.5-11.473A8.292,8.292,0,0,1,10012.689,1293.359Z" transform="translate(-9999.828 -1286.369)" fill="#d3782f"/>
      </g>
      <path id="Path_2945" data-name="Path 2945" d="M10119.218,1371.179c.052,1.1-2.216,2.309-3.2,2.751-7.413,3.324-14.318,5.633-22.121,6.384-9.253.949-20.19-1.132-23.939-1.083a1.607,1.607,0,0,1-1.051-.4c-.251-.2-.452-11.5-.251-25.757,0-.55,0-1.152.051-1.7v-.2c.014-1.485.037-2.993.069-4.515.092-4.166.25-8.442.43-12.692.271-6.264.643-12.421,1.159-17.876a103.338,103.338,0,0,1,2.095-14.131c2-8.052,6.6-13.355,10.8-17.256l3.448-3.048a16.365,16.365,0,0,0,10.753-1.3c3.95-1.95,8.252-4.052,8.951-3.551,5.333,3.985,8.923,13.032,10.763,24.53a127.35,127.35,0,0,1,1.446,20.287q-.018,4.144-.257,8.4a276.2,276.2,0,0,0,.547,36.006C10119.064,1368.225,10119.185,1369.974,10119.218,1371.179Z" transform="translate(-9897.391 -1213.536)" fill="#e69d43"/>
      <path id="Path_2946" data-name="Path 2946" d="M9992.828,1216.309,9888.5,1199.74a8.133,8.133,0,0,0-9.309,6.757l-4.617,29.078a34.372,34.372,0,0,0,.127,5.132l3.76.56a4.9,4.9,0,0,0,.652.1h0a4.962,4.962,0,0,0,2.1-.286,21.5,21.5,0,1,1-7.689,35.642,3.4,3.4,0,0,0-2.037-.961h0l-3.934-.591-4.9,35.47a8.022,8.022,0,0,0,6.662,9.179l29.8,4.733a3.755,3.755,0,0,1,2.465,5.895,21.522,21.522,0,0,0,19.332,33.944c7.279-.522,15.5-6.628,18.141-13.434a21.673,21.673,0,0,0,.484-14.637,3.639,3.639,0,0,1,4.041-4.706l29.988,4.763a8.018,8.018,0,0,0,9.176-6.661l16.586-104.44A7.832,7.832,0,0,0,9992.828,1216.309Z" transform="translate(-9858.698 -1199.056)" fill="#4a75cb"/>
      <path id="Path_2947" data-name="Path 2947" d="M10106.842,1306.646s-7.994,37.319-38.02,45.633c.092-4.166.25-8.442.43-12.692.271-6.264.643-12.421,1.16-17.876a10.349,10.349,0,0,1,1.5-.644C10082.1,1317.708,10106.842,1306.646,10106.842,1306.646Z" transform="translate(-9897.438 -1219.155)" fill="#d3782f"/>
      <path id="Path_2948" data-name="Path 2948" d="M9934.31,1350.238a21.674,21.674,0,0,0,.485-14.637,3.64,3.64,0,0,1,4.041-4.706l29.988,4.762A8.015,8.015,0,0,0,9978,1329l16.586-104.441a7.83,7.83,0,0,0-6.5-8.964l-104.328-16.569a8.133,8.133,0,0,0-9.307,6.757l-4.618,29.078a5.007,5.007,0,0,0,6.639,5.5,21.5,21.5,0,1,1-7.691,35.642,3.431,3.431,0,0,0-5.787,1.914l-5.082,32.006a8.021,8.021,0,0,0,6.663,9.178l29.8,4.734a3.756,3.756,0,0,1,2.466,5.9,21.523,21.523,0,0,0,19.333,33.944C9923.45,1363.15,9931.672,1357.043,9934.31,1350.238Z" transform="translate(-9857.805 -1198.922)" fill="#699dee"/>
      <g id="Group_3298" data-name="Group 3298" transform="translate(110.544 68.818)">
        <path id="Path_2949" data-name="Path 2949" d="M10013.525,1322.6l-4.289-.71a10.593,10.593,0,0,0-13.414-3.106s-3.379,1.89-1.145,3.659,1.641.795,4.736,3.353,7.125,3.58,9.746,2.33l3.342-.175Z" transform="translate(-9993.914 -1290.026)" fill="#a16d3c"/>
        <path id="Path_2950" data-name="Path 2950" d="M10014.021,1318.411c.139-3.156,1.818-3.493,1.818-3.493s32.493-2.149,35.3-2.692,28.682-21.986,28.682-21.986,10.01-8.995,17.021-5.96c6.093,2.637,8,7.841,8.307,12.626a13.9,13.9,0,0,1-8.028,13.452c-11.621,5.429-34.865,16.084-40.16,17-11.779,2.046-42.062-4.512-42.062-4.512A9.953,9.953,0,0,1,10014.021,1318.411Z" transform="translate(-9997.688 -1283.655)" fill="#e69d43"/>
      </g>
      <path id="Path_2951" data-name="Path 2951" d="M10085.7,1237.993s-6.7-4.965-2.329-12.68a25.489,25.489,0,0,0,12.75,0c7.481-1.746,14.176.729,15.05,3.348,0,0,2.91,1.165,3.2,5.531s-8.465,18.121-8.465,18.121-1.87-2.329-1.36-3.929,2.11-5.167.147-5.167-2.62,2.911-3.422,1.747.656-6.04-1.673-6.841S10088.323,1239.466,10085.7,1237.993Z" transform="translate(-9899.894 -1203.769)" fill="#2c3a64"/>
    </g>
    <path id="Path_2952" data-name="Path 2952" d="M9773.211,1548.963l-29.491-133.9h8.118a3.508,3.508,0,0,0,3.5-3.5v-4.523a3.508,3.508,0,0,0-3.5-3.5H9648.861a3.509,3.509,0,0,0-3.5,3.5v4.523a3.509,3.509,0,0,0,3.5,3.5h10.45l-29.491,133.9a3.342,3.342,0,1,0,6.526,1.446l29.81-135.345h70.718l29.81,135.345a3.351,3.351,0,0,0,3.985,2.549h0A3.362,3.362,0,0,0,9773.211,1548.963Z" transform="translate(-63.777 -59.674)" fill="#c3e0f4"/>
    <g id="Group_3299" data-name="Group 3299" transform="translate(9767.549 1406.164)">
      <path id="Path_2953" data-name="Path 2953" d="M10035.566,1481.371c-10.914-10.479-50.211,55.638-50.211,55.638S10046.482,1491.849,10035.566,1481.371Z" transform="translate(-9898.116 -1480.245)" fill="#acd29a"/>
      <path id="Path_2954" data-name="Path 2954" d="M10014.082,1519.189c-9.663-3.866-40.545,28.693-47.5,36.21a154,154,0,0,0-17.559-1.28c-48.9-.874-71.083,21.276-71.083,21.276l136.415.464s-12.083-15.344-46.365-20.266c8.377-3.955,33.151-15.478,42.161-17.693C10021.069,1535.216,10025,1523.555,10014.082,1519.189Z" transform="translate(-9877.941 -1487.499)" fill="#acd29a"/>
    </g>
    <g id="Group_3300" data-name="Group 3300" transform="translate(9709.514 1371.403)">
      <path id="Path_2955" data-name="Path 2955" d="M9966.971,1437.557h-29.445a5.008,5.008,0,0,0-4.391,7.42c1.777,3.22-4.48,31.121-17.67,31.849a21.5,21.5,0,0,1-18.738-33.854,3.43,3.43,0,0,0-2.8-5.415h-32.4a8.02,8.02,0,0,0-8.021,8.02s-2.937,34.784-5.436,33.536a21.375,21.375,0,0,0-8.475-2.226h-.029c-.361-.019-.727-.03-1.094-.03s-5.7-.091-5.7-.091l-.811,42.985,4.633.049c4.4-.132,8.229-.543,11.629-2.276a3.639,3.639,0,0,1,5.281,3.253v30.364a8.016,8.016,0,0,0,8.016,8.016h105.75a7.832,7.832,0,0,0,7.832-7.833V1445.689A8.132,8.132,0,0,0,9966.971,1437.557Z" transform="translate(-9811.27 -1437.466)" fill="#d86713"/>
      <path id="Path_2956" data-name="Path 2956" d="M9823.2,1519.228a21.671,21.671,0,0,0,14.531-1.819,3.64,3.64,0,0,1,5.281,3.254v30.364a8.016,8.016,0,0,0,8.018,8.016h105.75a7.831,7.831,0,0,0,7.83-7.833V1445.577a8.132,8.132,0,0,0-8.133-8.132h-29.439a5.008,5.008,0,0,0-4.395,7.42,21.5,21.5,0,1,1-36.4-2.005,3.432,3.432,0,0,0-2.8-5.415h-32.408a8.021,8.021,0,0,0-8.02,8.02v30.177a3.756,3.756,0,0,1-5.436,3.359,21.522,21.522,0,0,0-30.49,24.417C9808.746,1510.527,9816.068,1517.69,9823.2,1519.228Z" transform="translate(-9806.486 -1437.445)" fill="#f1a34f"/>
    </g>
    <path id="Path_2957" data-name="Path 2957" d="M9443.219,1575.222l19,.14s-.66-4.6-13.455-5.785h0c-4.96-13.779-19.531-50.843-32.184-49.09-12.494,1.731,17.095,35.734,29.131,48.954a30.247,30.247,0,0,0-4.756.377c-2.9-5.773-8.649-13.934-17.876-13.562-9.819.4,3.558,9.364,12.77,14.871a22.716,22.716,0,0,0-7.185,3.989l14.333.1.26.142Z" transform="translate(-23.174 -81.627)" fill="#acd29a"/>
    <g id="Group_3303" data-name="Group 3303" transform="translate(9387.651 1189.051)">
      <g id="Group_3301" data-name="Group 3301" transform="translate(16.364 97.028)">
        <path id="Path_2958" data-name="Path 2958" d="M9532.924,1398.794l2.814,2.284s7.692-2.758,9.428,6.383c0,0,.463,3.9-2,3.9s-1.451-.426-4.944-.323-6.392-1.74-6.9-4.576l-1.671-2.4Z" transform="translate(-9448.99 -1344.862)" fill="#ea8e50"/>
        <path id="Path_2959" data-name="Path 2959" d="M9513.956,1391.223c2.244-2.343,2.063-4.075,2.063-4.075s-25.979-21.269-28.614-23c-1.8-1.181-20.928-18.143-29.871-28.483-4.437-5.13-9.933-3.139-16.219-1.335l-5.178,1.485c-6.252,1.793-7.877,10.537-2.748,14.787,14.446,11.966,38.479,25.425,42.976,28.253,11.164,7.023,33.015,15.366,33.015,15.366A13.846,13.846,0,0,0,9513.956,1391.223Z" transform="translate(-9430.339 -1332.39)" fill="#1e3d70"/>
      </g>
      <path id="Path_2960" data-name="Path 2960" d="M9568.809,1565.46s6.306,4.724,15.966,2.228c0,0,7.789-1.775,9.5,2.109,0,0-11.947,6.069-14.969,7.729a36.225,36.225,0,0,0-6.337,4.751,3.132,3.132,0,0,1-4.536-.35c-.525-.646-1.127-1.416-1.786-2.308-1.841-2.5-6.133-10.559-6.133-10.559Z" transform="translate(-9438.425 -1279.137)" fill="#233862"/>
      <path id="Path_2961" data-name="Path 2961" d="M9551.873,1536.723s-3.84,8.852-12.7,7.225c0,0-18.082-14.934-30.486-30.449a68.878,68.878,0,0,1-9.475-14.8c-8.227-19.045-30.426-47.449-44.541-61.845l35.316-12.776s11.311,22.756,26.361,50.706C9527.2,1494.919,9539.98,1517.756,9551.873,1536.723Z" transform="translate(-9418.546 -1252.582)" fill="#2b478b"/>
      <path id="Path_2962" data-name="Path 2962" d="M9516.348,1474.78l-7.662,38.72a68.878,68.878,0,0,1-9.475-14.8c-8.227-19.045-30.426-47.449-44.541-61.845l35.316-12.776S9501.3,1446.83,9516.348,1474.78Z" transform="translate(-9418.546 -1252.582)" fill="#233862"/>
      <path id="Path_2963" data-name="Path 2963" d="M9492.019,1570.748s-.386,7.063,8.177,8.006c0,0,4.893.026,4.906,4.521l-24.887.079a19.353,19.353,0,0,1-.9-5.7c-.134-2.983,2.891-10.781,2.891-10.781Z" transform="translate(-9423.173 -1279.402)" fill="#233862"/>
      <path id="Path_2964" data-name="Path 2964" d="M9475.955,1423.712s15.734,17.288,25.721,48.433c5.434,16.945-9.959,59.55-12.961,74.353,0,0-10.326.877-17.385-1.853,0,0-.537-30.574,3.592-54.139,2.311-13.189-20.715-28.206-30.777-52.036-6.844-16.212,1.484-15.937,11.717-16.326Z" transform="translate(-9416.099 -1252.219)" fill="#2b478b"/>
      <path id="Path_2965" data-name="Path 2965" d="M9455.36,1324.177c-8.754,4.942-26.675.384-26.675.384s7.279-8.32,3.972-21.719l6.873,3.491,7.382,3.749a61.1,61.1,0,0,1,.809,6.617c.085,1.095.161,2.317.214,3.653A22.966,22.966,0,0,1,9455.36,1324.177Z" transform="translate(-9413.665 -1229.812)" fill="#ffb07b"/>
      <path id="Path_2966" data-name="Path 2966" d="M9485.931,1404.375c0,1.538-1.771,2.275-2.147,2.35-3.531.645-13.389,4.48-22.27,5.36-7.478.783-14.42.039-22.047-1.492-1.01-.2-3.381-.842-3.548-1.81-.211-1.057-29.421-59.545-6.713-84.668.532-.59,5.015.472,9.113,1.445a16.83,16.83,0,0,0,10.357-.846l3.845,2.022c4.72,2.631,13.652,11.976,14.7,19.309.532,3.729,2.665,6.491,3.282,9.771q.343,1.82.7,3.554.7,3.4,1.438,6.471c1.337,5.546,2.744,10.321,4.129,14.445,1.474,4.38,2.919,8.023,4.209,11.069,1.674,3.951,3.089,6.9,3.973,9.166A11.248,11.248,0,0,1,9485.931,1404.375Z" transform="translate(-9412.14 -1233.776)" fill="#2a4e96"/>
      <path id="Path_2967" data-name="Path 2967" d="M9487,1405.113c-41.23-19.427-55.51-56.728-55.51-56.728s33.5,12.357,41.761,15.575q.7,3.4,1.438,6.471c1.336,5.546,2.744,10.321,4.129,14.445,1.472,4.38,2.918,8.023,4.209,11.069C9484.7,1399.9,9486.118,1402.851,9487,1405.113Z" transform="translate(-9414.192 -1238.366)" fill="#1e3d70"/>
      <path id="Path_2968" data-name="Path 2968" d="M9609.087,1338.356l-8.831-28a5.007,5.007,0,0,0-6.13-3.315h0l-.007,0c-.13.037-.259.081-.387.13l-3.1,1.034s-4.848,4.993-8.331,6c-10.7,3.1-20.848-2.606-24.75-13.035-4.342-11.6.693-24.338,12.356-28.015,3.988-1.258,11.841,1.087,11.841,1.087l3.15-1.048a3.42,3.42,0,0,0,2.276-4.307l-9.721-30.824a8,8,0,0,0-10.035-5.223l-28.7,9.052a3.745,3.745,0,0,1-4.826-4.162,21.467,21.467,0,0,0-32.372-21.679c-6.264,3.709-10.882,12.821-10.2,20.069a21.616,21.616,0,0,0,6.088,13.278,3.63,3.63,0,0,1-1.511,6l-28.882,9.108a8,8,0,0,0-5.22,10.031l31.723,100.585a7.81,7.81,0,0,0,9.8,5.1l100.476-31.687A8.111,8.111,0,0,0,9609.087,1338.356Z" transform="translate(-9419.813 -1212.923)" fill="#4a75cb"/>
      <path id="Path_2969" data-name="Path 2969" d="M9487.556,1237.371a21.61,21.61,0,0,0,6.089,13.277,3.63,3.63,0,0,1-1.511,6l-28.882,9.108a8,8,0,0,0-5.221,10.031l31.723,100.585a7.812,7.812,0,0,0,9.8,5.1l100.475-31.687a8.11,8.11,0,0,0,5.295-10.175l-8.831-28a4.994,4.994,0,0,0-8.375-1.953,21.444,21.444,0,1,1-9.013-35.23,3.421,3.421,0,0,0,4.311-4.285l-9.721-30.824a8,8,0,0,0-10.035-5.222l-28.7,9.052a3.745,3.745,0,0,1-4.825-4.162,21.468,21.468,0,0,0-32.371-21.678C9491.494,1221.011,9486.878,1230.123,9487.556,1237.371Z" transform="translate(-9419.106 -1213.159)" fill="#699dee"/>
      <g id="Group_3302" data-name="Group 3302" transform="translate(11.769 98.872)">
        <path id="Path_2970" data-name="Path 2970" d="M9529.111,1404.317l3.563,1.306s7.136-5.045,11.577,3.16c0,0,1.607,3.584-.936,4.363s-1.619.046-5.194,1.236-7.1.333-8.448-2.221l-2.421-1.776Z" transform="translate(-9443.946 -1347.7)" fill="#ffb07b"/>
        <path id="Path_2971" data-name="Path 2971" d="M9512.779,1396.315c1.316-3.437,1.918-4.993,1.918-4.993s-26.922-21.944-29.666-23.827c-1.869-1.282-20.479-15.192-29.551-26.033a18.989,18.989,0,0,0-18.461-6.4l-5.65,1.185a8.406,8.406,0,0,0-3.748,14.607c14.908,12.781,40.055,27.606,44.744,30.688,11.639,7.655,37.383,18.381,37.383,18.381A6.629,6.629,0,0,0,9512.779,1396.315Z" transform="translate(-9424.681 -1334.66)" fill="#2a4e96"/>
      </g>
      <path id="Path_2972" data-name="Path 2972" d="M9448.838,1317.506c-8.607.484-14.205-6.624-14.205-6.624a68.171,68.171,0,0,0,6.015-3.742l7.382,3.749A61.106,61.106,0,0,1,9448.838,1317.506Z" transform="translate(-9414.78 -1230.619)" fill="#ea8e50"/>
      <path id="Path_2973" data-name="Path 2973" d="M9450.637,1303.943s-13.043,9.36-18.746,1.148-11.229-12.534-3.141-18.858,11.9-4.325,14.467-2.047S9453.883,1301.3,9450.637,1303.943Z" transform="translate(-9412.912 -1225.894)" fill="#ffb07b"/>
      <path id="Path_2974" data-name="Path 2974" d="M9441.872,1274.32a20.919,20.919,0,0,0-1.52-5.378s-.817,3.391-7.015,2.923-16.017.609-19.29,7.669c-.208.45-.394.913-.559,1.385a16.379,16.379,0,0,1-.735-3.911c-1.178,3.039,0,6.842,0,6.842h0c-.017.111-.032.222-.048.333-1.368,1.156-2.516,4.75-2.516,4.75a4.3,4.3,0,0,1,2.316-2.059c-.028,5.494,2.2,10.865,6.11,12.464,5.72,2.338,5.674.555,11.425,4.369,0,0,1.543-1.914.49-3.2s-5.026-3.156-2.806-5.027,3.039.234,3.858-1.052-3.274-5.027,1.986-8.534S9442.34,1277.476,9441.872,1274.32Z" transform="translate(-9410.19 -1223.445)" fill="#233862"/>
    </g>
    <path id="Path_2975" data-name="Path 2975" d="M9840.676,1572.9s-6.6-9.748-16.918-8.962c-3.137.239-8.234,1-14.156,1.818-4.467-15.583-16.773-52.627-33.375-54.713-16.957-2.13,16.225,39.068,29.791,55.2-2.475.326-5.043.644-7.639.926-7.182-7.67-19.7-19.033-30.152-18.16-10.48.875,9.139,11.71,23.3,18.8-8.687.65-16.926.578-21.961-1.368-12.33-4.767-23.66,6.467-23.66,6.467Z" transform="translate(-85.594 -79.85)" fill="#82b378"/>
    <rect id="Rectangle_243" data-name="Rectangle 243" width="797.511" height="2.115" rx="1.058" transform="translate(9290.185 1493.002)" fill="#2e3552"/>
  </g>
</svg>
