<svg id="Group_13213" data-name="Group 13213" xmlns="http://www.w3.org/2000/svg" width="150.666" height="150.666" viewBox="0 0 150.666 150.666">
  <path id="Path_16413" data-name="Path 16413" d="M9427,10412.376h150.666v150.666H9427Z" transform="translate(-9426.998 -10412.376)" fill="#f7df1e"/>
  <path id="Path_16414" data-name="Path 16414" d="M9520.773,10631.742l11.529-6.979c2.224,3.943,4.248,7.281,9.1,7.281,4.652,0,7.587-1.82,7.587-8.9V10575h14.158v48.342c0,14.666-8.6,21.34-21.138,21.34-11.327,0-17.9-5.865-21.238-12.945m50.066-1.516,11.528-6.676c3.035,4.957,6.979,8.6,13.956,8.6,5.868,0,9.608-2.934,9.608-6.979,0-4.855-3.844-6.574-10.315-9.406l-3.539-1.518c-10.215-4.348-16.992-9.809-16.992-21.338,0-10.619,8.092-18.711,20.733-18.711,9,0,15.475,3.135,20.125,11.328l-11.023,7.078c-2.428-4.348-5.057-6.066-9.1-6.066-4.147,0-6.776,2.629-6.776,6.066,0,4.248,2.629,5.969,8.7,8.6l3.54,1.516c12.035,5.158,18.811,10.416,18.811,22.248,0,12.746-10.013,19.723-23.463,19.723-13.148,0-21.643-6.271-25.788-14.463" transform="translate(-9481.158 -10505.835)"/>
</svg>
